%!PS-Adobe-2.0 EPSF-2.0
%%BoundingBox:  0 0 567 415
%%Title: dataset/plots/invBeffvsSeff.eps: the canvas
%%Creator: ROOT Version 6.16/00
%%CreationDate: Wed May 15 12:38:41 2019
%%DocumentNeededResources: ProcSet (FontSetInit)
%%EndComments
%%BeginProlog
80 dict begin
/s {stroke} def /l {lineto} def /m {moveto} def /t {translate} def
/r {rotate} def /rl {roll}  def /R {repeat} def
/d {rlineto} def /rm {rmoveto} def /gr {grestore} def /f {eofill} def
/c {setrgbcolor} def /black {0 setgray} def /sd {setdash} def
/cl {closepath} def /sf {scalefont setfont} def /lw {setlinewidth} def
/box {m dup 0 exch d exch 0 d 0 exch neg d cl} def
/NC{systemdict begin initclip end}def/C{NC box clip newpath}def
/bl {box s} def /bf {gsave box gsave f grestore 1 lw [] 0 sd s grestore} def /Y { 0 exch d} def /X { 0 d} def 
/K {{pop pop 0 moveto} exch kshow} bind def
/ita {/ang 15 def gsave [1 0 ang dup sin exch cos div 1 0 0] concat} def 
/mp {newpath /y exch def /x exch def} def
/side {[w .77 mul w .23 mul] .385 w mul sd w 0 l currentpoint t -144 r} def
/mr {mp x y w2 0 360 arc} def /m24 {mr s} def /m20 {mr f} def
/mb {mp x y w2 add m w2 neg 0 d 0 w neg d w 0 d 0 w d cl} def
/mt {mp x y w2 add m w2 neg w neg d w 0 d cl} def
/w4 {w 4 div} def
/w6 {w 6 div} def
/w8 {w 8 div} def
/m21 {mb f} def /m25 {mb s} def /m22 {mt f} def /m26{mt s} def
/m23 {mp x y w2 sub m w2 w d w neg 0 d cl f} def
/m27 {mp x y w2 add m w3 neg w2 neg d w3 w2 neg d w3 w2 d cl s} def
/m28 {mp x w2 sub y w2 sub w3 add m w3 0 d  0 w3 neg d w3 0 d 0 w3 d w3 0 d  0 w3 d w3 neg 0 d 0 w3 d w3 neg 0 d 0 w3 neg d w3 neg 0 d cl s } def
/m29 {mp gsave x w2 sub y w2 add w3 sub m currentpoint t 4 {side} repeat cl fill gr} def
/m30 {mp gsave x w2 sub y w2 add w3 sub m currentpoint t 4 {side} repeat cl s gr} def
/m31 {mp x y w2 sub m 0 w d x w2 sub y m w 0 d x w2 sub y w2 add m w w neg d x w2 sub y w2 sub m w w d s} def
/m32 {mp x y w2 sub m w2 w d w neg 0 d cl s} def
/m33 {mp x y w2 add m w3 neg w2 neg d w3 w2 neg d w3 w2 d cl f} def
/m34 {mp x w2 sub y w2 sub w3 add m w3 0 d  0 w3 neg d w3 0 d 0 w3 d w3 0 d  0 w3 d w3 neg 0 d 0 w3 d w3 neg 0 d 0 w3 neg d w3 neg 0 d cl f } def
/m35 {mp x y w2 add m w2 neg w2 neg d w2 w2 neg d w2 w2 d w2 neg w2 d x y w2 sub m 0 w d x w2 sub y m w 0 d s} def
/m36 {mb x w2 sub y w2 add m w w neg d x w2 sub y w2 sub m w w d s} def
/m37 {mp x y m w4 neg w2 d w4 neg w2 neg d w2 0 d  w4 neg w2 neg d w2 0 d w4 neg w2 d w2 0 d w4 neg w2 d w4 neg w2 neg d cl s} def
/m38 {mp x w4 sub y w2 add m w4 neg w4 neg d 0 w2 neg d w4 w4 neg d w2 0 d w4 w4 d 0 w2 d w4 neg w4 d w2 neg 0 d x y w2 sub m 0 w d x w2 sub y m w 0 d cl s} def
/m39 {mp x y m w4 neg w2 d w4 neg w2 neg d w2 0 d  w4 neg w2 neg d w2 0 d w4 neg w2 d w2 0 d w4 neg w2 d w4 neg w2 neg d cl f} def
/m40 {mp x y m w4 w2 d w4 w4 neg d w2 neg w4 neg d w2 w4 neg d w4 neg w4 neg d w4 neg w2 d w4 neg w2 neg d w4 neg w4 d w2 w4 d w2 neg w4 d w4 w4 d w4 w2 neg d cl s} def
/m41 {mp x y m w4 w2 d w4 w4 neg d w2 neg w4 neg d w2 w4 neg d w4 neg w4 neg d w4 neg w2 d w4 neg w2 neg d w4 neg w4 d w2 w4 d w2 neg w4 d w4 w4 d w4 w2 neg d cl f} def
/m42 {mp x y w2 add m w8 neg w2 -3 4 div mul d w2 -3 4 div mul w8 neg d w2 3 4 div mul w8 neg d w8 w2 -3 4 div mul d w8 w2 3 4 div mul d w2 3 4 div mul w8 d w2 -3 4 div mul w8 d w8 neg w2 3 4 div mul d cl s} def
/m43 {mp x y w2 add m w8 neg w2 -3 4 div mul d w2 -3 4 div mul w8 neg d w2 3 4 div mul w8 neg d w8 w2 -3 4 div mul d w8 w2 3 4 div mul d w2 3 4 div mul w8 d w2 -3 4 div mul w8 d w8 neg w2 3 4 div mul d cl f} def
/m44 {mp x y m w6 neg w2 d w2 2 3 div mul 0 d w6 neg w2 neg d w2 w6 d 0 w2 -2 3 div mul d w2 neg w6 d w6 w2 neg d w2 -2 3 div mul 0 d w6 w2 d w2 neg w6 neg d 0 w2 2 3 div mul d w2 w6 neg d cl s} def
/m45 {mp x y m w6 neg w2 d w2 2 3 div mul 0 d w6 neg w2 neg d w2 w6 d 0 w2 -2 3 div mul d w2 neg w6 d w6 w2 neg d w2 -2 3 div mul 0 d w6 w2 d w2 neg w6 neg d 0 w2 2 3 div mul d w2 w6 neg d cl f} def
/m46 {mp x y w4 add m w4 neg w4 d w4 neg w4 neg d  w4 w4 neg d w4 neg w4 neg d w4 w4 neg d w4 w4 d w4 w4 neg d w4 w4 d w4 neg w4 d w4 w4 d w4 neg w4 d w4 neg w4 neg d cl s} def
/m47 {mp x y w4 add m w4 neg w4 d w4 neg w4 neg d w4 w4 neg d w4 neg w4 neg d  w4 w4 neg d w4 w4 d w4 w4 neg d w4 w4 d w4 neg w4 d w4 w4 d w4 neg w4 d w4 neg w4 neg d cl f} def
/m48 {mp x y w4 add m w4 neg w4 d w4 neg w4 neg d w4 w4 neg d  w4 neg w4 neg d w4 w4 neg d w4 w4 d w4 w4 neg d w4 w4 d w4 neg w4 d w4 w4 d w4 neg w4 d w4 neg w4 neg d  w4 w4 neg d w4 neg w4 neg d w4 neg w4 d w4 w4 d cl f} def
/m49 {mp x w2 sub w3 add y w2 sub w3 add m  0 w3 neg d w3 0 d 0 w3 d w3 0 d 0 w3 d w3 neg 0 d 0 w3 d w3 neg 0 d 0 w3 neg d w3 neg 0 d 0 w3 neg d w3 0 d 0 w3 d w3 0 d 0 w3 neg d w3 neg 0 d cl f } def
/m2 {mp x y w2 sub m 0 w d x w2 sub y m w 0 d s} def
/m5 {mp x w2 sub y w2 sub m w w d x w2 sub y w2 add m w w neg d s} def
%%IncludeResource: ProcSet (FontSetInit)
%%IncludeResource: font Times-Roman
%%IncludeResource: font Times-Italic
%%IncludeResource: font Times-Bold
%%IncludeResource: font Times-BoldItalic
%%IncludeResource: font Helvetica
%%IncludeResource: font Helvetica-Oblique
%%IncludeResource: font Helvetica-Bold
%%IncludeResource: font Helvetica-BoldOblique
%%IncludeResource: font Courier
%%IncludeResource: font Courier-Oblique
%%IncludeResource: font Courier-Bold
%%IncludeResource: font Courier-BoldOblique
%%IncludeResource: font Symbol
%%IncludeResource: font ZapfDingbats
/reEncode {exch findfont dup length dict begin {1 index /FID eq  {pop pop} {def} ifelse } forall /Encoding exch def currentdict end dup /FontName get exch definefont pop } def [/Times-Bold /Times-Italic /Times-BoldItalic /Helvetica /Helvetica-Oblique
 /Helvetica-Bold /Helvetica-BoldOblique /Courier /Courier-Oblique /Courier-Bold /Courier-BoldOblique /Times-Roman /AvantGarde-Book /AvantGarde-BookOblique /AvantGarde-Demi /AvantGarde-DemiOblique /Bookman-Demi /Bookman-DemiItalic /Bookman-Light
 /Bookman-LightItalic /Helvetica-Narrow /Helvetica-Narrow-Bold /Helvetica-Narrow-BoldOblique /Helvetica-Narrow-Oblique /NewCenturySchlbk-Roman /NewCenturySchlbk-Bold /NewCenturySchlbk-BoldItalic /NewCenturySchlbk-Italic /Palatino-Bold
 /Palatino-BoldItalic /Palatino-Italic /Palatino-Roman ] {ISOLatin1Encoding reEncode } forall
%%EndProlog
%%BeginSetup
%%EndSetup
newpath  gsave  .25 .25 scale  gsave  0 0 t 0.490196 0.545098 0.615686 c[  ] 0 sd 3 lw 0.941176 0.941176 0.941176 c 2268 1659 0 0 bf black 1 1 0.992157 c 1909 1294 245 199 bf black 1909 1294 245 199 bl 1 1 0.992157 c 1909 1294 245 199 bf black 1909
 1294 245 199 bl 245 199 m 1909 X s 245 241 m -42 Y s[ 4 8] 0 sd 245 1493 m -1294 Y s[  ] 0 sd 283 220 m -21 Y s 321 220 m -21 Y s 359 220 m -21 Y s 398 220 m -21 Y s 436 241 m -42 Y s[ 4 8] 0 sd 436 1493 m -1294 Y s[  ] 0 sd 474 220 m -21 Y s 512
 220 m -21 Y s 550 220 m -21 Y s 589 220 m -21 Y s 627 241 m -42 Y s[ 4 8] 0 sd 627 1493 m -1294 Y s[  ] 0 sd 665 220 m -21 Y s 703 220 m -21 Y s 741 220 m -21 Y s 780 220 m -21 Y s 818 241 m -42 Y s[ 4 8] 0 sd 818 1493 m -1294 Y s[  ] 0 sd 856 220 m
 -21 Y s 894 220 m -21 Y s 932 220 m -21 Y s 970 220 m -21 Y s 1009 241 m -42 Y s[ 4 8] 0 sd 1009 1493 m -1294 Y s[  ] 0 sd 1047 220 m -21 Y s 1085 220 m -21 Y s 1123 220 m -21 Y s 1161 220 m -21 Y s 1200 241 m -42 Y s[ 4 8] 0 sd 1200 1493 m -1294 Y
 s[  ] 0 sd 1238 220 m -21 Y s 1276 220 m -21 Y s 1314 220 m -21 Y s 1352 220 m -21 Y s 1391 241 m -42 Y s[ 4 8] 0 sd 1391 1493 m -1294 Y s[  ] 0 sd 1429 220 m -21 Y s 1467 220 m -21 Y s 1505 220 m -21 Y s 1543 220 m -21 Y s 1582 241 m -42 Y s[ 4 8]
 0 sd 1582 1493 m -1294 Y s[  ] 0 sd 1620 220 m -21 Y s 1658 220 m -21 Y s 1696 220 m -21 Y s 1734 220 m -21 Y s 1772 241 m -42 Y s[ 4 8] 0 sd 1772 1493 m -1294 Y s[  ] 0 sd 1811 220 m -21 Y s 1849 220 m -21 Y s 1887 220 m -21 Y s 1925 220 m -21 Y s
 1963 241 m -42 Y s[ 4 8] 0 sd 1963 1493 m -1294 Y s[  ] 0 sd 2002 220 m -21 Y s 2040 220 m -21 Y s 2078 220 m -21 Y s 2116 220 m -21 Y s 2154 241 m -42 Y s[ 4 8] 0 sd 2154 1493 m -1294 Y s
 gsave  2268 1659 0 0 C 223.972 129.484 t 0 r /Helvetica-Bold findfont 62.9921 sf 0 0 m (0) show NC gr 
 gsave  2268 1659 0 0 C 395.451 129.484 t 0 r /Helvetica-Bold findfont 62.9921 sf 0 0 m (0.1) show NC gr 
 gsave  2268 1659 0 0 C 580.927 129.484 t 0 r /Helvetica-Bold findfont 62.9921 sf 0 0 m (0.2) show NC gr 
 gsave  2268 1659 0 0 C 769.904 129.484 t 0 r /Helvetica-Bold findfont 62.9921 sf 0 0 m (0.3) show NC gr 
 gsave  2268 1659 0 0 C 962.38 129.484 t 0 r /Helvetica-Bold findfont 62.9921 sf 0 0 m (0.4) show NC gr 
 gsave  2268 1659 0 0 C 1151.36 129.484 t 0 r /Helvetica-Bold findfont 62.9921 sf 0 0 m (0.5) show NC gr 
 gsave  2268 1659 0 0 C 1343.83 129.484 t 0 r /Helvetica-Bold findfont 62.9921 sf 0 0 m (0.6) show NC gr 
 gsave  2268 1659 0 0 C 1532.81 129.484 t 0 r /Helvetica-Bold findfont 62.9921 sf 0 0 m (0.7) show NC gr 
 gsave  2268 1659 0 0 C 1725.28 129.484 t 0 r /Helvetica-Bold findfont 62.9921 sf 0 0 m (0.8) show NC gr 
 gsave  2268 1659 0 0 C 1917.76 129.484 t 0 r /Helvetica-Bold findfont 62.9921 sf 0 0 m (0.9) show NC gr 
 gsave  2268 1659 0 0 C 2138.23 129.484 t 0 r /Helvetica-Bold findfont 62.9921 sf 0 0 m (1) show NC gr 
 gsave  2268 1659 0 0 C 1599.3 31.4961 t 0 r /Helvetica-Bold findfont 69.9912 sf 0 0 m (Signal efficiency) show NC gr [  ] 0 sd 245 1493 m 1909 X s 245 1451 m 42 Y s 283 1472 m 21 Y s 321 1472 m 21 Y s 359 1472 m 21 Y s 398 1472 m 21 Y s 436 1451 m
 42 Y s 474 1472 m 21 Y s 512 1472 m 21 Y s 550 1472 m 21 Y s 589 1472 m 21 Y s 627 1451 m 42 Y s 665 1472 m 21 Y s 703 1472 m 21 Y s 741 1472 m 21 Y s 780 1472 m 21 Y s 818 1451 m 42 Y s 856 1472 m 21 Y s 894 1472 m 21 Y s 932 1472 m 21 Y s 970 1472
 m 21 Y s 1009 1451 m 42 Y s 1047 1472 m 21 Y s 1085 1472 m 21 Y s 1123 1472 m 21 Y s 1161 1472 m 21 Y s 1200 1451 m 42 Y s 1238 1472 m 21 Y s 1276 1472 m 21 Y s 1314 1472 m 21 Y s 1352 1472 m 21 Y s 1391 1451 m 42 Y s 1429 1472 m 21 Y s 1467 1472 m
 21 Y s 1505 1472 m 21 Y s 1543 1472 m 21 Y s 1582 1451 m 42 Y s 1620 1472 m 21 Y s 1658 1472 m 21 Y s 1696 1472 m 21 Y s 1734 1472 m 21 Y s 1772 1451 m 42 Y s 1811 1472 m 21 Y s 1849 1472 m 21 Y s 1887 1472 m 21 Y s 1925 1472 m 21 Y s 1963 1451 m 42
 Y s 2002 1472 m 21 Y s 2040 1472 m 21 Y s 2078 1472 m 21 Y s 2116 1472 m 21 Y s 2154 1451 m 42 Y s 245 199 m 1294 Y s 298 199 m -53 X s[ 4 8] 0 sd 2154 199 m -1909 X s[  ] 0 sd 271 254 m -26 X s 271 310 m -26 X s 271 365 m -26 X s 298 420 m -53 X s[
 4 8] 0 sd 2154 420 m -1909 X s[  ] 0 sd 271 475 m -26 X s 271 531 m -26 X s 271 586 m -26 X s 298 641 m -53 X s[ 4 8] 0 sd 2154 641 m -1909 X s[  ] 0 sd 271 696 m -26 X s 271 752 m -26 X s 271 807 m -26 X s 298 862 m -53 X s[ 4 8] 0 sd 2154 862 m
 -1909 X s[  ] 0 sd 271 917 m -26 X s 271 973 m -26 X s 271 1028 m -26 X s 298 1083 m -53 X s[ 4 8] 0 sd 2154 1083 m -1909 X s[  ] 0 sd 271 1139 m -26 X s 271 1194 m -26 X s 271 1249 m -26 X s 298 1304 m -53 X s[ 4 8] 0 sd 2154 1304 m -1909 X s[  ] 0
 sd 298 1304 m -53 X s[ 4 8] 0 sd 2154 1304 m -1909 X s[  ] 0 sd 271 1360 m -26 X s 271 1415 m -26 X s 271 1470 m -26 X s
 gsave  2268 1659 0 0 C 181.977 174.978 t 0 r /Helvetica-Bold findfont 62.9921 sf 0 0 m (0) show NC gr 
 gsave  2268 1659 0 0 C 76.9904 398.95 t 0 r /Helvetica-Bold findfont 62.9921 sf 0 0 m (2000) show NC gr 
 gsave  2268 1659 0 0 C 76.9904 619.423 t 0 r /Helvetica-Bold findfont 62.9921 sf 0 0 m (4000) show NC gr 
 gsave  2268 1659 0 0 C 76.9904 839.895 t 0 r /Helvetica-Bold findfont 62.9921 sf 0 0 m (6000) show NC gr 
 gsave  2268 1659 0 0 C 76.9904 1060.37 t 0 r /Helvetica-Bold findfont 62.9921 sf 0 0 m (8000) show NC gr 
 gsave  2268 1659 0 0 C 41.9948 1280.84 t 0 r /Helvetica-Bold findfont 62.9921 sf 0 0 m (10000) show NC gr 
 gsave  2268 1659 0 0 C 62.9921 857.393 t 90 r /Helvetica-Bold findfont 69.9912 sf 0 0 m (1/\(Background eff.\)) show NC gr  2154 199 m 1294 Y s 2101 199 m 53 X s 2128 254 m 26 X s 2128 310 m 26 X s 2128 365 m 26 X s 2101 420 m 53 X s 2128 475 m 26 X
 s 2128 531 m 26 X s 2128 586 m 26 X s 2101 641 m 53 X s 2128 696 m 26 X s 2128 752 m 26 X s 2128 807 m 26 X s 2101 862 m 53 X s 2128 917 m 26 X s 2128 973 m 26 X s 2128 1028 m 26 X s 2101 1083 m 53 X s 2128 1139 m 26 X s 2128 1194 m 26 X s 2128 1249
 m 26 X s 2101 1304 m 53 X s 2101 1304 m 53 X s 2128 1360 m 26 X s 2128 1415 m 26 X s 2128 1470 m 26 X s 9 lw 1 1 1 c black 254 199 m 39 X s 312 199 m cl s 312 199 m 1 13 d 1 16 d 2 18 d 1 20 d 22 Y 1 23 d 1 24 d 31 Y 1 40 d 1 41 d 782 Y 1 32 d 50 Y
 1 19 d 1 16 d 13 Y 1 9 d 1 8 d 1 4 d 1 2 d 2 -3 d 1 -4 d 1 -7 d 1 -11 d 1 -13 d 1 -18 d 1 -19 d 1 -22 d 1 -26 d -31 Y 1 -39 d -47 Y 1 -58 d 1 -89 d -172 Y 1 -68 d 1 -56 d -45 Y 1 -35 d -29 Y 1 -28 d 1 -23 d 1 -21 d 1 -18 d 1 -16 d 1 -10 d 1 -13 d 2
 -11 d 2 -7 d 2 -5 d 3 -2 d 5 3 d 3 1 d 1 X 5 -3 d 14 3 d 19 X 7 2 d 6 2 d 4 -2 d 2 -2 d 4 -8 d 15 -53 d 6 -8 d 6 -7 d 7 -5 d 6 -1 d 14 1 d 12 -3 d 7 -5 d 5 -8 d 11 -21 d 3 -3 d 5 -2 d 14 2 d 14 2 d 5 -2 d 6 -6 d 11 -16 d 2 -2 d 7 -2 d 12 2 d 16 1 d
 3 -1 d 19 -15 d 17 -11 d 2 -1 d 10 -1 d 10 1 d 171 X 19 -5 d 20 -4 d 17 X 2 -1 d 19 -11 d 15 -4 d 23 X 19 -4 d 19 X 19 -3 d 19 -3 d 134 X 19 -2 d s 1190 231 m 14 X 4 -1 d 4 X 16 -3 d 6 X 5 -1 d 27 X 20 -3 d 4 X 7 -1 d 8 X 8 -1 d 11 X 16 -1 d 45 X 14
 -1 d 20 X 19 -2 d 4 X 5 -1 d 10 X 3 -1 d 3 X 8 -2 d 3 X 2 -1 d 24 X 15 -1 d 38 X 19 -1 d 19 X 19 -1 d 27 X 11 -1 d 19 X 20 -1 d 57 X 19 -1 d 57 X 18 -1 d 78 X 19 -1 d 38 X 19 -1 d 19 X 19 -1 d 19 X 19 -1 d 20 X 19 -1 d 19 X s 2126 200 m 19 -1 d s 3
 lw 245 199 m 1909 X s 245 241 m -42 Y s[ 4 8] 0 sd 245 1493 m -1294 Y s[  ] 0 sd 283 220 m -21 Y s 321 220 m -21 Y s 359 220 m -21 Y s 398 220 m -21 Y s 436 241 m -42 Y s[ 4 8] 0 sd 436 1493 m -1294 Y s[  ] 0 sd 474 220 m -21 Y s 512 220 m -21 Y s
 550 220 m -21 Y s 589 220 m -21 Y s 627 241 m -42 Y s[ 4 8] 0 sd 627 1493 m -1294 Y s[  ] 0 sd 665 220 m -21 Y s 703 220 m -21 Y s 741 220 m -21 Y s 780 220 m -21 Y s 818 241 m -42 Y s[ 4 8] 0 sd 818 1493 m -1294 Y s[  ] 0 sd 856 220 m -21 Y s 894
 220 m -21 Y s 932 220 m -21 Y s 970 220 m -21 Y s 1009 241 m -42 Y s[ 4 8] 0 sd 1009 1493 m -1294 Y s[  ] 0 sd 1047 220 m -21 Y s 1085 220 m -21 Y s 1123 220 m -21 Y s 1161 220 m -21 Y s 1200 241 m -42 Y s[ 4 8] 0 sd 1200 1493 m -1294 Y s[  ] 0 sd
 1238 220 m -21 Y s 1276 220 m -21 Y s 1314 220 m -21 Y s 1352 220 m -21 Y s 1391 241 m -42 Y s[ 4 8] 0 sd 1391 1493 m -1294 Y s[  ] 0 sd 1429 220 m -21 Y s 1467 220 m -21 Y s 1505 220 m -21 Y s 1543 220 m -21 Y s 1582 241 m -42 Y s[ 4 8] 0 sd 1582
 1493 m -1294 Y s[  ] 0 sd 1620 220 m -21 Y s 1658 220 m -21 Y s 1696 220 m -21 Y s 1734 220 m -21 Y s 1772 241 m -42 Y s[ 4 8] 0 sd 1772 1493 m -1294 Y s[  ] 0 sd 1811 220 m -21 Y s 1849 220 m -21 Y s 1887 220 m -21 Y s 1925 220 m -21 Y s 1963 241 m
 -42 Y s[ 4 8] 0 sd 1963 1493 m -1294 Y s[  ] 0 sd 2002 220 m -21 Y s 2040 220 m -21 Y s 2078 220 m -21 Y s 2116 220 m -21 Y s 2154 241 m -42 Y s[ 4 8] 0 sd 2154 1493 m -1294 Y s[  ] 0 sd 245 1493 m 1909 X s 245 1451 m 42 Y s 283 1472 m 21 Y s 321
 1472 m 21 Y s 359 1472 m 21 Y s 398 1472 m 21 Y s 436 1451 m 42 Y s 474 1472 m 21 Y s 512 1472 m 21 Y s 550 1472 m 21 Y s 589 1472 m 21 Y s 627 1451 m 42 Y s 665 1472 m 21 Y s 703 1472 m 21 Y s 741 1472 m 21 Y s 780 1472 m 21 Y s 818 1451 m 42 Y s
 856 1472 m 21 Y s 894 1472 m 21 Y s 932 1472 m 21 Y s 970 1472 m 21 Y s 1009 1451 m 42 Y s 1047 1472 m 21 Y s 1085 1472 m 21 Y s 1123 1472 m 21 Y s 1161 1472 m 21 Y s 1200 1451 m 42 Y s 1238 1472 m 21 Y s 1276 1472 m 21 Y s 1314 1472 m 21 Y s 1352
 1472 m 21 Y s 1391 1451 m 42 Y s 1429 1472 m 21 Y s 1467 1472 m 21 Y s 1505 1472 m 21 Y s 1543 1472 m 21 Y s 1582 1451 m 42 Y s 1620 1472 m 21 Y s 1658 1472 m 21 Y s 1696 1472 m 21 Y s 1734 1472 m 21 Y s 1772 1451 m 42 Y s 1811 1472 m 21 Y s 1849
 1472 m 21 Y s 1887 1472 m 21 Y s 1925 1472 m 21 Y s 1963 1451 m 42 Y s 2002 1472 m 21 Y s 2040 1472 m 21 Y s 2078 1472 m 21 Y s 2116 1472 m 21 Y s 2154 1451 m 42 Y s 245 199 m 1294 Y s 298 199 m -53 X s[ 4 8] 0 sd 2154 199 m -1909 X s[  ] 0 sd 271
 254 m -26 X s 271 310 m -26 X s 271 365 m -26 X s 298 420 m -53 X s[ 4 8] 0 sd 2154 420 m -1909 X s[  ] 0 sd 271 475 m -26 X s 271 531 m -26 X s 271 586 m -26 X s 298 641 m -53 X s[ 4 8] 0 sd 2154 641 m -1909 X s[  ] 0 sd 271 696 m -26 X s 271 752 m
 -26 X s 271 807 m -26 X s 298 862 m -53 X s[ 4 8] 0 sd 2154 862 m -1909 X s[  ] 0 sd 271 917 m -26 X s 271 973 m -26 X s 271 1028 m -26 X s 298 1083 m -53 X s[ 4 8] 0 sd 2154 1083 m -1909 X s[  ] 0 sd 271 1139 m -26 X s 271 1194 m -26 X s 271 1249 m
 -26 X s 298 1304 m -53 X s[ 4 8] 0 sd 2154 1304 m -1909 X s[  ] 0 sd 298 1304 m -53 X s[ 4 8] 0 sd 2154 1304 m -1909 X s[  ] 0 sd 271 1360 m -26 X s 271 1415 m -26 X s 271 1470 m -26 X s 2154 199 m 1294 Y s 2101 199 m 53 X s 2128 254 m 26 X s 2128
 310 m 26 X s 2128 365 m 26 X s 2101 420 m 53 X s 2128 475 m 26 X s 2128 531 m 26 X s 2128 586 m 26 X s 2101 641 m 53 X s 2128 696 m 26 X s 2128 752 m 26 X s 2128 807 m 26 X s 2101 862 m 53 X s 2128 917 m 26 X s 2128 973 m 26 X s 2128 1028 m 26 X s
 2101 1083 m 53 X s 2128 1139 m 26 X s 2128 1194 m 26 X s 2128 1249 m 26 X s 2101 1304 m 53 X s 2101 1304 m 53 X s 2128 1360 m 26 X s 2128 1415 m 26 X s 2128 1470 m 26 X s
 gsave  2268 1659 0 0 C 272.966 1245.84 t 0 r /Helvetica-Bold findfont 55.993 sf 0 0 m (MVA Method:) show NC gr 
 gsave  2268 1659 0 0 C 559.93 1154.86 t 0 r /Helvetica-Bold findfont 55.993 sf 0 0 m (MLPBNN) show NC gr  9 lw 290 1172 m 223 X s 0.490196 0.545098 0.615686 c 3 lw 0.364706 0.419608 0.490196 c 1587 100 23 1550 bf 0.490196 0.545098 0.615686 c 23 1550
 m 1587 X s 1610 1550 m 100 Y s 1610 1650 m -1587 X s 23 1650 m -100 Y s 1 1 1 c black 1 1 1 c
 gsave  2268 1659 0 0 C 87.4891 1581.8 t 0 r /Helvetica-Bold findfont 69.9912 sf 0 0 m (1/\(Background eff.\) versus Signal efficiency) show NC gr  0.490196 0.545098 0.615686 c 1 1 1 c 365 91 1789 1510 bf 365 91 1789 1510 bf 365 91 1789 1510 bl 0 0
 0.6 c
/WT 3.50898 def /HT 3.50899 def /XS 1789 def /YY 1601 def /NX 104 def /NY 128 def /DrawCell {WT HT XX YY bf /NBBD NBBD 1 add def NBBD NBB eq {exit} if /XX WT XX add def IX NX eq {/YY YY HT sub def /XX XS def /IX 0 def} if /IX IX 1 add def} def
 /DrawCT {/NBB NX NY mul def /XX XS def /IX 1 def /NBBD 0 def /RC 0 def /GC 1 def /BC 2 def 1 1 NBB {/NB CT RC get def NB 301 ge {/NBL NB 300 sub def 1 1 NBL {DrawCell} for /RC RC 1 add def /GC RC 1 add def /BC RC 2 add def}{CT RC get 255 div CT GC
 get 255 div CT BC get 255 div setrgbcolor DrawCell /RC RC 3 add def /GC GC 3 add def /BC BC 3 add def} ifelse NBBD NBB eq {exit} if} for /YY YY HT sub def clear} def /CT [ 255 255 255 317 255 233 201 255 192 99 255 169 44 255 165 33 255 169 44 255
 187 88 255 222 175 255 255 255 395 255 204 130 255 165 33 306 255 198 116 255 255 255 393 255 223 177 255 165 33 308 255 210 143 255 255 255 392 255 178 66 255 165 33 308 255 169 44 255 249 241 255 255 255 390 255 238 213 255 165 33 310 255 221 171
 255 255 255 390 255 210 144 255 165 33 310 255 198 116 255 255 255 390 255 210 144 255 165 33 310 255 187 88 255 255 255 313 255 51 51 255 0 0 309 255 25 25 102 102 178 51 51 153 302 152 152 203 255 255 255 304 112 112 183 51 51 153 302 153 153 204
 255 255 255 140 140 197 51 51 153 302 234 234 244 255 255 255 304 112 112 183 51 51 153 301 140 140 197 255 255 255 303 234 234 244 51 51 153 303 193 193 224 255 255 255 324 255 215 157 255 165 33 310 255 204 130 255 255 255 313 255 12 12 255 0 0
 309 255 63 63 102 102 178 51 51 153 302 81 81 168 255 255 255 303 229 229 242 51 51 153 303 153 153 204 255 255 255 216 216 235 51 51 153 302 163 163 209 255 255 255 304 61 61 158 51 51 153 301 216 216 235 255 255 255 303 183 183 219 51 51 153 303
 142 142 198 255 255 255 324 255 241 221 255 165 33 310 255 223 177 255 255 255 312 255 229 229 255 102 102 303 255 0 0 302 255 38 38 255 102 102 302 255 163 163 102 102 178 51 51 153 303 193 193 224 255 255 255 302 132 132 193 51 51 153 303 153 153
 204 255 255 255 301 91 91 173 51 51 153 301 108 108 181 255 255 255 303 173 173 214 51 51 153 301 83 83 169 255 255 255 304 116 116 185 51 51 153 303 75 75 165 255 255 255 325 255 192 99 255 165 33 308 255 183 77 255 255 255 317 255 216 216 255 0 0
 302 255 143 143 255 255 255 303 102 102 178 51 51 153 303 76 76 165 255 255 255 301 229 229 242 51 51 153 304 153 153 204 255 255 255 301 178 178 216 51 51 153 302 242 242 248 255 255 255 302 89 89 172 51 51 153 301 152 152 203 255 255 255 303 242
 242 248 51 51 153 301 61 61 158 51 51 153 302 191 191 223 255 255 255 324 255 241 221 255 170 46 255 165 33 307 255 228 188 255 255 255 317 255 178 178 255 0 0 302 255 207 207 255 255 255 303 102 102 178 51 51 153 301 63 63 159 51 51 153 301 178 178
 216 255 255 255 127 127 191 51 51 153 61 61 158 51 51 153 302 153 153 204 255 255 255 301 242 242 248 51 51 153 302 178 178 216 255 255 255 301 229 229 242 51 51 153 302 203 203 229 255 255 255 303 178 178 216 51 51 153 301 122 122 188 89 89 172 51
 51 153 301 127 127 191 255 255 255 325 255 193 102 255 174 55 255 165 33 304 255 169 44 255 187 88 255 250 243 255 255 255 317 255 127 127 255 0 0 301 255 12 12 255 255 255 304 102 102 178 51 51 153 301 140 140 197 51 51 153 301 102 102 178 234 234
 244 51 51 153 301 122 122 188 51 51 153 302 153 153 204 255 255 255 302 112 112 183 51 51 153 301 114 114 184 255 255 255 301 165 165 210 51 51 153 301 76 76 165 255 255 255 304 89 89 172 51 51 153 301 183 183 219 165 165 210 51 51 153 302 242 242
 248 255 255 255 317 255 232 199 301 255 243 227 255 255 255 302 255 210 143 255 221 171 255 246 232 255 204 130 255 187 88 255 169 44 255 187 88 255 204 130 255 246 232 255 249 241 255 196 110 255 255 255 302 255 243 227 255 232 199 301 255 249 241
 255 255 255 310 255 76 76 255 0 0 301 255 51 51 255 255 255 304 102 102 178 51 51 153 301 153 153 204 112 112 183 51 51 153 301 122 122 188 51 51 153 301 193 193 224 51 51 153 302 153 153 204 255 255 255 302 163 163 209 51 51 153 302 242 242 248 255
 255 255 89 89 172 51 51 153 301 140 140 197 255 255 255 303 229 229 242 51 51 153 302 234 234 244 229 229 242 51 51 153 302 178 178 216 255 255 255 315 255 232 199 301 255 255 255 301 255 243 227 255 232 199 255 243 227 255 238 213 255 214 155 255
 255 255 308 255 228 188 255 198 116 255 243 227 255 232 199 255 243 227 255 255 255 301 255 238 213 255 232 199 255 249 241 255 255 255 308 255 25 25 255 0 0 301 255 102 102 255 255 255 304 102 102 178 51 51 153 301 153 153 204 193 193 224 51 51 153
 303 76 76 165 255 255 255 51 51 153 302 153 153 204 255 255 255 302 224 224 239 51 51 153 302 178 178 216 234 234 244 51 51 153 302 216 216 235 255 255 255 303 153 153 204 51 51 153 301 89 89 172 255 255 255 301 89 89 172 51 51 153 301 102 102 178
 255 255 255 313 255 249 241 255 232 199 255 255 255 305 255 243 227 255 204 130 255 255 255 310 255 210 144 255 238 213 255 255 255 305 255 238 213 255 243 227 255 255 255 306 255 223 223 255 0 0 302 255 153 153 255 255 255 304 102 102 178 51 51 153
 301 153 153 204 244 244 249 63 63 159 51 51 153 302 153 153 204 255 255 255 51 51 153 302 153 153 204 255 255 255 303 89 89 172 51 51 153 301 102 102 178 183 183 219 51 51 153 301 81 81 168 255 255 255 304 76 76 165 51 51 153 301 127 127 191 204 204
 229 301 127 127 191 51 51 153 302 234 234 244 255 255 255 312 255 232 199 255 255 255 307 255 249 241 255 241 221 255 255 255 308 255 246 232 255 243 227 255 255 255 307 255 238 213 255 250 243 255 255 255 305 255 159 159 255 0 0 302 255 204 204 255
 255 255 304 102 102 178 51 51 153 301 153 153 204 255 255 255 153 153 204 51 51 153 301 63 63 159 242 242 248 255 255 255 51 51 153 302 153 153 204 255 255 255 303 165 165 210 51 51 153 302 101 101 178 51 51 153 301 142 142 198 255 255 255 303 214
 214 234 51 51 153 309 173 173 214 255 255 255 306 255 219 166 255 210 144 303 255 210 143 255 255 255 309 255 228 188 255 210 144 308 255 223 177 255 255 255 309 255 214 155 255 210 144 305 255 84 67 255 0 0 302 255 210 144 305 102 90 150 51 51 153
 301 153 130 148 255 210 144 229 184 131 102 79 123 301 153 119 120 255 210 144 301 51 51 153 302 153 130 148 255 210 144 303 229 184 131 51 51 153 305 193 157 135 255 210 144 303 152 134 159 51 51 153 309 112 103 161 255 210 144 305 255 221 171 255
 183 77 255 165 33 303 255 208 139 255 255 255 309 255 244 228 255 165 33 308 255 233 201 255 255 255 309 255 215 157 255 165 33 305 255 24 4 255 0 0 301 255 49 9 255 165 33 305 102 79 123 51 51 153 301 153 108 93 255 165 33 306 51 51 153 302 153 108
 93 255 165 33 304 108 82 119 51 51 153 303 71 62 141 255 165 33 304 91 73 129 51 51 153 301 116 87 114 173 119 81 303 116 87 114 51 51 153 301 59 55 148 244 159 39 255 165 33 304 255 187 88 255 183 77 255 165 33 303 255 219 166 255 255 255 310 255
 165 33 308 255 255 255 310 255 237 210 255 165 33 304 255 144 28 255 0 0 302 255 92 18 255 165 33 305 102 79 123 51 51 153 301 153 108 93 255 165 33 306 51 51 153 302 153 108 93 255 165 33 304 163 113 87 51 51 153 303 140 100 100 255 165 33 303 216
 143 55 51 51 153 302 214 142 57 255 165 33 303 203 136 63 51 51 153 302 165 115 85 255 165 33 304 255 187 88 255 183 77 255 165 33 303 255 219 166 255 255 255 310 255 165 33 308 255 255 255 310 255 237 210 255 165 33 304 255 103 20 255 0 0 302 255
 123 24 255 165 33 305 102 79 123 51 51 153 301 153 108 93 255 165 33 306 51 51 153 302 153 108 93 255 165 33 304 234 153 45 51 51 153 303 229 150 48 255 165 33 303 140 100 100 51 51 153 301 76 65 138 255 165 33 305 63 58 145 51 51 153 301 89 72 130
 255 165 33 304 255 187 88 255 183 77 255 165 33 303 255 219 166 255 255 255 310 255 165 33 308 255 241 221 255 255 255 309 255 223 177 255 165 33 364 255 187 88 255 183 77 255 165 33 303 255 196 110 255 255 255 309 255 232 199 255 165 33 308 255 223
 177 255 255 255 309 255 205 132 255 165 33 364 255 187 88 255 183 77 255 165 33 303 255 169 44 255 249 241 255 255 255 308 255 201 121 255 165 33 308 255 192 99 255 255 255 309 255 174 55 255 165 33 364 255 187 88 255 183 77 255 165 33 304 255 187
 88 255 255 255 307 255 232 199 255 165 33 310 255 221 171 255 255 255 307 255 198 116 255 165 33 365 255 187 88 255 183 77 255 165 33 305 255 181 74 255 246 232 255 255 255 304 255 215 157 255 165 33 312 255 210 144 255 250 243 255 255 255 303 255
 246 232 255 193 102 255 165 33 366 255 187 88 242 188 109 255 187 88 306 255 192 99 255 221 171 255 232 199 302 255 201 121 255 187 88 314 255 201 121 255 226 185 255 232 199 301 255 221 171 255 196 110 255 187 88 367 255 204 130] def /NY 26 def
 DrawCT 
 gr  gr showpage
end
%%EOF
