%!PS-Adobe-2.0 EPSF-2.0
%%BoundingBox:  0 0 567 419
%%Title: dataset/plots/mvaeffs_MLPBNN.eps: Cut efficiencies for MLPBNN classifier
%%Creator: ROOT Version 6.18/00
%%CreationDate: Mon Sep  9 20:59:02 2019
%%DocumentNeededResources: ProcSet (FontSetInit)
%%EndComments
%%BeginProlog
80 dict begin
/s {stroke} def /l {lineto} def /m {moveto} def /t {translate} def
/r {rotate} def /rl {roll}  def /R {repeat} def
/d {rlineto} def /rm {rmoveto} def /gr {grestore} def /f {eofill} def
/c {setrgbcolor} def /black {0 setgray} def /sd {setdash} def
/cl {closepath} def /sf {scalefont setfont} def /lw {setlinewidth} def
/box {m dup 0 exch d exch 0 d 0 exch neg d cl} def
/NC{systemdict begin initclip end}def/C{NC box clip newpath}def
/bl {box s} def /bf {gsave box gsave f grestore 1 lw [] 0 sd s grestore} def /Y { 0 exch d} def /X { 0 d} def 
/K {{pop pop 0 moveto} exch kshow} bind def
/ita {/ang 15 def gsave [1 0 ang dup sin exch cos div 1 0 0] concat} def 
/mp {newpath /y exch def /x exch def} def
/side {[w .77 mul w .23 mul] .385 w mul sd w 0 l currentpoint t -144 r} def
/mr {mp x y w2 0 360 arc} def /m24 {mr s} def /m20 {mr f} def
/mb {mp x y w2 add m w2 neg 0 d 0 w neg d w 0 d 0 w d cl} def
/mt {mp x y w2 add m w2 neg w neg d w 0 d cl} def
/w4 {w 4 div} def
/w6 {w 6 div} def
/w8 {w 8 div} def
/m21 {mb f} def /m25 {mb s} def /m22 {mt f} def /m26{mt s} def
/m23 {mp x y w2 sub m w2 w d w neg 0 d cl f} def
/m27 {mp x y w2 add m w3 neg w2 neg d w3 w2 neg d w3 w2 d cl s} def
/m28 {mp x w2 sub y w2 sub w3 add m w3 0 d  0 w3 neg d w3 0 d 0 w3 d w3 0 d  0 w3 d w3 neg 0 d 0 w3 d w3 neg 0 d 0 w3 neg d w3 neg 0 d cl s } def
/m29 {mp gsave x w2 sub y w2 add w3 sub m currentpoint t 4 {side} repeat cl fill gr} def
/m30 {mp gsave x w2 sub y w2 add w3 sub m currentpoint t 4 {side} repeat cl s gr} def
/m31 {mp x y w2 sub m 0 w d x w2 sub y m w 0 d x w2 sub y w2 add m w w neg d x w2 sub y w2 sub m w w d s} def
/m32 {mp x y w2 sub m w2 w d w neg 0 d cl s} def
/m33 {mp x y w2 add m w3 neg w2 neg d w3 w2 neg d w3 w2 d cl f} def
/m34 {mp x w2 sub y w2 sub w3 add m w3 0 d  0 w3 neg d w3 0 d 0 w3 d w3 0 d  0 w3 d w3 neg 0 d 0 w3 d w3 neg 0 d 0 w3 neg d w3 neg 0 d cl f } def
/m35 {mp x y w2 add m w2 neg w2 neg d w2 w2 neg d w2 w2 d w2 neg w2 d x y w2 sub m 0 w d x w2 sub y m w 0 d s} def
/m36 {mb x w2 sub y w2 add m w w neg d x w2 sub y w2 sub m w w d s} def
/m37 {mp x y m w4 neg w2 d w4 neg w2 neg d w2 0 d  w4 neg w2 neg d w2 0 d w4 neg w2 d w2 0 d w4 neg w2 d w4 neg w2 neg d cl s} def
/m38 {mp x w4 sub y w2 add m w4 neg w4 neg d 0 w2 neg d w4 w4 neg d w2 0 d w4 w4 d 0 w2 d w4 neg w4 d w2 neg 0 d x y w2 sub m 0 w d x w2 sub y m w 0 d cl s} def
/m39 {mp x y m w4 neg w2 d w4 neg w2 neg d w2 0 d  w4 neg w2 neg d w2 0 d w4 neg w2 d w2 0 d w4 neg w2 d w4 neg w2 neg d cl f} def
/m40 {mp x y m w4 w2 d w4 w4 neg d w2 neg w4 neg d w2 w4 neg d w4 neg w4 neg d w4 neg w2 d w4 neg w2 neg d w4 neg w4 d w2 w4 d w2 neg w4 d w4 w4 d w4 w2 neg d cl s} def
/m41 {mp x y m w4 w2 d w4 w4 neg d w2 neg w4 neg d w2 w4 neg d w4 neg w4 neg d w4 neg w2 d w4 neg w2 neg d w4 neg w4 d w2 w4 d w2 neg w4 d w4 w4 d w4 w2 neg d cl f} def
/m42 {mp x y w2 add m w8 neg w2 -3 4 div mul d w2 -3 4 div mul w8 neg d w2 3 4 div mul w8 neg d w8 w2 -3 4 div mul d w8 w2 3 4 div mul d w2 3 4 div mul w8 d w2 -3 4 div mul w8 d w8 neg w2 3 4 div mul d cl s} def
/m43 {mp x y w2 add m w8 neg w2 -3 4 div mul d w2 -3 4 div mul w8 neg d w2 3 4 div mul w8 neg d w8 w2 -3 4 div mul d w8 w2 3 4 div mul d w2 3 4 div mul w8 d w2 -3 4 div mul w8 d w8 neg w2 3 4 div mul d cl f} def
/m44 {mp x y m w6 neg w2 d w2 2 3 div mul 0 d w6 neg w2 neg d w2 w6 d 0 w2 -2 3 div mul d w2 neg w6 d w6 w2 neg d w2 -2 3 div mul 0 d w6 w2 d w2 neg w6 neg d 0 w2 2 3 div mul d w2 w6 neg d cl s} def
/m45 {mp x y m w6 neg w2 d w2 2 3 div mul 0 d w6 neg w2 neg d w2 w6 d 0 w2 -2 3 div mul d w2 neg w6 d w6 w2 neg d w2 -2 3 div mul 0 d w6 w2 d w2 neg w6 neg d 0 w2 2 3 div mul d w2 w6 neg d cl f} def
/m46 {mp x y w4 add m w4 neg w4 d w4 neg w4 neg d  w4 w4 neg d w4 neg w4 neg d w4 w4 neg d w4 w4 d w4 w4 neg d w4 w4 d w4 neg w4 d w4 w4 d w4 neg w4 d w4 neg w4 neg d cl s} def
/m47 {mp x y w4 add m w4 neg w4 d w4 neg w4 neg d w4 w4 neg d w4 neg w4 neg d  w4 w4 neg d w4 w4 d w4 w4 neg d w4 w4 d w4 neg w4 d w4 w4 d w4 neg w4 d w4 neg w4 neg d cl f} def
/m48 {mp x y w4 add m w4 neg w4 d w4 neg w4 neg d w4 w4 neg d  w4 neg w4 neg d w4 w4 neg d w4 w4 d w4 w4 neg d w4 w4 d w4 neg w4 d w4 w4 d w4 neg w4 d w4 neg w4 neg d  w4 w4 neg d w4 neg w4 neg d w4 neg w4 d w4 w4 d cl f} def
/m49 {mp x w2 sub w3 add y w2 sub w3 add m  0 w3 neg d w3 0 d 0 w3 d w3 0 d 0 w3 d w3 neg 0 d 0 w3 d w3 neg 0 d 0 w3 neg d w3 neg 0 d 0 w3 neg d w3 0 d 0 w3 d w3 0 d 0 w3 neg d w3 neg 0 d cl f } def
/m2 {mp x y w2 sub m 0 w d x w2 sub y m w 0 d s} def
/m5 {mp x w2 sub y w2 sub m w w d x w2 sub y w2 add m w w neg d s} def
%%IncludeResource: ProcSet (FontSetInit)
%%IncludeResource: font Times-Roman
%%IncludeResource: font Times-Italic
%%IncludeResource: font Times-Bold
%%IncludeResource: font Times-BoldItalic
%%IncludeResource: font Helvetica
%%IncludeResource: font Helvetica-Oblique
%%IncludeResource: font Helvetica-Bold
%%IncludeResource: font Helvetica-BoldOblique
%%IncludeResource: font Courier
%%IncludeResource: font Courier-Oblique
%%IncludeResource: font Courier-Bold
%%IncludeResource: font Courier-BoldOblique
%%IncludeResource: font Symbol
%%IncludeResource: font ZapfDingbats
/reEncode {exch findfont dup length dict begin {1 index /FID eq  {pop pop} {def} ifelse } forall /Encoding exch def currentdict end dup /FontName get exch definefont pop } def [/Times-Bold /Times-Italic /Times-BoldItalic /Helvetica /Helvetica-Oblique
 /Helvetica-Bold /Helvetica-BoldOblique /Courier /Courier-Oblique /Courier-Bold /Courier-BoldOblique /Times-Roman /AvantGarde-Book /AvantGarde-BookOblique /AvantGarde-Demi /AvantGarde-DemiOblique /Bookman-Demi /Bookman-DemiItalic /Bookman-Light
 /Bookman-LightItalic /Helvetica-Narrow /Helvetica-Narrow-Bold /Helvetica-Narrow-BoldOblique /Helvetica-Narrow-Oblique /NewCenturySchlbk-Roman /NewCenturySchlbk-Bold /NewCenturySchlbk-BoldItalic /NewCenturySchlbk-Italic /Palatino-Bold
 /Palatino-BoldItalic /Palatino-Italic /Palatino-Roman ] {ISOLatin1Encoding reEncode } forall
%%EndProlog
%%BeginSetup
%%EndSetup
newpath  gsave  .25 .25 scale  gsave  0 0 t 0.490196 0.545098 0.615686 c[  ] 0 sd 3 lw 0.941176 0.941176 0.941176 c 2268 1676 0 0 bf black 1 1 0.992157 c 1796 1140 245 201 bf black 1796 1140 245 201 bl 1 1 0.992157 c 1796 1140 245 201 bf black 1796
 1140 245 201 bl 245 201 m 1796 X s[ 4 8] 0 sd 411 1341 m -1140 Y s 592 1341 m -1140 Y s 773 1341 m -1140 Y s 954 1341 m -1140 Y s 1135 1341 m -1140 Y s 1317 1341 m -1140 Y s 1498 1341 m -1140 Y s 1679 1341 m -1140 Y s 1860 1341 m -1140 Y s 411 1341
 m -1140 Y s 1860 1341 m -1140 Y s[  ] 0 sd 245 201 m 1140 Y s[ 4 8] 0 sd 2041 201 m -1796 X s 2041 408 m -1796 X s 2041 616 m -1796 X s 2041 823 m -1796 X s 2041 1030 m -1796 X s 2041 1237 m -1796 X s 2041 1237 m -1796 X s 0 0 0.933333 c[  22 12 ] 0
 sd 6 lw 0.49 0.6 0.82 c black 0 0 0.933333 c 245 719 m 8 X 1 Y 1 X 2 Y s 254 722 m 4 Y 1 2 d 7 Y 1 2 d 6 Y 1 1 d 5 Y 1 1 d 5 Y 1 1 d 3 Y 1 1 d 5 Y 1 1 d 3 Y 1 X 5 Y 1 X s 263 774 m 3 Y 1 1 d 4 Y 1 X 4 Y 1 1 d 3 Y 1 X 4 Y 1 1 d 2 Y 1 1 d 3 Y 1 1 d 3
 Y 1 X 4 Y s 271 809 m 1 1 d 3 Y 1 X 3 Y 1 1 d 3 Y 1 1 d 2 Y 1 1 d 3 Y 1 X 3 Y 1 X 3 Y 1 1 d 2 Y 1 1 d 2 Y s 280 839 m 1 1 d 2 Y 1 1 d 2 Y 1 X 3 Y 1 1 d 2 Y 1 1 d 3 Y 1 X 3 Y 1 X 2 Y 1 1 d 2 Y 1 1 d 1 Y s 289 865 m 1 Y 1 X 3 Y 1 X 1 Y 1 1 d 2 Y 1 1 d
 2 Y 1 1 d 1 Y 1 1 d 2 Y 1 X 2 Y 1 X 3 Y 1 X 1 Y s 298 887 m 1 Y 1 X 2 Y 1 1 d 1 Y 1 1 d 2 Y 1 1 d 2 Y 1 X 2 Y 1 X 2 Y 1 X 2 Y 1 X 2 Y 1 X s 307 906 m 2 Y 1 X 2 Y 1 X 2 Y 1 1 d 1 Y 1 X 2 Y 1 X 2 Y 1 X 2 Y 1 X 2 Y 1 X 2 Y s 315 924 m 1 X 2 Y 1 X 1 Y 1
 X 2 Y 1 X 2 Y 1 X 2 Y 1 X 1 Y 1 1 d 1 Y 1 1 d 1 Y 1 1 d 1 Y s 324 940 m 1 X 2 Y 1 X 1 Y 1 1 d 1 Y 1 X 1 Y 1 1 d 1 Y 1 X 2 Y 1 1 d 1 Y 1 X 1 Y 1 1 d s 333 954 m 1 Y 1 X 2 Y 1 X 1 Y 1 X 2 Y 1 X 1 Y 1 X 1 Y 1 X 2 Y 1 X 1 Y 1 X 1 Y 1 X 1 Y s 342 967 m 1
 1 d 1 Y 1 X 1 Y 1 X 2 Y 1 X 1 Y 1 X 1 Y 1 X 2 Y 1 X 1 Y 1 X 1 Y 1 X s 351 978 m 1 Y 1 X 1 Y 1 X 1 Y 1 1 d 1 Y 1 X 1 Y 1 X 1 Y 1 X 1 Y 1 X 1 Y 1 X 1 Y s 359 988 m 1 X 1 Y 1 X 1 Y 1 X 1 Y 1 X 1 Y 1 X 1 Y 1 X 1 Y 1 X 1 Y 1 1 d 1 1 d s 368 997 m 1 X 1 Y
 1 X 1 Y 1 X 1 Y 1 X 1 Y 1 X 1 Y 1 X 1 Y 2 X 1 Y 1 X 1 Y s 377 1005 m 1 X 1 Y 1 X 1 Y 1 X 1 Y 1 X 1 1 d 1 Y 1 X 1 1 d 1 X 1 Y 1 X s 386 1012 m 1 Y 1 X 1 Y 2 X 1 Y 1 X 1 Y 1 X 1 1 d 1 X 1 Y 2 X s 395 1018 m 1 Y 1 X 1 Y 1 X 1 Y 2 X 1 Y 1 X 1 Y 2 X 1 Y
 1 X s 403 1024 m 1 1 d 1 X 1 Y 2 X 1 Y 1 X 1 1 d 1 X 1 Y 2 X 1 Y s 412 1030 m 1 X 1 Y 2 X 1 Y 2 X 1 Y 2 X 1 Y 2 X 1 Y s 421 1035 m 2 X 1 Y 2 X 1 Y 2 X 1 Y 2 X 1 Y 1 X s 430 1039 m 1 X 1 1 d 2 X 1 Y 2 X 1 Y 2 X 1 Y 1 X s 439 1043 m 1 X 1 Y 2 X 1 Y 2
 X 1 Y 2 X 1 Y 1 X s 447 1047 m 1 X 1 Y 2 X 1 Y 2 X 1 Y 3 X 1 Y 1 X s 456 1051 m 2 X 1 Y 2 X 1 1 d 1 X 1 1 d 2 X 1 Y s 465 1055 m 2 X 1 Y 3 X 1 1 d 2 X 1 Y 1 X s 474 1058 m 2 X 1 Y 3 X 1 1 d 2 X 1 Y 1 X s 483 1061 m 2 X 1 Y 2 X 1 1 d 3 X 1 Y s 491
 1064 m 3 X 1 Y 2 X 1 1 d 2 X 1 Y 1 X s 500 1067 m 3 X 1 Y 3 X 1 Y 3 X s 509 1069 m 1 Y 3 X 1 1 d 4 X 1 Y 1 X s 518 1072 m 2 X 1 Y 4 X 1 Y 3 X s 527 1074 m 1 X 1 Y 4 X 1 Y 3 X s 535 1076 m 1 X 1 Y 4 X 1 Y 4 X 1 Y s 544 1079 m 3 X 1 1 d 3 X 1 Y 2 X s
 553 1081 m 3 X 1 Y 4 X 1 Y 2 X s 562 1083 m 2 X 1 Y 4 X 1 Y 3 X s 571 1085 m 2 X 1 Y 4 X 1 1 d 1 X s 579 1087 m 3 X 1 Y 5 X 1 1 d s 588 1089 m 5 X 1 Y 4 X s 597 1090 m 1 Y 6 X 1 Y 3 X s 606 1092 m 2 X 1 Y 7 X s 615 1093 m 1 Y 6 X 1 1 d 1 X s 623
 1095 m 4 X 1 Y -1 Y 1 1 d 4 X s 632 1096 m 2 X 1 Y 7 X s 641 1097 m 1 Y 6 X 1 Y 3 X s 650 1099 m 3 X 1 Y 6 X s 659 1100 m 1 X 1 Y 7 X 1 Y s 667 1102 m 8 X 1 Y 1 X s 676 1103 m 6 X 1 Y 3 X s 685 1104 m 5 X 1 Y 4 X s 694 1105 m 4 X 1 Y 5 X s 703 1106
 m 4 X 1 Y 4 X s 711 1107 m 5 X 1 Y 4 X s 720 1108 m 3 X 1 Y 6 X s 729 1109 m 4 X 1 Y 5 X s 738 1110 m 4 X 1 Y 5 X s 747 1111 m 3 X 1 Y 5 X s 755 1112 m 5 X 1 Y 4 X s 764 1113 m 9 X s 773 1113 m 1 Y 9 X s 782 1114 m 1 X 1 Y 8 X s 791 1115 m 2 X 1 Y 6
 X s 799 1116 m 6 X 1 Y 3 X s 808 1117 m 9 X s 817 1117 m 2 X 1 1 d 6 X s 826 1118 m 5 X 1 Y 4 X s 835 1119 m 8 X s 843 1119 m 9 X s 852 1119 m 3 X 1 1 d 5 X s 861 1120 m 9 X s 870 1120 m 5 X 1 Y -1 Y 1 1 d 3 X s 879 1121 m 8 X s 887 1121 m 8 X 1 Y 1
 X s 896 1122 m 9 X s 905 1122 m 8 X 1 Y 1 X s 914 1123 m 9 X s 923 1123 m 8 X s 931 1123 m 4 X 1 Y 1 -1 d 1 Y 4 X s 940 1124 m 9 X s 949 1124 m 5 X 1 1 d 3 X s 958 1125 m 9 X s 967 1125 m 5 X 1 Y 3 X s 975 1126 m 9 X s 984 1126 m 9 X s 993 1126 m 1
 Y 3 X -1 Y 1 X 1 Y 5 X s 1002 1127 m 9 X s 1011 1127 m 8 X 1 Y s 1019 1128 m 1 -1 d 1 Y 8 X s 1028 1128 m 9 X s 1037 1128 m 9 X s 1046 1128 m 9 X s 1055 1128 m 1 Y 5 X -1 Y 2 X 1 Y 1 X s 1063 1129 m 9 X s 1072 1129 m 9 X s 1081 1129 m 7 X 1 Y 2 X s
 1090 1130 m 9 X s 1099 1130 m 8 X s 1107 1130 m 9 X s 1116 1130 m 9 X s 1125 1130 m 5 X 1 Y -1 Y 1 Y 4 X s 1134 1131 m 9 X s 1143 1131 m 8 X s 1151 1131 m 9 X s 1160 1131 m 9 X s 1169 1131 m 4 X 1 Y 5 X s 1178 1132 m 9 X s 1187 1132 m 8 X s 1195
 1132 m 9 X s 1204 1132 m 9 X s 1213 1132 m 4 X 1 Y 3 X -1 Y 1 X 1 Y 1 X s 1222 1133 m 9 X s 1231 1133 m 8 X s 1239 1133 m 9 X s 1248 1133 m 9 X s 1257 1133 m 7 X -1 Y 1 Y 1 X -1 Y 1 X s 1266 1132 m 3 X 1 Y -1 Y 6 X s 1275 1132 m 1 X 1 Y 7 X -1 Y s
 1283 1132 m 2 X 1 Y -1 Y 1 1 d -1 Y 1 Y 4 X -1 Y 2 X s 1292 1132 m 5 X 1 Y -1 Y 1 Y 4 X -1 Y s 1301 1132 m 1 Y -1 Y 9 X s 1310 1132 m 9 X s 1319 1132 m 8 X s 1327 1132 m 9 X s 1336 1132 m 9 X s 1345 1132 m 9 X s 1354 1132 m 9 X s 1363 1132 m 8 X s
 1371 1132 m 9 X s 1380 1132 m 9 X s 1389 1132 m 9 X s 1398 1132 m 9 X s 1407 1132 m 8 X s 1415 1132 m 9 X s 1424 1132 m 9 X s 1433 1132 m 9 X s 1442 1132 m 9 X s 1451 1132 m 8 X s 1459 1132 m 9 X s 1468 1132 m 9 X s 1477 1132 m 9 X s 1486 1132 m 1 X
 -1 Y 1 Y 4 X -1 Y 4 X s 1495 1131 m 8 X s 1503 1131 m 9 X s 1512 1131 m 9 X s 1521 1131 m 9 X s 1530 1131 m 9 X s 1539 1131 m 8 X s 1547 1131 m 6 X -1 Y 3 X s 1556 1130 m 9 X s 1565 1130 m 9 X s 1574 1130 m 9 X s 1583 1130 m -1 Y 1 1 d -1 Y 7 X s
 1591 1129 m 9 X s 1600 1129 m 5 X -1 Y 1 X 1 Y -1 Y 3 X s 1609 1128 m 9 X s 1618 1128 m 9 X s 1627 1128 m 8 X s 1635 1128 m 1 X -1 Y 8 X s 1644 1127 m 9 X s 1653 1127 m 4 X -1 Y 1 X 1 Y 1 X -1 Y 3 X s 1662 1126 m 9 X s 1671 1126 m 8 X s 1679 1126 m
 2 X -1 Y 1 Y 1 -1 d 6 X s 1688 1125 m 9 X s 1697 1125 m 1 X 1 -1 d 7 X s 1706 1124 m 9 X s 1715 1124 m 1 X 1 -1 d 6 X s 1723 1123 m 5 X -1 Y 4 X s 1732 1122 m 9 X s 1741 1122 m 1 -1 d 1 Y -1 Y 8 X s 1750 1121 m 5 X 1 -1 d 3 X s 1759 1120 m 7 X -1 Y
 1 X s 1767 1119 m 9 X s 1776 1119 m 2 X -1 Y 5 X 1 -1 d 1 X s 1785 1117 m 8 X 1 -1 d 1 Y s 1794 1117 m 1 X -1 Y 8 X s 1803 1116 m -1 Y 7 X -1 Y 2 X s 1812 1114 m 4 X -1 Y 1 Y -1 Y 4 X s 1820 1113 m 3 X -1 Y 6 X -1 Y s 1829 1111 m 5 X -1 Y 4 X s 1838
 1110 m 1 X -1 Y 5 X -1 Y 3 X s 1847 1108 m 2 X -1 Y 5 X -1 Y 2 X s 1856 1106 m 4 X -1 Y 3 X -1 Y 1 X s 1864 1104 m 1 X -1 Y 3 X -1 Y 4 X -1 Y 1 X s 1873 1101 m 2 X -1 Y 3 X -1 Y 3 X -1 Y 1 X s 1882 1098 m 1 X 1 -1 d 3 X -1 Y 2 X -1 Y 2 X s 1891 1095
 m -1 Y 2 X -1 Y 2 X -1 Y 2 X -1 Y 2 X -1 Y 1 X s 1900 1090 m -1 Y 2 X -1 Y 2 X -1 Y 2 X -1 Y 1 X 1 -1 d s 1908 1085 m 1 X -1 Y 1 X 1 -1 d 1 X -1 Y 2 X -1 Y 1 X -1 Y 1 X -1 Y 1 X s 1917 1079 m -1 Y 1 X -1 Y 2 X -1 Y 1 X -1 Y 1 X -1 Y 1 X -1 Y 1 X -1
 Y 1 X -1 Y 1 X -1 Y s 1926 1070 m 1 X -1 Y 1 -1 d -1 Y 1 X -1 Y 1 X -1 Y 1 -1 d -1 Y 1 X -1 Y 1 X -2 Y 1 X -1 Y 1 X -1 Y s 1935 1058 m -1 Y 1 X -1 Y 1 -1 d -1 Y 1 X -2 Y 1 -1 d -1 Y 1 -1 d -1 Y 1 -1 d -1 Y 1 -1 d -2 Y 1 X -2 Y 1 X s 1944 1041 m -2 Y
 1 -1 d -2 Y 1 -1 d -1 Y 1 X -3 Y 1 X -2 Y 1 X -2 Y 1 -1 d -2 Y 1 X -3 Y 1 -1 d -2 Y s 1952 1018 m 1 -1 d -2 Y 1 X -3 Y 1 -1 d -2 Y 1 -1 d -3 Y 1 X -2 Y 1 -1 d -3 Y 1 X -3 Y 1 -1 d -2 Y 1 -1 d -2 Y s 1961 990 m -1 Y 1 -1 d -2 Y 1 -1 d -3 Y 1 -1 d -3
 Y 1 -1 d -4 Y 1 X -3 Y 1 -1 d -3 Y 1 -1 d -3 Y 1 X -3 Y 1 -1 d -1 Y s 1970 957 m -2 Y 1 -1 d -2 Y 1 -1 d -3 Y 1 -1 d -2 Y 1 X -3 Y 1 -1 d -2 Y 1 -1 d -2 Y 1 X -3 Y 1 -1 d -2 Y 1 -1 d s 1979 929 m -3 Y 1 X -3 Y 1 -1 d -3 Y 1 X -3 Y 1 -1 d -3 Y 1 X -3
 Y 1 -1 d -2 Y 1 X -3 Y 1 -1 d -2 Y 1 -1 d s 1988 899 m -3 Y 1 X -3 Y 1 X -3 Y 1 -1 d -3 Y 1 X -2 Y 1 -1 d -3 Y 1 X -3 Y 1 X -3 Y 1 -1 d -3 Y s 1996 870 m 1 -1 d -2 Y 1 -1 d -3 Y 1 -1 d -2 Y 1 -1 d -3 Y 1 X -3 Y 1 X -3 Y 1 -1 d -3 Y 1 X -2 Y 1 -1 d
 -1 Y s 2005 842 m -2 Y 1 X -3 Y 1 X -3 Y 1 -1 d -3 Y 1 X -3 Y 1 -1 d -3 Y 1 X -4 Y 1 -1 d -3 Y 1 -1 d -3 Y 1 -1 d -1 Y s 2014 809 m -3 Y 1 X -3 Y 1 -1 d -4 Y 1 -1 d -4 Y 1 -1 d -4 Y 1 -1 d -5 Y 1 -2 d -4 Y 1 -1 d -6 Y 1 -1 d -5 Y 1 -2 d -1 Y s 2023
 760 m -6 Y 1 -1 d -7 Y 1 -1 d -10 Y 1 -2 d -10 Y 1 -2 d -10 Y 1 -3 d -14 Y 1 -3 d -12 Y 1 -3 d -16 Y 1 -4 d -15 Y 1 -4 d s 2032 637 m -22 Y 1 -5 d -24 Y 1 -5 d -22 Y 1 -5 d -28 Y 1 -6 d -25 Y 1 -6 d -33 Y 1 -6 d -29 Y 1 -9 d -101 Y 1 -30 d -64 Y s
 2040 217 m -7 Y 1 -6 d -2 Y s black[  ] 0 sd 3 lw 245 201 m 1796 X s 411 241 m -40 Y s 447 221 m -20 Y s 483 221 m -20 Y s 520 221 m -20 Y s 556 221 m -20 Y s 592 241 m -40 Y s 628 221 m -20 Y s 665 221 m -20 Y s 701 221 m -20 Y s 737 221 m -20 Y s
 773 241 m -40 Y s 809 221 m -20 Y s 846 221 m -20 Y s 882 221 m -20 Y s 918 221 m -20 Y s 954 241 m -40 Y s 991 221 m -20 Y s 1027 221 m -20 Y s 1063 221 m -20 Y s 1099 221 m -20 Y s 1135 241 m -40 Y s 1172 221 m -20 Y s 1208 221 m -20 Y s 1244 221
 m -20 Y s 1280 221 m -20 Y s 1317 241 m -40 Y s 1353 221 m -20 Y s 1389 221 m -20 Y s 1425 221 m -20 Y s 1461 221 m -20 Y s 1498 241 m -40 Y s 1534 221 m -20 Y s 1570 221 m -20 Y s 1606 221 m -20 Y s 1643 221 m -20 Y s 1679 241 m -40 Y s 1715 221 m
 -20 Y s 1751 221 m -20 Y s 1787 221 m -20 Y s 1824 221 m -20 Y s 1860 241 m -40 Y s 411 241 m -40 Y s 375 221 m -20 Y s 339 221 m -20 Y s 302 221 m -20 Y s 266 221 m -20 Y s 1860 241 m -40 Y s 1896 221 m -20 Y s 1932 221 m -20 Y s 1969 221 m -20 Y s
 2005 221 m -20 Y s
 gsave  2268 1676 0 0 C 367.84 128.934 t 0 r /Helvetica-Bold findfont 64.4669 sf 0 0 m (0.1) show NC gr 
 gsave  2268 1676 0 0 C 546.072 128.934 t 0 r /Helvetica-Bold findfont 64.4669 sf 0 0 m (0.2) show NC gr 
 gsave  2268 1676 0 0 C 724.304 128.934 t 0 r /Helvetica-Bold findfont 64.4669 sf 0 0 m (0.3) show NC gr 
 gsave  2268 1676 0 0 C 906.328 128.934 t 0 r /Helvetica-Bold findfont 64.4669 sf 0 0 m (0.4) show NC gr 
 gsave  2268 1676 0 0 C 1088.35 128.934 t 0 r /Helvetica-Bold findfont 64.4669 sf 0 0 m (0.5) show NC gr 
 gsave  2268 1676 0 0 C 1270.38 128.934 t 0 r /Helvetica-Bold findfont 64.4669 sf 0 0 m (0.6) show NC gr 
 gsave  2268 1676 0 0 C 1448.61 128.934 t 0 r /Helvetica-Bold findfont 64.4669 sf 0 0 m (0.7) show NC gr 
 gsave  2268 1676 0 0 C 1630.63 128.934 t 0 r /Helvetica-Bold findfont 64.4669 sf 0 0 m (0.8) show NC gr 
 gsave  2268 1676 0 0 C 1812.66 128.934 t 0 r /Helvetica-Bold findfont 64.4669 sf 0 0 m (0.9) show NC gr 
 gsave  2268 1676 0 0 C 747.057 30.3373 t 0 r /Helvetica-Bold findfont 72.0512 sf 0 0 m (Cut value applied on MLPBNN output) show NC gr  245 201 m 1140 Y s 291 201 m -46 X s 268 253 m -23 X s 268 305 m -23 X s 268 357 m -23 X s 291 408 m -46 X s 268
 460 m -23 X s 268 512 m -23 X s 268 564 m -23 X s 291 616 m -46 X s 268 667 m -23 X s 268 719 m -23 X s 268 771 m -23 X s 291 823 m -46 X s 268 875 m -23 X s 268 926 m -23 X s 268 978 m -23 X s 291 1030 m -46 X s 268 1082 m -23 X s 268 1134 m -23 X
 s 268 1185 m -23 X s 291 1237 m -46 X s 291 1237 m -46 X s 268 1289 m -23 X s 268 1341 m -23 X s
 gsave  2268 1676 0 0 C 182.024 178.232 t 0 r /Helvetica-Bold findfont 64.4669 sf 0 0 m (0) show NC gr 
 gsave  2268 1676 0 0 C 128.934 383.009 t 0 r /Helvetica-Bold findfont 64.4669 sf 0 0 m (0.2) show NC gr 
 gsave  2268 1676 0 0 C 128.934 591.578 t 0 r /Helvetica-Bold findfont 64.4669 sf 0 0 m (0.4) show NC gr 
 gsave  2268 1676 0 0 C 128.934 796.355 t 0 r /Helvetica-Bold findfont 64.4669 sf 0 0 m (0.6) show NC gr 
 gsave  2268 1676 0 0 C 128.934 1004.92 t 0 r /Helvetica-Bold findfont 64.4669 sf 0 0 m (0.8) show NC gr 
 gsave  2268 1676 0 0 C 189.608 1213.49 t 0 r /Helvetica-Bold findfont 64.4669 sf 0 0 m (1) show NC gr 
 gsave  2268 1676 0 0 C 64.4669 728.096 t 90 r /Helvetica-Bold findfont 72.0512 sf 0 0 m (Efficiency \(Purity\)) show NC gr  0 0 0.933333 c[  52 12 ] 0 sd 6 lw 0.49 0.6 0.82 c black 0 0 0.933333 c 245 719 m 8 X 1 Y 1 1 d 1 Y s 254 722 m 4 Y 1 2 d 7 Y
 1 2 d 6 Y 1 1 d 5 Y 1 1 d 5 Y 1 1 d 4 Y 1 1 d 4 Y 1 1 d 3 Y 1 1 d 4 Y 1 1 d s 263 775 m 3 Y 1 1 d 4 Y 1 X 4 Y 1 1 d 3 Y 1 1 d 3 Y 1 1 d 3 Y 1 X 4 Y 1 X 3 Y 1 1 d 3 Y s 271 810 m 1 1 d 3 Y 1 1 d 3 Y 1 X 4 Y 1 1 d 2 Y 1 1 d 3 Y 1 X 3 Y 1 X 3 Y 1 1 d 3
 Y 1 X 2 Y s 280 841 m 1 Y 1 X 3 Y 1 X 3 Y 1 X 3 Y 1 1 d 2 Y 1 1 d 3 Y 1 X 3 Y 1 X 2 Y 1 1 d 3 Y 1 X 1 Y s 289 868 m 1 Y 1 1 d 2 Y 1 X 2 Y 1 X 3 Y 1 X 3 Y 1 X 2 Y 1 X 2 Y 1 1 d 2 Y 1 X 3 Y 1 X 1 Y s 298 891 m 1 Y 1 X 3 Y 1 X 2 Y 1 X 3 Y 1 X 2 Y 1 1 d
 1 Y 1 1 d 2 Y 1 X 1 Y 1 1 d 2 Y 1 X s 307 911 m 2 Y 1 X 2 Y 1 X 2 Y 1 1 d 1 Y 1 1 d 1 Y 1 1 d 1 Y 1 X 2 Y 1 1 d 1 Y 1 X 2 Y s 315 929 m 1 1 d 1 Y 1 1 d 1 Y 1 X 2 Y 1 X 2 Y 1 X 2 Y 1 X 1 Y 1 1 d 1 Y 1 1 d 1 Y 1 1 d 1 Y s 324 946 m 1 1 d 1 Y 1 X 2 Y 1
 X 2 Y 1 X 1 Y 1 1 d 1 Y 1 X 2 Y 1 X 2 Y 1 X 1 Y 1 1 d s 333 961 m 1 Y 1 X 2 Y 1 X 1 Y 1 X 2 Y 1 X 1 Y 1 1 d 1 Y 1 X 1 Y 1 X 1 Y 1 1 d 1 Y 1 X s 342 974 m 1 Y 1 1 d 1 Y 1 X 1 Y 1 X 2 Y 1 X 1 Y 1 X 1 Y 1 X 2 Y 1 X 1 Y 1 X 1 Y 1 1 d s 351 987 m 1 1 d 1
 Y 1 X 1 Y 1 X 1 Y 1 X 1 Y 1 1 d 1 Y 1 X 1 Y 1 X 1 Y 1 X 1 Y s 359 997 m 1 X 1 Y 1 X 1 Y 1 X 1 Y 1 1 d 1 1 d 1 Y 1 X 1 Y 1 X 1 Y 1 X 1 Y 1 X 1 Y s 368 1007 m 1 X 1 Y 1 X 1 Y 1 X 1 Y 1 X 1 Y 1 X 1 Y 1 X 1 Y 1 X 1 1 d 1 X 1 Y s 377 1015 m 1 X 1 Y 1 X 1
 Y 1 X 1 Y 1 X 1 Y 1 X 1 Y 1 X 1 Y 1 X 1 Y 1 X 1 Y 1 X s 386 1023 m 1 1 d 1 Y 2 X 1 Y 1 X 1 Y 1 X 1 Y 2 X 1 Y 1 X 1 Y 1 X s 395 1030 m 1 X 1 Y 1 X 1 Y 1 X 1 Y 1 X 1 Y 2 X 1 Y 1 X 1 Y 1 X s 403 1036 m 1 1 d 1 X 1 Y 2 X 1 Y 1 X 1 Y 2 X 1 Y 1 X 1 Y 1 X
 s 412 1042 m 1 X 1 Y 1 X 1 Y 2 X 1 Y 2 X 1 Y 1 X 1 1 d 1 X 1 Y s 421 1048 m 2 X 1 Y 1 X 1 1 d 2 X 1 Y 1 X 1 1 d 1 X s 430 1052 m 1 1 d 2 X 1 Y 2 X 1 Y 2 X 1 Y 1 X 1 1 d s 439 1057 m 1 X 1 Y 2 X 1 Y 1 X 1 1 d 1 X 1 Y 2 X s 447 1061 m 1 1 d 1 X 1 Y 2
 X 1 Y 2 X 1 1 d 2 X 1 Y s 456 1066 m 2 X 1 Y 3 X 1 Y 1 X 1 Y 2 X 1 Y 1 X s 465 1070 m 1 X 1 Y 3 X 1 1 d 2 X 1 Y 2 X s 474 1073 m 1 Y 3 X 1 Y 3 X 1 Y 2 X 1 Y 1 X s 483 1077 m 1 X 1 Y 3 X 1 Y 2 X 1 Y 2 X s 491 1080 m 1 X 1 Y 2 X 1 1 d 2 X 1 Y 3 X 1 Y
 s 500 1084 m 2 X 1 1 d 2 X 1 Y 3 X 1 Y 1 X s 509 1087 m 2 X 1 Y 3 X 1 1 d 2 X 1 1 d s 518 1090 m 3 X 1 Y 3 X 1 Y 3 X s 527 1092 m 1 Y 4 X 1 Y 2 X 1 1 d 1 X s 535 1095 m 2 X 1 Y 3 X 1 1 d 3 X 1 Y s 544 1098 m 3 X 1 Y 3 X 1 1 d 2 X s 553 1100 m 1 X 1
 Y 3 X 1 Y 4 X 1 Y 1 X s 562 1103 m 2 X 1 Y 4 X 1 Y 3 X s 571 1105 m 1 Y 4 X 1 Y 4 X s 579 1107 m 1 1 d 3 X 1 1 d 3 X 1 1 d s 588 1110 m 4 X 1 Y 3 X 1 Y 2 X s 597 1112 m 3 X 1 Y 5 X 1 1 d s 606 1114 m 4 X 1 Y 4 X 1 1 d s 615 1116 m 4 X 1 Y 4 X s 623
 1117 m 1 X 1 Y 5 X 1 1 d 2 X s 632 1119 m 3 X 1 Y 6 X 1 Y s 641 1121 m 5 X 1 Y 4 X s 650 1122 m 1 Y 5 X 1 Y 4 X s 659 1124 m 1 X 1 Y 6 X 1 1 d s 667 1126 m 6 X 1 Y 3 X s 676 1127 m 2 X 1 Y 6 X 1 Y 1 X s 685 1129 m 5 X 1 Y 4 X s 694 1130 m 2 X 1 Y 7
 X s 703 1131 m 1 Y 6 X 1 Y 2 X s 711 1133 m 5 X 1 Y 4 X s 720 1134 m 3 X 1 Y 6 X s 729 1135 m 1 Y 7 X 1 Y 2 X s 738 1137 m 5 X 1 Y 4 X s 747 1138 m 2 X 1 Y 6 X s 755 1139 m 1 1 d 7 X 1 Y 1 X s 764 1141 m 9 X 1 Y s 773 1142 m 7 X 1 Y 2 X s 782 1143 m
 6 X 1 Y 3 X s 791 1144 m 5 X 1 Y 3 X s 799 1145 m 5 X 1 Y 4 X s 808 1146 m 4 X 1 Y 5 X s 817 1147 m 4 X 1 Y 5 X s 826 1148 m 3 X 1 Y 6 X s 835 1149 m 6 X 1 1 d 1 X s 843 1150 m 9 X s 852 1150 m 1 X 1 Y 8 X s 861 1151 m 2 X 1 Y 7 X s 870 1152 m 6 X 1
 Y 3 X s 879 1153 m 7 X 1 Y 1 X s 887 1154 m 9 X s 896 1154 m 2 X 1 Y 7 X s 905 1155 m 5 X 1 Y 4 X s 914 1156 m 5 X 1 Y 4 X s 923 1157 m 8 X 1 Y s 931 1158 m 9 X s 940 1158 m 2 X 1 Y 7 X s 949 1159 m 5 X 1 Y 4 X s 958 1160 m 7 X 1 Y 2 X s 967 1161 m
 8 X s 975 1161 m 1 1 d 8 X s 984 1162 m 3 X 1 1 d 5 X s 993 1163 m 9 X s 1002 1163 m 1 Y 9 X s 1011 1164 m 3 X 1 Y 5 X s 1019 1165 m 9 X s 1028 1165 m 3 X 1 Y 6 X s 1037 1166 m 6 X 1 1 d 2 X s 1046 1167 m 9 X s 1055 1167 m 3 X 1 Y 5 X s 1063 1168 m
 9 X s 1072 1168 m 1 X 1 1 d 7 X s 1081 1169 m 9 X 1 Y s 1090 1170 m 9 X s 1099 1170 m 7 X 1 1 d s 1107 1171 m 9 X s 1116 1171 m 8 X 1 Y 1 X s 1125 1172 m 9 X s 1134 1172 m 6 X 1 Y 3 X s 1143 1173 m 8 X s 1151 1173 m 4 X 1 Y 5 X s 1160 1174 m 9 X s
 1169 1174 m 1 X 1 Y 8 X s 1178 1175 m 5 X 1 Y 4 X s 1187 1176 m 8 X s 1195 1176 m 8 X 1 1 d s 1204 1177 m 9 X s 1213 1177 m 4 X 1 Y 5 X s 1222 1178 m 9 X s 1231 1178 m 6 X 1 Y 2 X s 1239 1179 m 9 X s 1248 1179 m 9 X s 1257 1179 m 4 X 1 Y 5 X s 1266
 1180 m 9 X s 1275 1180 m 6 X 1 Y 2 X s 1283 1181 m 9 X s 1292 1181 m 6 X 1 Y 3 X s 1301 1182 m 9 X s 1310 1182 m 9 X s 1319 1182 m 5 X 1 Y 3 X s 1327 1183 m 9 X s 1336 1183 m 9 X s 1345 1183 m 1 X 1 Y 8 X s 1354 1184 m 9 X s 1363 1184 m 1 Y 8 X s
 1371 1185 m 9 X s 1380 1185 m 7 X 1 Y 2 X s 1389 1186 m 9 X s 1398 1186 m 7 X 1 Y 2 X s 1407 1187 m 8 X s 1415 1187 m 9 X s 1424 1187 m 4 X 1 1 d 4 X s 1433 1188 m 9 X s 1442 1188 m 8 X 1 Y 1 X s 1451 1189 m 8 X s 1459 1189 m 9 X s 1468 1189 m 1 X 1
 Y 8 X s 1477 1190 m 9 X s 1486 1190 m 7 X 1 Y 2 X s 1495 1191 m 8 X s 1503 1191 m 9 X s 1512 1191 m 2 X 1 Y 7 X s 1521 1192 m 9 X s 1530 1192 m 5 X 1 Y 4 X s 1539 1193 m 8 X s 1547 1193 m 9 X s 1556 1193 m 1 X 1 Y 8 X s 1565 1194 m 9 X s 1574 1194 m
 9 X s 1583 1194 m 3 X 1 Y 5 X s 1591 1195 m 9 X s 1600 1195 m 9 X s 1609 1195 m 9 X s 1618 1195 m 2 X 1 1 d 6 X s 1627 1196 m 8 X s 1635 1196 m 9 X 1 Y s 1644 1197 m 9 X s 1653 1197 m 9 X s 1662 1197 m 9 X s 1671 1197 m 2 X 1 Y 6 X s 1679 1198 m 9 X
 s 1688 1198 m 9 X s 1697 1198 m 1 Y 9 X s 1706 1199 m 9 X s 1715 1199 m 4 X 1 1 d 3 X s 1723 1200 m 9 X s 1732 1200 m 9 X s 1741 1200 m 5 X 1 Y 4 X s 1750 1201 m 9 X s 1759 1201 m 8 X s 1767 1201 m 9 X s 1776 1201 m 1 X 1 Y 8 X s 1785 1202 m 9 X s
 1794 1202 m 4 X 1 Y 5 X s 1803 1203 m 9 X s 1812 1203 m 6 X 1 1 d -1 Y 1 Y 1 X s 1820 1204 m 9 X s 1829 1204 m 9 X s 1838 1204 m 4 X 1 1 d 4 X s 1847 1205 m 9 X s 1856 1205 m 2 X 1 1 d 5 X s 1864 1206 m 9 X s 1873 1206 m 2 X 1 1 d 6 X s 1882 1207 m
 7 X 1 Y 2 X s 1891 1208 m 9 X s 1900 1208 m 3 X 1 Y 5 X s 1908 1209 m 2 X 1 Y 7 X s 1917 1210 m 2 X 1 Y 7 X s 1926 1211 m 2 X 1 Y 6 X 1 Y 1 X s 1935 1213 m 5 X 1 Y 4 X s 1944 1214 m 1 Y 4 X 1 Y 3 X 1 Y 1 X s 1952 1217 m 3 X 1 Y 3 X 1 Y 3 X 1 Y s
 1961 1220 m 4 X 1 Y 5 X s 1970 1221 m 1 Y 4 X 1 Y 4 X 1 Y 1 X s 1979 1224 m 4 X 1 Y 5 X s 1988 1225 m 1 X 1 Y 6 X 1 Y 1 X s 1996 1227 m 6 X 1 Y -1 Y 1 Y 3 X s 2005 1228 m 2 X 1 Y -1 Y 1 Y 7 X s 2014 1229 m 1 X 1 Y 6 X 1 Y -1 Y 1 Y 2 X s 2023 1231 m
 7 X 1 Y 2 X s 2032 1232 m 2 X 1 Y 4 X 1 Y 1 X -1 Y 1 Y -1 Y 2 Y 1 X 1 Y -1 Y s 2040 1235 m 1 2 d s[  ] 0 sd 9 lw 0.49 0.6 0.82 c black 0 0 0.933333 c 245 1237 m 9 X s 254 1237 m 4 X -1 Y 5 X s 263 1236 m 1 X 1 -1 d 6 X s 271 1235 m 1 X -1 Y 7 X -1 Y
 1 X s 280 1233 m 6 X -1 Y 3 X s 289 1232 m 7 X -1 Y 2 X s 298 1231 m 6 X -1 Y 3 X s 307 1230 m 6 X 1 -1 d 1 X s 315 1229 m 9 X s 324 1229 m 1 X -1 Y 8 X s 333 1228 m 3 X -1 Y 6 X s 342 1227 m 4 X -1 Y 5 X s 351 1226 m 8 X -1 Y s 359 1225 m 9 X s 368
 1225 m 6 X -1 Y 3 X s 377 1224 m 9 X s 386 1224 m 3 X -1 Y 6 X s 395 1223 m 8 X s 403 1223 m 1 -1 d 8 X s 412 1222 m 6 X -1 Y 3 X s 421 1221 m 9 X s 430 1221 m 8 X -1 Y 1 X s 439 1220 m 8 X s 447 1220 m 9 X s 456 1220 m 3 X -1 Y 6 X s 465 1219 m 9 X
 s 474 1219 m 3 X -1 Y 6 X s 483 1218 m 8 X s 491 1218 m 7 X -1 Y 2 X s 500 1217 m 9 X s 509 1217 m 9 X s 518 1217 m 3 X -1 Y 6 X s 527 1216 m 8 X s 535 1216 m 6 X -1 Y 3 X s 544 1215 m 9 X s 553 1215 m 8 X 1 -1 d s 562 1214 m 9 X s 571 1214 m 8 X s
 579 1214 m 5 X -1 Y 4 X s 588 1213 m 9 X s 597 1213 m 9 X s 606 1213 m 5 X -1 Y 4 X s 615 1212 m 8 X s 623 1212 m 9 X s 632 1212 m 1 X 1 -1 d 7 X s 641 1211 m 9 X s 650 1211 m 9 X s 659 1211 m -1 Y 8 X s 667 1210 m 9 X s 676 1210 m 9 X s 685 1210 m
 3 X -1 Y 6 X s 694 1209 m 9 X s 703 1209 m 8 X s 711 1209 m 6 X -1 Y 3 X s 720 1208 m 9 X s 729 1208 m 9 X s 738 1208 m 7 X -1 Y 2 X s 747 1207 m 8 X s 755 1207 m 9 X s 764 1207 m 6 X -1 Y 3 X s 773 1206 m 9 X s 782 1206 m 9 X s 791 1206 m 8 X s 799
 1206 m 1 X -1 Y 8 X s 808 1205 m 9 X s 817 1205 m 6 X -1 Y 3 X s 826 1204 m 9 X s 835 1204 m 8 X s 843 1204 m 5 X -1 Y 4 X s 852 1203 m 9 X s 861 1203 m 9 X s 870 1203 m 5 X -1 Y 4 X s 879 1202 m 8 X s 887 1202 m 9 X s 896 1202 m 3 X -1 Y 6 X s 905
 1201 m 9 X s 914 1201 m 9 X s 923 1201 m 4 X -1 Y 4 X s 931 1200 m 9 X s 940 1200 m 9 X s 949 1200 m 2 X -1 Y 7 X s 958 1199 m 9 X s 967 1199 m 8 X s 975 1199 m 6 X 1 -1 d 2 X s 984 1198 m 9 X s 993 1198 m 9 X s 1002 1198 m 4 X -1 Y 5 X s 1011 1197
 m 8 X s 1019 1197 m 9 X s 1028 1197 m 8 X -1 Y 1 X s 1037 1196 m 9 X s 1046 1196 m 9 X s 1055 1196 m 4 X -1 Y 4 X s 1063 1195 m 9 X s 1072 1195 m 9 X s 1081 1195 m 9 X s 1090 1195 m 2 X -1 Y 7 X s 1099 1194 m 8 X s 1107 1194 m 9 X s 1116 1194 m 1 -1
 d 8 X s 1125 1193 m 9 X s 1134 1193 m 9 X s 1143 1193 m 1 X -1 Y 7 X s 1151 1192 m 9 X s 1160 1192 m 9 X -1 Y s 1169 1191 m 9 X s 1178 1191 m 9 X s 1187 1191 m 7 X -1 Y 1 X s 1195 1190 m 9 X s 1204 1190 m 9 X s 1213 1190 m 5 X -1 Y 4 X s 1222 1189 m
 9 X s 1231 1189 m 8 X s 1239 1189 m 2 X -1 Y 7 X s 1248 1188 m 9 X s 1257 1188 m 5 X -1 Y 4 X s 1266 1187 m 9 X s 1275 1187 m 6 X -1 Y 2 X s 1283 1186 m 9 X s 1292 1186 m 6 X -1 Y 3 X s 1301 1185 m 9 X s 1310 1185 m 9 X s 1319 1185 m -1 Y 8 X s 1327
 1184 m 9 X s 1336 1184 m 2 X 1 -1 d 6 X s 1345 1183 m 9 X s 1354 1183 m 6 X 1 -1 d 2 X s 1363 1182 m 8 X s 1371 1182 m 4 X 1 -1 d 4 X s 1380 1181 m 9 X s 1389 1181 m 9 X s 1398 1181 m -1 Y 9 X s 1407 1180 m 8 X s 1415 1180 m 2 X -1 Y 7 X s 1424 1179
 m 9 X s 1433 1179 m -1 Y 9 X s 1442 1178 m 9 X s 1451 1178 m 2 X -1 Y 6 X s 1459 1177 m 9 X s 1468 1177 m 4 X -1 Y 5 X s 1477 1176 m 9 X s 1486 1176 m 6 X -1 Y 3 X s 1495 1175 m 8 X s 1503 1175 m 6 X -1 Y 3 X s 1512 1174 m 9 X s 1521 1174 m 4 X 1 -1
 d 4 X s 1530 1173 m 9 X s 1539 1173 m 1 X -1 Y 7 X s 1547 1172 m 9 X -1 Y s 1556 1171 m 9 X s 1565 1171 m 6 X -1 Y 3 X s 1574 1170 m 9 X s 1583 1170 m 1 X -1 Y 7 X s 1591 1169 m 6 X 1 -1 d 2 X s 1600 1168 m 9 X s 1609 1168 m 2 X 1 -1 d 6 X s 1618
 1167 m 7 X -1 Y 2 X s 1627 1166 m 8 X s 1635 1166 m 5 X -1 Y 4 X s 1644 1165 m 7 X -1 Y 2 X s 1653 1164 m 9 X s 1662 1164 m 2 X -1 Y 7 X s 1671 1163 m 4 X 1 -1 d 3 X s 1679 1162 m 7 X 1 -1 d 1 X s 1688 1161 m 9 X -1 Y s 1697 1160 m 9 X s 1706 1160 m
 1 X -1 Y 8 X s 1715 1159 m 1 X -1 Y 7 X s 1723 1158 m 2 X -1 Y 7 X s 1732 1157 m 2 X -1 Y 7 X s 1741 1156 m 1 X 1 -1 d 7 X s 1750 1155 m 1 X -1 Y 8 X s 1759 1154 m 1 X -1 Y 7 X s 1767 1153 m 2 X -1 Y 7 X -1 Y s 1776 1151 m 6 X -1 Y 3 X s 1785 1150 m
 3 X 1 -1 d 5 X s 1794 1149 m 1 X -1 Y 5 X 1 -1 d 2 X s 1803 1147 m 3 X -1 Y 5 X -1 Y 1 X s 1812 1145 m 3 X 1 -1 d 4 X -1 Y s 1820 1143 m 6 X -1 Y 3 X s 1829 1142 m 1 X -1 Y 5 X -1 Y 3 X s 1838 1140 m 1 -1 d 4 X -1 Y 4 X -1 Y s 1847 1137 m 3 X -1 Y 4
 X -1 Y 2 X s 1856 1135 m 2 X -1 Y 3 X -1 Y 3 X -1 Y s 1864 1132 m 2 X -1 Y 3 X -1 Y 2 X 1 -1 d 1 X s 1873 1129 m 1 X 1 -1 d 1 X -1 Y 3 X -1 Y 2 X -1 Y 1 X s 1882 1125 m 1 X -1 Y 3 X -1 Y 2 X -1 Y 1 X 1 -1 d 1 X s 1891 1121 m 1 -1 d 1 X -1 Y 2 X -1 Y
 2 X -1 Y 1 X -1 Y 2 X s 1900 1116 m -1 Y 1 X -1 Y 2 X -1 Y 1 X 1 -1 d 1 X -1 Y 1 X -1 Y 1 X s 1908 1110 m 1 -1 d 1 X -1 Y 1 X -1 Y 1 X -1 Y 2 X -1 Y 1 -1 d 1 X -1 Y 1 X -1 Y s 1917 1102 m 1 X -1 Y 1 X -1 Y 1 X -1 Y 1 X -1 Y 1 X -1 Y 1 X -1 Y 1 X -1
 Y 1 -1 d -1 Y 1 X s 1926 1093 m -1 Y 1 X -1 Y 1 -1 d -1 Y 1 X -1 Y 1 -1 d -1 Y 1 X -2 Y 1 X -1 Y 1 X -1 Y 1 -1 d -1 Y 1 -1 d s 1935 1079 m -1 Y 1 X -2 Y 1 X -2 Y 1 X -2 Y 1 -1 d -1 Y 1 -1 d -1 Y 1 -1 d -2 Y 1 X -2 Y 1 -1 d -2 Y 1 X s 1944 1060 m -2
 Y 1 -1 d -3 Y 1 X -2 Y 1 X -3 Y 1 X -2 Y 1 -1 d -2 Y 1 -1 d -2 Y 1 X -3 Y 1 -1 d -2 Y s 1952 1035 m -1 Y 1 X -3 Y 1 X -3 Y 1 -1 d -2 Y 1 -1 d -3 Y 1 -1 d -2 Y 1 -1 d -3 Y 1 -1 d -3 Y 1 -1 d -2 Y 1 -1 d -2 Y s 1961 1004 m -2 Y 1 X -3 Y 1 -1 d -3 Y 1
 -1 d -3 Y 1 -1 d -4 Y 1 -1 d -3 Y 1 -1 d -2 Y 1 -1 d -4 Y 1 X -3 Y 1 -1 d -1 Y s 1970 969 m -2 Y 1 -1 d -3 Y 1 X -4 Y 1 -1 d -2 Y 1 -1 d -2 Y 1 -1 d -3 Y 1 X -3 Y 1 X -3 Y 1 -1 d -2 Y 1 -1 d -1 Y s 1979 938 m -2 Y 1 -1 d -2 Y 1 -1 d -3 Y 1 -1 d -3 Y
 1 -1 d -3 Y 1 X -3 Y 1 -1 d -2 Y 1 -1 d -3 Y 1 X -3 Y 1 X s 1988 908 m -3 Y 1 -1 d -3 Y 1 -1 d -2 Y 1 -1 d -3 Y 1 -1 d -2 Y 1 -1 d -3 Y 1 X -3 Y 1 X -3 Y 1 -1 d -3 Y s 1996 877 m 1 -1 d -3 Y 1 X -3 Y 1 -1 d -2 Y 1 -1 d -3 Y 1 -1 d -3 Y 1 X -3 Y 1 -1
 d -3 Y 1 X -2 Y 1 -1 d -2 Y s 2005 847 m -1 Y 1 -1 d -2 Y 1 -1 d -3 Y 1 -1 d -2 Y 1 -1 d -3 Y 1 -1 d -3 Y 1 X -4 Y 1 -1 d -4 Y 1 X -3 Y 1 -1 d -2 Y s 2014 813 m -2 Y 1 -1 d -3 Y 1 -1 d -4 Y 1 -1 d -4 Y 1 -1 d -4 Y 1 -1 d -6 Y 1 -1 d -4 Y 1 -1 d -6 Y
 1 -2 d -5 Y 1 -1 d -2 Y s 2023 763 m -5 Y 1 -2 d -6 Y 1 -2 d -10 Y 1 -1 d -11 Y 1 -2 d -10 Y 1 -3 d -14 Y 1 -4 d -11 Y 1 -4 d -16 Y 1 -3 d -16 Y 1 -4 d s 2032 639 m -22 Y 1 -5 d -24 Y 1 -5 d -22 Y 1 -5 d -29 Y 1 -6 d -25 Y 1 -6 d -33 Y 1 -7 d -29 Y
 1 -8 d -102 Y 1 -30 d -64 Y s 2040 217 m -7 Y 1 -6 d -2 Y s 1 0 0 c black 1 0 0 c 245 1237 m 8 X -1 Y 1 -4 d -6 Y s 254 1226 m -17 Y 1 -6 d -29 Y 1 -5 d -24 Y 1 -4 d -17 Y 1 -4 d -18 Y 1 -4 d -13 Y 1 -3 d -15 Y 1 -3 d -11 Y 1 -2 d -14 Y 1 -3 d s 263
 1034 m -10 Y 1 -3 d -11 Y 1 -3 d -12 Y 1 -2 d -9 Y 1 -2 d -11 Y 1 -2 d -9 Y 1 -2 d -10 Y 1 -2 d -8 Y 1 -3 d -10 Y s 271 925 m 1 -2 d -9 Y 1 -2 d -8 Y 1 -2 d -10 Y 1 -1 d -8 Y 1 -1 d -9 Y 1 -2 d -6 Y 1 -2 d -8 Y 1 -1 d -8 Y 1 -1 d -5 Y s 280 840 m -2
 Y 1 -1 d -7 Y 1 -1 d -6 Y 1 -1 d -8 Y 1 -2 d -6 Y 1 -1 d -7 Y 1 -2 d -6 Y 1 -1 d -6 Y 1 -1 d -6 Y 1 -1 d -3 Y s 289 772 m -2 Y 1 -2 d -5 Y 1 -1 d -4 Y 1 -1 d -6 Y 1 -1 d -6 Y 1 -1 d -4 Y 1 -1 d -5 Y 1 -1 d -4 Y 1 -1 d -6 Y 1 -1 d -1 Y s 298 719 m -3
 Y 1 -1 d -5 Y 1 -1 d -4 Y 1 -1 d -5 Y 1 -1 d -5 Y 1 -1 d -3 Y 1 -1 d -4 Y 1 -1 d -3 Y 1 -1 d -4 Y 1 -1 d s 307 674 m -3 Y 1 -1 d -4 Y 1 -1 d -4 Y 1 -1 d -3 Y 1 -1 d -4 Y 1 X -3 Y 1 -1 d -4 Y 1 -1 d -2 Y 1 -1 d -4 Y s 315 636 m 1 -1 d -3 Y 1 -1 d -2
 Y 1 -1 d -3 Y 1 -1 d -3 Y 1 X -4 Y 1 -1 d -2 Y 1 -1 d -3 Y 1 -1 d -3 Y 1 -1 d -2 Y s 324 603 m -1 Y 1 X -3 Y 1 -1 d -3 Y 1 X -3 Y 1 X -3 Y 1 -1 d -2 Y 1 -1 d -3 Y 1 -1 d -2 Y 1 -1 d -2 Y 1 -1 d -1 Y s 333 574 m -1 Y 1 -1 d -3 Y 1 X -2 Y 1 X -3 Y 1
 -1 d -2 Y 1 -1 d -1 Y 1 -1 d -2 Y 1 -1 d -2 Y 1 X -2 Y 1 -1 d s 342 550 m -2 Y 1 X -2 Y 1 -1 d -2 Y 1 X -3 Y 1 X -2 Y 1 -1 d -1 Y 1 X -3 Y 1 X -2 Y 1 X -2 Y 1 -1 d s 351 528 m -1 Y 1 -1 d -2 Y 1 X -2 Y 1 X -2 Y 1 X -2 Y 1 X -2 Y 1 X -2 Y 1 -1 d -1 Y
 1 X -2 Y s 359 510 m 1 X -2 Y 1 X -1 Y 1 -1 d -1 Y 1 -1 d -1 Y 1 X -2 Y 1 X -2 Y 1 X -2 Y 1 X -1 Y 1 -1 d -1 Y s 368 494 m 1 X -2 Y 1 X -1 Y 1 X -2 Y 1 X -1 Y 1 -1 d -1 Y 1 X -2 Y 1 X -1 Y 1 X -1 Y 1 -1 d s 377 481 m 1 -1 d -1 Y 1 X -2 Y 1 X -1 Y 1
 -1 d -1 Y 1 X -2 Y 1 X -1 Y 1 X -1 Y 1 -1 d -1 Y 1 X s 386 468 m -1 Y 1 X -2 Y 1 X -1 Y 1 X -1 Y 1 X -1 Y 1 -1 d 1 -1 d -1 Y 1 X -1 Y 1 X -1 Y 1 X s 395 457 m -1 Y 1 X -1 Y 1 -1 d -1 Y 1 X -1 Y 1 X -1 Y 1 X -1 Y 1 X -1 Y 1 X -1 Y 1 X -1 Y s 403 447
 m 1 X -1 Y 1 X -1 Y 1 X -1 Y 1 X -1 Y 1 X -1 Y 1 X -1 Y 1 X -1 Y 1 -1 d 1 -1 d s 412 438 m 1 -1 d 1 -1 d 1 X -1 Y 1 X -1 Y 1 X -1 Y 1 X -1 Y 1 X -1 Y 1 X -1 Y 1 X s 421 430 m -1 Y 2 X -1 Y 1 X -1 Y 1 X -1 Y 2 X -1 Y 1 X -1 Y 1 X -1 Y 1 X s 430 423 m
 1 -1 d 1 X -1 Y 1 X 1 -1 d 1 X -1 Y 1 X -1 Y 1 X 1 -1 d 1 -1 d s 439 416 m 1 X -1 Y 1 X -1 Y 1 X -1 Y 1 X -1 Y 1 X 1 -1 d 1 X -1 Y 1 X -1 Y s 447 409 m 1 X -1 Y 2 X -1 Y 1 X -1 Y 1 X 1 -1 d 1 X -1 Y 2 X -1 Y s 456 403 m 1 X 1 -1 d 1 X -1 Y 2 X -1 Y
 1 X -1 Y 1 X -1 Y 2 X -1 Y s 465 397 m 1 X -1 Y 2 X -1 Y 2 X -1 Y 2 X -1 Y 2 X -1 Y s 474 392 m 2 X -1 Y 1 X 1 -1 d 1 X 1 -1 d 1 X -1 Y 2 X s 483 388 m -1 Y 1 X 1 -1 d 1 X -1 Y 2 X -1 Y 2 X -1 Y 1 X s 491 383 m 1 X -1 Y 2 X -1 Y 2 X -1 Y 1 X 1 -1 d
 1 X -1 Y 1 X s 500 378 m 1 X -1 Y 2 X 1 -1 d 1 X 1 -1 d 2 X -1 Y 1 X s 509 374 m 1 X -1 Y 2 X -1 Y 2 X -1 Y 3 X -1 Y 1 X s 518 370 m 1 X -1 Y 2 X -1 Y 3 X -1 Y 2 X -1 Y 1 X s 527 366 m 1 X 1 -1 d 2 X -1 Y 2 X -1 Y 2 X s 535 363 m 1 X -1 Y 2 X -1 Y 3
 X -1 Y 2 X 1 -1 d s 544 359 m 2 X -1 Y 2 X -1 Y 3 X -1 Y 2 X s 553 356 m -1 Y 3 X -1 Y 2 X 1 -1 d 2 X 1 -1 d s 562 352 m 2 X -1 Y 3 X -1 Y 2 X -1 Y 2 X s 571 349 m 1 X -1 Y 3 X -1 Y 3 X -1 Y 1 X s 579 346 m 2 X -1 Y 3 X 1 -1 d 3 X -1 Y s 588 343 m 3
 X 1 -1 d 2 X -1 Y 3 X s 597 341 m -1 Y 3 X -1 Y 5 X -1 Y 1 X s 606 338 m 2 X -1 Y 4 X -1 Y 3 X s 615 336 m 1 X -1 Y 3 X -1 Y 4 X s 623 334 m 1 -1 d 3 X 1 -1 d 4 X -1 Y s 632 331 m 4 X -1 Y 4 X 1 -1 d s 641 329 m 3 X 1 -1 d 3 X -1 Y 2 X s 650 327 m 2
 X -1 Y 4 X -1 Y 3 X s 659 325 m 1 X -1 Y 5 X -1 Y 2 X s 667 323 m 3 X -1 Y 4 X 1 -1 d 1 X s 676 321 m 3 X -1 Y 5 X -1 Y 1 X s 685 319 m 3 X -1 Y 5 X -1 Y 1 X s 694 317 m 5 X -1 Y 4 X s 703 316 m 1 X -1 Y 5 X -1 Y 2 X s 711 314 m 4 X -1 Y 5 X s 720
 313 m 1 -1 d 5 X -1 Y 3 X s 729 311 m 3 X -1 Y 4 X 1 -1 d 1 X s 738 309 m 5 X -1 Y 4 X s 747 308 m 1 -1 d 5 X -1 Y 2 X s 755 306 m 4 X -1 Y 5 X s 764 305 m 1 X -1 Y 8 X s 773 304 m -1 Y 7 X -1 Y 2 X s 782 302 m 3 X -1 Y 6 X s 791 301 m 1 X -1 Y 7 X
 -1 Y s 799 299 m 6 X -1 Y 3 X s 808 298 m 5 X -1 Y 4 X s 817 297 m 3 X -1 Y 6 X s 826 296 m -1 Y 9 X s 835 295 m 1 X -1 Y 7 X s 843 294 m 2 X -1 Y 7 X s 852 293 m 3 X -1 Y 6 X s 861 292 m 2 X 1 -1 d 6 X s 870 291 m 5 X -1 Y 4 X s 879 290 m 5 X -1 Y
 3 X s 887 289 m 6 X -1 Y 3 X s 896 288 m 6 X 1 -1 d 2 X s 905 287 m 7 X -1 Y 2 X s 914 286 m 6 X 1 -1 d 2 X s 923 285 m 8 X -1 Y s 931 284 m 9 X -1 Y s 940 283 m 9 X s 949 283 m 1 X -1 Y 8 X s 958 282 m 3 X -1 Y 6 X s 967 281 m 4 X -1 Y 4 X s 975
 280 m 5 X -1 Y 4 X s 984 279 m 5 X -1 Y 4 X s 993 278 m 9 X s 1002 278 m 1 X -1 Y 8 X s 1011 277 m 2 X 1 -1 d 5 X s 1019 276 m 7 X -1 Y 2 X s 1028 275 m 9 X s 1037 275 m 3 X 1 -1 d 5 X s 1046 274 m 4 X -1 Y 5 X s 1055 273 m 8 X s 1063 273 m 3 X -1 Y
 6 X s 1072 272 m 6 X -1 Y 3 X s 1081 271 m 9 X s 1090 271 m 2 X 1 -1 d 6 X s 1099 270 m 8 X -1 Y s 1107 269 m 9 X s 1116 269 m 6 X -1 Y 3 X s 1125 268 m 9 X s 1134 268 m 1 X 1 -1 d 7 X s 1143 267 m 8 X -1 Y s 1151 266 m 9 X s 1160 266 m 4 X -1 Y 5 X
 s 1169 265 m 8 X -1 Y 1 X s 1178 264 m 9 X s 1187 264 m 6 X -1 Y 2 X s 1195 263 m 9 X s 1204 263 m 2 X 1 -1 d 6 X s 1213 262 m 5 X 1 -1 d 3 X s 1222 261 m 9 X s 1231 261 m 6 X -1 Y 2 X s 1239 260 m 9 X s 1248 260 m 9 X s 1257 260 m 2 X -1 Y 7 X s
 1266 259 m 9 X s 1275 259 m 3 X -1 Y 5 X s 1283 258 m 9 X s 1292 258 m 2 X -1 Y 7 X s 1301 257 m 9 X s 1310 257 m 5 X -1 Y 4 X s 1319 256 m 8 X s 1327 256 m 8 X -1 Y 1 X s 1336 255 m 9 X s 1345 255 m 6 X -1 Y 3 X s 1354 254 m 9 X s 1363 254 m 7 X -1
 Y 1 X s 1371 253 m 9 X s 1380 253 m 9 X s 1389 253 m 2 X -1 Y 7 X s 1398 252 m 9 X s 1407 252 m -1 Y 8 X s 1415 251 m 9 X s 1424 251 m 4 X -1 Y 5 X s 1433 250 m 9 X s 1442 250 m 6 X -1 Y 3 X s 1451 249 m 8 X s 1459 249 m 6 X -1 Y 3 X s 1468 248 m 9
 X s 1477 248 m 9 X -1 Y s 1486 247 m 9 X s 1495 247 m 8 X s 1503 247 m 5 X -1 Y 4 X s 1512 246 m 9 X s 1521 246 m 5 X -1 Y 4 X s 1530 245 m 9 X s 1539 245 m 8 X -1 Y s 1547 244 m 9 X s 1556 244 m 9 X s 1565 244 m 1 X -1 Y 8 X s 1574 243 m 9 X s 1583
 243 m 8 X s 1591 243 m 7 X -1 Y 2 X s 1600 242 m 9 X s 1609 242 m 9 X s 1618 242 m 8 X -1 Y 1 X s 1627 241 m 8 X s 1635 241 m 9 X s 1644 241 m 4 X -1 Y 5 X s 1653 240 m 9 X s 1662 240 m 9 X s 1671 240 m 3 X -1 Y 5 X s 1679 239 m 9 X s 1688 239 m 8 X
 -1 Y 1 X s 1697 238 m 9 X s 1706 238 m 9 X s 1715 238 m 1 -1 d 7 X s 1723 237 m 9 X s 1732 237 m 9 X -1 Y s 1741 236 m 9 X s 1750 236 m 9 X s 1759 236 m 8 X s 1767 236 m 2 X -1 Y 7 X s 1776 235 m 9 X s 1785 235 m 8 X -1 Y 1 X s 1794 234 m 9 X s 1803
 234 m 5 X -1 Y 4 X s 1812 233 m 8 X s 1820 233 m 8 X -1 Y 1 X s 1829 232 m 9 X s 1838 232 m 9 X s 1847 232 m -1 Y 9 X s 1856 231 m 6 X -1 Y 2 X s 1864 230 m 9 X s 1873 230 m 3 X -1 Y 6 X s 1882 229 m 6 X -1 Y 3 X s 1891 228 m 9 X s 1900 228 m 1 X -1
 Y 7 X -1 Y s 1908 226 m 7 X -1 Y 2 X s 1917 225 m 6 X -1 Y 3 X s 1926 224 m 3 X -1 Y 6 X s 1935 223 m -1 Y 5 X -1 Y 3 X 1 -1 d s 1944 220 m 3 X -1 Y 3 X -1 Y 2 X s 1952 218 m 2 X -1 Y 3 X -1 Y 3 X -1 Y 1 X s 1961 215 m 2 X -1 Y 5 X -1 Y 2 X s 1970
 213 m 2 X -1 Y 4 X -1 Y 3 X s 1979 211 m 2 X -1 Y 7 X s 1988 210 m -1 Y 6 X -1 Y 2 X s 1996 208 m 5 X -1 Y 4 X s 2005 207 m 3 X -1 Y 6 X s 2014 206 m 2 X -1 Y 7 X s 2023 205 m 3 X -1 Y 5 X -1 Y 1 X s 2032 203 m 3 X 1 -1 d 3 X -1 Y 1 X s 2040 201 m 1
 X s 0 0.666667 0 c 1 1 1 c black 0 0.666667 0 c 245 974 m 8 X 1 1 d 1 Y s 254 976 m 3 Y 1 1 d 6 Y 1 1 d 4 Y 1 1 d 3 Y 1 1 d 4 Y 1 1 d 2 Y 1 1 d 3 Y 1 1 d 2 Y 1 X 3 Y 1 1 d s 263 1014 m 2 Y 1 1 d 2 Y 1 1 d 2 Y 1 1 d 2 Y 1 X 3 Y 1 X 2 Y 1 1 d 2 Y 1 X
 2 Y 1 1 d 2 Y s 271 1038 m 1 X 3 Y 1 X 2 Y 1 X 3 Y 1 X 2 Y 1 X 2 Y 1 1 d 1 Y 1 1 d 1 Y 1 1 d 2 Y 1 X 1 Y s 280 1058 m 1 Y 1 X 2 Y 1 X 1 Y 1 1 d 2 Y 1 X 2 Y 1 X 2 Y 1 X 2 Y 1 X 2 Y 1 X 2 Y 1 X 1 Y s 289 1076 m 1 1 d 1 Y 1 X 1 Y 1 1 d 1 Y 1 1 d 1 Y 1
 X 1 Y 1 1 d 1 Y 1 X 1 Y 1 1 d 1 Y 1 1 d s 298 1090 m 1 Y 1 X 1 Y 1 1 d 1 Y 1 X 1 Y 1 1 d 1 Y 1 X 1 Y 1 1 d 1 Y 1 X 1 Y 1 X 1 Y 1 1 d s 307 1103 m 1 Y 1 X 1 Y 1 X 1 Y 1 1 d 1 Y 1 X 1 Y 1 X 1 Y 1 X 1 Y 1 X 1 Y 1 X 2 Y s 315 1114 m 1 X 1 Y 1 X 1 Y 1 X
 1 Y 1 X 1 Y 1 X 1 Y 1 1 d 1 1 d 1 Y 1 X 1 Y 1 X 1 Y s 324 1124 m 1 X 1 Y 1 X 1 Y 1 X 1 Y 1 X 1 Y 1 X 1 Y 1 X 1 Y 1 X 1 Y 1 X 1 Y 1 X 1 Y s 333 1133 m 1 X 1 Y 1 X 1 Y 1 X 1 Y 1 X 1 Y 1 X 1 Y 1 X 1 Y 2 X 1 Y 1 X s 342 1140 m 1 Y 1 X 1 Y 1 X 1 Y 1 X 1
 1 d 1 X 1 Y 1 X 1 Y 1 X 1 1 d 1 X s 351 1147 m 1 Y 1 X 1 Y 1 X 1 1 d 1 X 1 Y 1 X 1 1 d 1 X 1 Y 1 X 1 Y s 359 1154 m 2 X 1 Y 2 X 1 Y 1 X 1 Y 2 X 1 Y 1 X 1 1 d s 368 1159 m 1 X 1 Y 2 X 1 Y 2 X 1 Y 2 X 1 Y 2 X s 377 1163 m 1 Y 2 X 1 Y 2 X 1 Y 2 X 1 Y 2
 X 1 Y 1 X s 386 1168 m 1 X 1 Y 2 X 1 Y 2 X 1 1 d 2 X 1 Y 1 X s 395 1172 m 1 X 1 Y 3 X 1 Y 2 X 1 1 d 1 X s 403 1175 m 1 X 1 Y 3 X 1 Y 3 X 1 Y 2 X s 412 1178 m 1 X 1 Y 3 X 1 Y 3 X 1 Y 2 X s 421 1181 m 1 X 1 Y 4 X 1 Y 3 X 1 Y 1 X s 430 1184 m 3 X 1 1 d
 3 X 1 1 d 1 X s 439 1186 m 2 X 1 Y 3 X 1 Y 3 X 1 Y s 447 1189 m 4 X 1 Y 4 X 1 Y 1 X s 456 1191 m 4 X 1 Y 3 X 1 Y 2 X s 465 1193 m 2 X 1 1 d 5 X 1 Y 1 X s 474 1195 m 4 X 1 Y 5 X s 483 1196 m 1 1 d 4 X 1 Y 3 X s 491 1198 m 2 X 1 Y 5 X 1 Y 2 X s 500
 1200 m 4 X 1 Y 5 X s 509 1201 m 1 Y 6 X 1 Y 3 X s 518 1203 m 4 X 1 Y 5 X s 527 1204 m 2 X 1 Y 6 X s 535 1205 m 1 X 1 Y 7 X 1 Y 1 X s 544 1207 m 5 X 1 1 d 3 X s 553 1208 m 4 X 1 Y 5 X s 562 1209 m 2 X 1 Y 7 X s 571 1210 m 1 Y 8 X s 579 1211 m 1 X 1 Y
 8 X s 588 1212 m 1 1 d -1 Y 1 Y 8 X s 597 1213 m 1 Y 9 X s 606 1214 m 1 X 1 Y 8 X s 615 1215 m 3 X 1 Y 5 X s 623 1216 m 5 X 1 1 d 3 X s 632 1217 m 9 X s 641 1217 m 1 Y 9 X s 650 1218 m 2 X 1 Y 7 X s 659 1219 m 4 X 1 Y 4 X s 667 1220 m 9 X s 676 1220
 m 1 1 d 8 X s 685 1221 m 5 X 1 Y 4 X s 694 1222 m 9 X s 703 1222 m 2 X 1 Y 6 X s 711 1223 m 9 X s 720 1223 m 1 X 1 Y 8 X s 729 1224 m 7 X 1 Y 2 X s 738 1225 m 9 X s 747 1225 m 4 X 1 1 d 3 X s 755 1226 m 9 X s 764 1226 m 9 X 1 Y s 773 1227 m 9 X s
 782 1227 m 8 X 1 1 d s 791 1228 m 8 X s 799 1228 m 9 X s 808 1228 m 4 X 1 Y 5 X s 817 1229 m 9 X s 826 1229 m 9 X s 835 1229 m 4 X 1 Y 4 X s 843 1230 m 9 X s 852 1230 m 9 X s 861 1230 m 9 X s 870 1230 m 6 X 1 Y 3 X s 879 1231 m 8 X s 887 1231 m 9 X
 s 896 1231 m 9 X s 905 1231 m 7 X 1 Y 2 X s 914 1232 m 9 X s 923 1232 m 8 X s 931 1232 m 9 X s 940 1232 m 7 X 1 Y -1 Y 1 X 1 Y 1 X s 949 1233 m 9 X s 958 1233 m 9 X s 967 1233 m 8 X s 975 1233 m 5 X 1 1 d 3 X s 984 1234 m 9 X s 993 1234 m 9 X s 1002
 1234 m 9 X s 1011 1234 m 8 X s 1019 1234 m 9 X s 1028 1234 m 5 X 1 Y 4 X s 1037 1235 m 9 X s 1046 1235 m 9 X s 1055 1235 m 8 X s 1063 1235 m 9 X s 1072 1235 m 9 X s 1081 1235 m 7 X 1 1 d -1 Y 1 1 d s 1090 1236 m 9 X s 1099 1236 m 8 X s 1107 1236 m 9
 X s 1116 1236 m 9 X s 1125 1236 m 9 X s 1134 1236 m 9 X s 1143 1236 m 8 X s 1151 1236 m 9 X s 1160 1236 m 7 X 1 Y 2 X s 1169 1237 m 9 X s 1178 1237 m 9 X s 1187 1237 m 8 X s 1195 1237 m 9 X s 1204 1237 m 9 X s 1213 1237 m 9 X s 1222 1237 m 9 X s
 1231 1237 m 8 X s 1239 1237 m 9 X s 1248 1237 m 9 X s 1257 1237 m 9 X s 1266 1237 m 9 X s 1275 1237 m 8 X s 1283 1237 m 9 X s 1292 1237 m 9 X s 1301 1237 m 9 X s 1310 1237 m 9 X s 1319 1237 m 8 X s 1327 1237 m 9 X s 1336 1237 m 9 X s 1345 1237 m 9 X
 s 1354 1237 m 9 X s 1363 1237 m 8 X s 1371 1237 m 9 X s 1380 1237 m 9 X s 1389 1237 m 9 X s 1398 1237 m 9 X s 1407 1237 m 8 X s 1415 1237 m 9 X s 1424 1237 m 9 X s 1433 1237 m 9 X s 1442 1237 m 9 X s 1451 1237 m 8 X s 1459 1237 m 9 X s 1468 1237 m 9
 X s 1477 1237 m 9 X s 1486 1237 m 9 X s 1495 1237 m 4 X -1 Y 1 Y 2 X -1 Y 1 X 1 Y 1 X -1 Y s 1503 1236 m 9 X s 1512 1236 m 9 X s 1521 1236 m 9 X s 1530 1236 m 9 X s 1539 1236 m 8 X s 1547 1236 m 9 X s 1556 1236 m 9 X s 1565 1236 m 9 X s 1574 1236 m
 8 X -1 Y 1 Y 1 -1 d s 1583 1235 m 8 X s 1591 1235 m 9 X s 1600 1235 m 9 X s 1609 1235 m 9 X s 1618 1235 m 1 -1 d 1 X 1 Y -1 Y 1 1 d -1 Y 1 Y 2 X -1 Y 4 X s 1627 1234 m 8 X s 1635 1234 m 9 X s 1644 1234 m 9 X s 1653 1234 m 9 X s 1662 1234 m 9 X s
 1671 1234 m -1 Y 8 X s 1679 1233 m 9 X s 1688 1233 m 9 X s 1697 1233 m 7 X -1 Y 2 X s 1706 1232 m 9 X s 1715 1232 m 8 X s 1723 1232 m 6 X 1 -1 d 2 X s 1732 1231 m 9 X s 1741 1231 m 9 X s 1750 1231 m 4 X 1 -1 d 1 Y -1 Y 4 X s 1759 1230 m 8 X s 1767
 1230 m 8 X -1 Y 1 X s 1776 1229 m 9 X s 1785 1229 m 4 X -1 Y 5 X s 1794 1228 m 9 X s 1803 1228 m 2 X -1 Y 7 X s 1812 1227 m 5 X -1 Y 3 X s 1820 1226 m 7 X -1 Y 2 X s 1829 1225 m 8 X -1 Y 1 X s 1838 1224 m 8 X -1 Y 1 X s 1847 1223 m 8 X -1 Y 1 X s
 1856 1222 m 6 X 1 -1 d 1 X s 1864 1221 m 3 X -1 Y 6 X s 1873 1220 m 1 X -1 Y 5 X -1 Y 3 X s 1882 1218 m 1 X 1 -1 d 4 X -1 Y 3 X s 1891 1216 m 1 X -1 Y 3 X 1 -1 d 3 X -1 Y 1 X s 1900 1213 m 2 X -1 Y 3 X -1 Y 3 X -1 Y s 1908 1210 m 2 X 1 -1 d 2 X 1 -1
 d 2 X -1 Y 1 X s 1917 1207 m 1 -1 d 2 X -1 Y 1 X 1 -1 d 2 X -1 Y 1 X -1 Y 1 X s 1926 1202 m 1 X -1 Y 1 X -1 Y 1 X -1 Y 2 X -1 Y 1 X -1 Y 1 X -1 Y 1 X -1 Y 1 X s 1935 1195 m -1 Y 1 X 1 -1 d -1 Y 1 X -1 Y 1 X -1 Y 1 X -1 Y 1 X -1 Y 1 -1 d -1 Y 1 X -1
 Y 1 X s 1944 1185 m -1 Y 1 -1 d -1 Y 1 X -1 Y 1 X -2 Y 1 X -1 Y 1 X -2 Y 1 X -1 Y 1 X -2 Y 1 X -2 Y s 1952 1171 m 1 X -1 Y 1 -1 d -1 Y 1 -1 d -1 Y 1 X -2 Y 1 -1 d -1 Y 1 X -2 Y 1 X -2 Y 1 X -2 Y 1 X -1 Y s 1961 1155 m -1 Y 1 -1 d -1 Y 1 X -2 Y 1 -1
 d -2 Y 1 X -2 Y 1 -1 d -2 Y 1 X -2 Y 1 X -2 Y 1 -1 d -1 Y 1 -1 d -1 Y s 1970 1134 m -1 Y 1 X -2 Y 1 X -2 Y 1 -1 d -1 Y 1 X -2 Y 1 X -2 Y 1 X -2 Y 1 X -2 Y 1 X -2 Y 1 X s 1979 1117 m -2 Y 1 X -2 Y 1 X -2 Y 1 -1 d -1 Y 1 -1 d -2 Y 1 X -2 Y 1 X -1 Y 1
 -1 d -2 Y 1 X -1 Y 1 -1 d s 1988 1098 m -2 Y 1 X -2 Y 1 X -2 Y 1 X -2 Y 1 -1 d -1 Y 1 X -2 Y 1 -1 d -1 Y 1 -1 d -1 Y 1 -1 d -2 Y s 1996 1079 m 1 X -2 Y 1 -1 d -1 Y 1 -1 d -1 Y 1 -1 d -2 Y 1 X -2 Y 1 X -2 Y 1 -1 d -2 Y 1 X -1 Y 1 -1 d -1 Y s 2005
 1060 m -1 Y 1 X -2 Y 1 X -2 Y 1 -1 d -1 Y 1 -1 d -2 Y 1 X -2 Y 1 -1 d -2 Y 1 -1 d -2 Y 1 -1 d -2 Y 1 X -1 Y s 2014 1038 m -2 Y 1 X -2 Y 1 -1 d -3 Y 1 X -3 Y 1 -1 d -3 Y 1 -1 d -3 Y 1 -1 d -3 Y 1 -1 d -4 Y 1 -1 d -4 Y 1 X -2 Y s 2023 1003 m -3 Y 1 -2
 d -4 Y 1 -1 d -8 Y 1 -1 d -7 Y 1 -2 d -8 Y 1 -2 d -10 Y 1 -3 d -9 Y 1 -2 d -13 Y 1 -3 d -12 Y 1 -3 d s 2032 910 m -18 Y 1 -4 d -21 Y 1 -4 d -19 Y 1 -5 d -26 Y 1 -6 d -24 Y 1 -6 d -34 Y 1 -7 d -32 Y 1 -10 d -137 Y 1 -53 d -167 Y s 2040 337 m -34 Y 1
 -41 d -33 Y s black 3 lw 245 201 m 1796 X s 411 241 m -40 Y s 447 221 m -20 Y s 483 221 m -20 Y s 520 221 m -20 Y s 556 221 m -20 Y s 592 241 m -40 Y s 628 221 m -20 Y s 665 221 m -20 Y s 701 221 m -20 Y s 737 221 m -20 Y s 773 241 m -40 Y s 809 221
 m -20 Y s 846 221 m -20 Y s 882 221 m -20 Y s 918 221 m -20 Y s 954 241 m -40 Y s 991 221 m -20 Y s 1027 221 m -20 Y s 1063 221 m -20 Y s 1099 221 m -20 Y s 1135 241 m -40 Y s 1172 221 m -20 Y s 1208 221 m -20 Y s 1244 221 m -20 Y s 1280 221 m -20 Y
 s 1317 241 m -40 Y s 1353 221 m -20 Y s 1389 221 m -20 Y s 1425 221 m -20 Y s 1461 221 m -20 Y s 1498 241 m -40 Y s 1534 221 m -20 Y s 1570 221 m -20 Y s 1606 221 m -20 Y s 1643 221 m -20 Y s 1679 241 m -40 Y s 1715 221 m -20 Y s 1751 221 m -20 Y s
 1787 221 m -20 Y s 1824 221 m -20 Y s 1860 241 m -40 Y s 411 241 m -40 Y s 375 221 m -20 Y s 339 221 m -20 Y s 302 221 m -20 Y s 266 221 m -20 Y s 1860 241 m -40 Y s 1896 221 m -20 Y s 1932 221 m -20 Y s 1969 221 m -20 Y s 2005 221 m -20 Y s 245 201
 m 1140 Y s 291 201 m -46 X s 268 253 m -23 X s 268 305 m -23 X s 268 357 m -23 X s 291 408 m -46 X s 268 460 m -23 X s 268 512 m -23 X s 268 564 m -23 X s 291 616 m -46 X s 268 667 m -23 X s 268 719 m -23 X s 268 771 m -23 X s 291 823 m -46 X s 268
 875 m -23 X s 268 926 m -23 X s 268 978 m -23 X s 291 1030 m -46 X s 268 1082 m -23 X s 268 1134 m -23 X s 268 1185 m -23 X s 291 1237 m -46 X s 291 1237 m -46 X s 268 1289 m -23 X s 268 1341 m -23 X s 0.490196 0.545098 0.615686 c 1 1 1 c 0.490196
 0.545098 0.615686 c 907 201 245 1341 bl 245 1341 m 907 X s 1152 1341 m 201 Y s 1152 1542 m -907 X s 245 1542 m -201 Y s black
 gsave  2268 1676 0 0 C 515.735 1471.36 t 0 r /Helvetica-Bold findfont 53.0904 sf 0 0 m (Signal efficiency) show NC gr  0 0 0.933333 c 9 lw 286 1492 m 190 X s black
 gsave  2268 1676 0 0 C 515.735 1368.97 t 0 r /Helvetica-Bold findfont 53.0904 sf 0 0 m (Background efficiency) show NC gr  1 0 0 c 286 1391 m 190 X s 0.490196 0.545098 0.615686 c 3 lw 1 1 1 c 0.490196 0.545098 0.615686 c 889 201 1152 1341 bl 1152
 1341 m 889 X s 2041 1341 m 201 Y s 2041 1542 m -889 X s 1152 1542 m -201 Y s black
 gsave  2268 1676 0 0 C 1418.27 1494.11 t 0 r /Helvetica-Bold findfont 56.8825 sf 0 0 m (Signal purity) show NC gr  0 0 0.933333 c[  52 12 ] 0 sd 6 lw 1192 1509 m 187 X s black
 gsave  2268 1676 0 0 C 1418.27 1429.65 t 0 r /Helvetica-Bold findfont 56.8825 sf 0 0 m (Signal efficiency*purity) show NC gr  0 0 0.933333 c[  22 12 ] 0 sd 1192 1441 m 187 X s black
 gsave  2268 1676 0 0 C 1501.7 1361.39 t 0 r /Helvetica-Bold findfont 56.8825 sf 0 0 m (S+B) show NC gr [  ] 0 sd 1479 1407 m 11 -49 d s 3 lw 1490 1358 m 8 64 d s 1498 1422 m 114 X s
 gsave  2268 1676 0 0 C 1418.27 1361.39 t 0 r /Helvetica-Bold findfont 56.8825 sf 0 0 m (S/) show NC gr  0 0.666667 0 c 9 lw 1192 1374 m 187 X s black 3 lw 245 1237 m 1796 X s
 gsave  2268 1676 0 0 C 337.503 386.801 t 0 r /Helvetica-Bold findfont 53.0904 sf 0 0 m (For 1000 signal and 1000 background) show NC gr 
 gsave  2268 1676 0 0 C 1065.6 318.542 t 0 r /Helvetica-Bold findfont 53.0904 sf 0 0 m ( is) show NC gr 
 gsave  2268 1676 0 0 C 963.211 318.542 t 0 r /Helvetica-Bold findfont 53.0904 sf 0 0 m (S+B) show NC gr  6 lw 940 360 m 8 -45 d s 3 lw 948 315 m 8 60 d s 956 375 m 110 X s
 gsave  2268 1676 0 0 C 337.503 318.542 t 0 r /Helvetica-Bold findfont 53.0904 sf 0 0 m (events the maximum S/) show NC gr 
 gsave  2268 1676 0 0 C 337.503 254.075 t 0 r /Helvetica-Bold findfont 53.0904 sf 0 0 m (29.99 when cutting at  0.56) show NC gr  0.490196 0.545098 0.615686 c 0.364706 0.419608 0.490196 c 1486 96 23 1572 bf 0.490196 0.545098 0.615686 c 23 1572 m 1486
 X s 1509 1572 m 96 Y s 1509 1668 m -1486 X s 23 1668 m -96 Y s 1 1 1 c black 1 1 1 c
 gsave  2268 1676 0 0 C 75.8434 1600.29 t 0 r /Helvetica-Bold findfont 75.8434 sf 0 0 m (Cut efficiencies and optimal cut value) show NC gr  0 0.666667 0 c 2041 201 m 1140 Y s 1995 201 m 46 X s 2018 236 m 23 X s 2018 270 m 23 X s 2018 305 m 23 X s
 2018 339 m 23 X s 1995 374 m 46 X s 2018 408 m 23 X s 2018 443 m 23 X s 2018 478 m 23 X s 2018 512 m 23 X s 1995 547 m 46 X s 2018 581 m 23 X s 2018 616 m 23 X s 2018 650 m 23 X s 2018 685 m 23 X s 1995 719 m 46 X s 2018 754 m 23 X s 2018 789 m 23 X
 s 2018 823 m 23 X s 2018 858 m 23 X s 1995 892 m 46 X s 2018 927 m 23 X s 2018 961 m 23 X s 2018 996 m 23 X s 2018 1030 m 23 X s 1995 1065 m 46 X s 2018 1100 m 23 X s 2018 1134 m 23 X s 2018 1169 m 23 X s 2018 1203 m 23 X s 1995 1238 m 46 X s 1995
 1238 m 46 X s 2018 1272 m 23 X s 2018 1307 m 23 X s black 0 0.666667 0 c
 gsave  2268 1676 0 0 C 2051.56 178.232 t 0 r /Helvetica-Bold findfont 64.4669 sf 0 0 m (0) show NC gr  black 0 0.666667 0 c
 gsave  2268 1676 0 0 C 2051.56 348.879 t 0 r /Helvetica-Bold findfont 64.4669 sf 0 0 m (5) show NC gr  black 0 0.666667 0 c
 gsave  2268 1676 0 0 C 2051.56 523.319 t 0 r /Helvetica-Bold findfont 64.4669 sf 0 0 m (10) show NC gr  black 0 0.666667 0 c
 gsave  2268 1676 0 0 C 2051.56 693.967 t 0 r /Helvetica-Bold findfont 64.4669 sf 0 0 m (15) show NC gr  black 0 0.666667 0 c
 gsave  2268 1676 0 0 C 2051.56 868.406 t 0 r /Helvetica-Bold findfont 64.4669 sf 0 0 m (20) show NC gr  black 0 0.666667 0 c
 gsave  2268 1676 0 0 C 2051.56 1039.05 t 0 r /Helvetica-Bold findfont 64.4669 sf 0 0 m (25) show NC gr  black 0 0.666667 0 c
 gsave  2268 1676 0 0 C 2051.56 1213.49 t 0 r /Helvetica-Bold findfont 64.4669 sf 0 0 m (30) show NC gr  black 0 0.666667 0 c
 gsave  2268 1676 0 0 C 2203.25 959.419 t 90 r /Helvetica-Bold findfont 64.4669 sf 0 0 m (Significance) show NC gr 
 gr  gr showpage
end
%%EOF
