%!PS-Adobe-2.0 EPSF-2.0
%%BoundingBox:  0 0 567 415
%%Title: dataset/plots/invBeffvsSeff.eps: the canvas
%%Creator: ROOT Version 6.18/00
%%CreationDate: Mon Sep  9 20:36:51 2019
%%DocumentNeededResources: ProcSet (FontSetInit)
%%EndComments
%%BeginProlog
80 dict begin
/s {stroke} def /l {lineto} def /m {moveto} def /t {translate} def
/r {rotate} def /rl {roll}  def /R {repeat} def
/d {rlineto} def /rm {rmoveto} def /gr {grestore} def /f {eofill} def
/c {setrgbcolor} def /black {0 setgray} def /sd {setdash} def
/cl {closepath} def /sf {scalefont setfont} def /lw {setlinewidth} def
/box {m dup 0 exch d exch 0 d 0 exch neg d cl} def
/NC{systemdict begin initclip end}def/C{NC box clip newpath}def
/bl {box s} def /bf {gsave box gsave f grestore 1 lw [] 0 sd s grestore} def /Y { 0 exch d} def /X { 0 d} def 
/K {{pop pop 0 moveto} exch kshow} bind def
/ita {/ang 15 def gsave [1 0 ang dup sin exch cos div 1 0 0] concat} def 
/mp {newpath /y exch def /x exch def} def
/side {[w .77 mul w .23 mul] .385 w mul sd w 0 l currentpoint t -144 r} def
/mr {mp x y w2 0 360 arc} def /m24 {mr s} def /m20 {mr f} def
/mb {mp x y w2 add m w2 neg 0 d 0 w neg d w 0 d 0 w d cl} def
/mt {mp x y w2 add m w2 neg w neg d w 0 d cl} def
/w4 {w 4 div} def
/w6 {w 6 div} def
/w8 {w 8 div} def
/m21 {mb f} def /m25 {mb s} def /m22 {mt f} def /m26{mt s} def
/m23 {mp x y w2 sub m w2 w d w neg 0 d cl f} def
/m27 {mp x y w2 add m w3 neg w2 neg d w3 w2 neg d w3 w2 d cl s} def
/m28 {mp x w2 sub y w2 sub w3 add m w3 0 d  0 w3 neg d w3 0 d 0 w3 d w3 0 d  0 w3 d w3 neg 0 d 0 w3 d w3 neg 0 d 0 w3 neg d w3 neg 0 d cl s } def
/m29 {mp gsave x w2 sub y w2 add w3 sub m currentpoint t 4 {side} repeat cl fill gr} def
/m30 {mp gsave x w2 sub y w2 add w3 sub m currentpoint t 4 {side} repeat cl s gr} def
/m31 {mp x y w2 sub m 0 w d x w2 sub y m w 0 d x w2 sub y w2 add m w w neg d x w2 sub y w2 sub m w w d s} def
/m32 {mp x y w2 sub m w2 w d w neg 0 d cl s} def
/m33 {mp x y w2 add m w3 neg w2 neg d w3 w2 neg d w3 w2 d cl f} def
/m34 {mp x w2 sub y w2 sub w3 add m w3 0 d  0 w3 neg d w3 0 d 0 w3 d w3 0 d  0 w3 d w3 neg 0 d 0 w3 d w3 neg 0 d 0 w3 neg d w3 neg 0 d cl f } def
/m35 {mp x y w2 add m w2 neg w2 neg d w2 w2 neg d w2 w2 d w2 neg w2 d x y w2 sub m 0 w d x w2 sub y m w 0 d s} def
/m36 {mb x w2 sub y w2 add m w w neg d x w2 sub y w2 sub m w w d s} def
/m37 {mp x y m w4 neg w2 d w4 neg w2 neg d w2 0 d  w4 neg w2 neg d w2 0 d w4 neg w2 d w2 0 d w4 neg w2 d w4 neg w2 neg d cl s} def
/m38 {mp x w4 sub y w2 add m w4 neg w4 neg d 0 w2 neg d w4 w4 neg d w2 0 d w4 w4 d 0 w2 d w4 neg w4 d w2 neg 0 d x y w2 sub m 0 w d x w2 sub y m w 0 d cl s} def
/m39 {mp x y m w4 neg w2 d w4 neg w2 neg d w2 0 d  w4 neg w2 neg d w2 0 d w4 neg w2 d w2 0 d w4 neg w2 d w4 neg w2 neg d cl f} def
/m40 {mp x y m w4 w2 d w4 w4 neg d w2 neg w4 neg d w2 w4 neg d w4 neg w4 neg d w4 neg w2 d w4 neg w2 neg d w4 neg w4 d w2 w4 d w2 neg w4 d w4 w4 d w4 w2 neg d cl s} def
/m41 {mp x y m w4 w2 d w4 w4 neg d w2 neg w4 neg d w2 w4 neg d w4 neg w4 neg d w4 neg w2 d w4 neg w2 neg d w4 neg w4 d w2 w4 d w2 neg w4 d w4 w4 d w4 w2 neg d cl f} def
/m42 {mp x y w2 add m w8 neg w2 -3 4 div mul d w2 -3 4 div mul w8 neg d w2 3 4 div mul w8 neg d w8 w2 -3 4 div mul d w8 w2 3 4 div mul d w2 3 4 div mul w8 d w2 -3 4 div mul w8 d w8 neg w2 3 4 div mul d cl s} def
/m43 {mp x y w2 add m w8 neg w2 -3 4 div mul d w2 -3 4 div mul w8 neg d w2 3 4 div mul w8 neg d w8 w2 -3 4 div mul d w8 w2 3 4 div mul d w2 3 4 div mul w8 d w2 -3 4 div mul w8 d w8 neg w2 3 4 div mul d cl f} def
/m44 {mp x y m w6 neg w2 d w2 2 3 div mul 0 d w6 neg w2 neg d w2 w6 d 0 w2 -2 3 div mul d w2 neg w6 d w6 w2 neg d w2 -2 3 div mul 0 d w6 w2 d w2 neg w6 neg d 0 w2 2 3 div mul d w2 w6 neg d cl s} def
/m45 {mp x y m w6 neg w2 d w2 2 3 div mul 0 d w6 neg w2 neg d w2 w6 d 0 w2 -2 3 div mul d w2 neg w6 d w6 w2 neg d w2 -2 3 div mul 0 d w6 w2 d w2 neg w6 neg d 0 w2 2 3 div mul d w2 w6 neg d cl f} def
/m46 {mp x y w4 add m w4 neg w4 d w4 neg w4 neg d  w4 w4 neg d w4 neg w4 neg d w4 w4 neg d w4 w4 d w4 w4 neg d w4 w4 d w4 neg w4 d w4 w4 d w4 neg w4 d w4 neg w4 neg d cl s} def
/m47 {mp x y w4 add m w4 neg w4 d w4 neg w4 neg d w4 w4 neg d w4 neg w4 neg d  w4 w4 neg d w4 w4 d w4 w4 neg d w4 w4 d w4 neg w4 d w4 w4 d w4 neg w4 d w4 neg w4 neg d cl f} def
/m48 {mp x y w4 add m w4 neg w4 d w4 neg w4 neg d w4 w4 neg d  w4 neg w4 neg d w4 w4 neg d w4 w4 d w4 w4 neg d w4 w4 d w4 neg w4 d w4 w4 d w4 neg w4 d w4 neg w4 neg d  w4 w4 neg d w4 neg w4 neg d w4 neg w4 d w4 w4 d cl f} def
/m49 {mp x w2 sub w3 add y w2 sub w3 add m  0 w3 neg d w3 0 d 0 w3 d w3 0 d 0 w3 d w3 neg 0 d 0 w3 d w3 neg 0 d 0 w3 neg d w3 neg 0 d 0 w3 neg d w3 0 d 0 w3 d w3 0 d 0 w3 neg d w3 neg 0 d cl f } def
/m2 {mp x y w2 sub m 0 w d x w2 sub y m w 0 d s} def
/m5 {mp x w2 sub y w2 sub m w w d x w2 sub y w2 add m w w neg d s} def
%%IncludeResource: ProcSet (FontSetInit)
%%IncludeResource: font Times-Roman
%%IncludeResource: font Times-Italic
%%IncludeResource: font Times-Bold
%%IncludeResource: font Times-BoldItalic
%%IncludeResource: font Helvetica
%%IncludeResource: font Helvetica-Oblique
%%IncludeResource: font Helvetica-Bold
%%IncludeResource: font Helvetica-BoldOblique
%%IncludeResource: font Courier
%%IncludeResource: font Courier-Oblique
%%IncludeResource: font Courier-Bold
%%IncludeResource: font Courier-BoldOblique
%%IncludeResource: font Symbol
%%IncludeResource: font ZapfDingbats
/reEncode {exch findfont dup length dict begin {1 index /FID eq  {pop pop} {def} ifelse } forall /Encoding exch def currentdict end dup /FontName get exch definefont pop } def [/Times-Bold /Times-Italic /Times-BoldItalic /Helvetica /Helvetica-Oblique
 /Helvetica-Bold /Helvetica-BoldOblique /Courier /Courier-Oblique /Courier-Bold /Courier-BoldOblique /Times-Roman /AvantGarde-Book /AvantGarde-BookOblique /AvantGarde-Demi /AvantGarde-DemiOblique /Bookman-Demi /Bookman-DemiItalic /Bookman-Light
 /Bookman-LightItalic /Helvetica-Narrow /Helvetica-Narrow-Bold /Helvetica-Narrow-BoldOblique /Helvetica-Narrow-Oblique /NewCenturySchlbk-Roman /NewCenturySchlbk-Bold /NewCenturySchlbk-BoldItalic /NewCenturySchlbk-Italic /Palatino-Bold
 /Palatino-BoldItalic /Palatino-Italic /Palatino-Roman ] {ISOLatin1Encoding reEncode } forall
%%EndProlog
%%BeginSetup
%%EndSetup
newpath  gsave  .25 .25 scale  gsave  0 0 t 0.490196 0.545098 0.615686 c[  ] 0 sd 3 lw 0.941176 0.941176 0.941176 c 2268 1659 0 0 bf black 1 1 0.992157 c 1909 1294 245 199 bf black 1909 1294 245 199 bl 1 1 0.992157 c 1909 1294 245 199 bf black 1909
 1294 245 199 bl 245 199 m 1909 X s 245 241 m -42 Y s[ 4 8] 0 sd 245 1493 m -1294 Y s[  ] 0 sd 283 220 m -21 Y s 321 220 m -21 Y s 359 220 m -21 Y s 398 220 m -21 Y s 436 241 m -42 Y s[ 4 8] 0 sd 436 1493 m -1294 Y s[  ] 0 sd 474 220 m -21 Y s 512
 220 m -21 Y s 550 220 m -21 Y s 589 220 m -21 Y s 627 241 m -42 Y s[ 4 8] 0 sd 627 1493 m -1294 Y s[  ] 0 sd 665 220 m -21 Y s 703 220 m -21 Y s 741 220 m -21 Y s 780 220 m -21 Y s 818 241 m -42 Y s[ 4 8] 0 sd 818 1493 m -1294 Y s[  ] 0 sd 856 220 m
 -21 Y s 894 220 m -21 Y s 932 220 m -21 Y s 970 220 m -21 Y s 1009 241 m -42 Y s[ 4 8] 0 sd 1009 1493 m -1294 Y s[  ] 0 sd 1047 220 m -21 Y s 1085 220 m -21 Y s 1123 220 m -21 Y s 1161 220 m -21 Y s 1200 241 m -42 Y s[ 4 8] 0 sd 1200 1493 m -1294 Y
 s[  ] 0 sd 1238 220 m -21 Y s 1276 220 m -21 Y s 1314 220 m -21 Y s 1352 220 m -21 Y s 1391 241 m -42 Y s[ 4 8] 0 sd 1391 1493 m -1294 Y s[  ] 0 sd 1429 220 m -21 Y s 1467 220 m -21 Y s 1505 220 m -21 Y s 1543 220 m -21 Y s 1582 241 m -42 Y s[ 4 8]
 0 sd 1582 1493 m -1294 Y s[  ] 0 sd 1620 220 m -21 Y s 1658 220 m -21 Y s 1696 220 m -21 Y s 1734 220 m -21 Y s 1772 241 m -42 Y s[ 4 8] 0 sd 1772 1493 m -1294 Y s[  ] 0 sd 1811 220 m -21 Y s 1849 220 m -21 Y s 1887 220 m -21 Y s 1925 220 m -21 Y s
 1963 241 m -42 Y s[ 4 8] 0 sd 1963 1493 m -1294 Y s[  ] 0 sd 2002 220 m -21 Y s 2040 220 m -21 Y s 2078 220 m -21 Y s 2116 220 m -21 Y s 2154 241 m -42 Y s[ 4 8] 0 sd 2154 1493 m -1294 Y s
 gsave  2268 1659 0 0 C 223.972 129.484 t 0 r /Helvetica-Bold findfont 62.9921 sf 0 0 m (0) show NC gr 
 gsave  2268 1659 0 0 C 395.451 129.484 t 0 r /Helvetica-Bold findfont 62.9921 sf 0 0 m (0.1) show NC gr 
 gsave  2268 1659 0 0 C 584.427 129.484 t 0 r /Helvetica-Bold findfont 62.9921 sf 0 0 m (0.2) show NC gr 
 gsave  2268 1659 0 0 C 773.403 129.484 t 0 r /Helvetica-Bold findfont 62.9921 sf 0 0 m (0.3) show NC gr 
 gsave  2268 1659 0 0 C 965.879 129.484 t 0 r /Helvetica-Bold findfont 62.9921 sf 0 0 m (0.4) show NC gr 
 gsave  2268 1659 0 0 C 1154.86 129.484 t 0 r /Helvetica-Bold findfont 62.9921 sf 0 0 m (0.5) show NC gr 
 gsave  2268 1659 0 0 C 1347.33 129.484 t 0 r /Helvetica-Bold findfont 62.9921 sf 0 0 m (0.6) show NC gr 
 gsave  2268 1659 0 0 C 1532.81 129.484 t 0 r /Helvetica-Bold findfont 62.9921 sf 0 0 m (0.7) show NC gr 
 gsave  2268 1659 0 0 C 1728.78 129.484 t 0 r /Helvetica-Bold findfont 62.9921 sf 0 0 m (0.8) show NC gr 
 gsave  2268 1659 0 0 C 1921.26 129.484 t 0 r /Helvetica-Bold findfont 62.9921 sf 0 0 m (0.9) show NC gr 
 gsave  2268 1659 0 0 C 2138.23 129.484 t 0 r /Helvetica-Bold findfont 62.9921 sf 0 0 m (1) show NC gr 
 gsave  2268 1659 0 0 C 1592.3 31.4961 t 0 r /Helvetica-Bold findfont 69.9912 sf 0 0 m (Signal efficiency) show NC gr [  ] 0 sd 245 1493 m 1909 X s 245 1451 m 42 Y s 283 1472 m 21 Y s 321 1472 m 21 Y s 359 1472 m 21 Y s 398 1472 m 21 Y s 436 1451 m
 42 Y s 474 1472 m 21 Y s 512 1472 m 21 Y s 550 1472 m 21 Y s 589 1472 m 21 Y s 627 1451 m 42 Y s 665 1472 m 21 Y s 703 1472 m 21 Y s 741 1472 m 21 Y s 780 1472 m 21 Y s 818 1451 m 42 Y s 856 1472 m 21 Y s 894 1472 m 21 Y s 932 1472 m 21 Y s 970 1472
 m 21 Y s 1009 1451 m 42 Y s 1047 1472 m 21 Y s 1085 1472 m 21 Y s 1123 1472 m 21 Y s 1161 1472 m 21 Y s 1200 1451 m 42 Y s 1238 1472 m 21 Y s 1276 1472 m 21 Y s 1314 1472 m 21 Y s 1352 1472 m 21 Y s 1391 1451 m 42 Y s 1429 1472 m 21 Y s 1467 1472 m
 21 Y s 1505 1472 m 21 Y s 1543 1472 m 21 Y s 1582 1451 m 42 Y s 1620 1472 m 21 Y s 1658 1472 m 21 Y s 1696 1472 m 21 Y s 1734 1472 m 21 Y s 1772 1451 m 42 Y s 1811 1472 m 21 Y s 1849 1472 m 21 Y s 1887 1472 m 21 Y s 1925 1472 m 21 Y s 1963 1451 m 42
 Y s 2002 1472 m 21 Y s 2040 1472 m 21 Y s 2078 1472 m 21 Y s 2116 1472 m 21 Y s 2154 1451 m 42 Y s 245 199 m 1294 Y s 298 199 m -53 X s[ 4 8] 0 sd 2154 199 m -1909 X s[  ] 0 sd 271 237 m -26 X s 271 275 m -26 X s 271 313 m -26 X s 271 351 m -26 X s
 298 390 m -53 X s[ 4 8] 0 sd 2154 390 m -1909 X s[  ] 0 sd 271 428 m -26 X s 271 466 m -26 X s 271 504 m -26 X s 271 542 m -26 X s 298 580 m -53 X s[ 4 8] 0 sd 2154 580 m -1909 X s[  ] 0 sd 271 618 m -26 X s 271 656 m -26 X s 271 694 m -26 X s 271
 733 m -26 X s 298 771 m -53 X s[ 4 8] 0 sd 2154 771 m -1909 X s[  ] 0 sd 271 809 m -26 X s 271 847 m -26 X s 271 885 m -26 X s 271 923 m -26 X s 298 961 m -53 X s[ 4 8] 0 sd 2154 961 m -1909 X s[  ] 0 sd 271 999 m -26 X s 271 1037 m -26 X s 271 1075
 m -26 X s 271 1114 m -26 X s 298 1152 m -53 X s[ 4 8] 0 sd 2154 1152 m -1909 X s[  ] 0 sd 271 1190 m -26 X s 271 1228 m -26 X s 271 1266 m -26 X s 271 1304 m -26 X s 298 1342 m -53 X s[ 4 8] 0 sd 2154 1342 m -1909 X s[  ] 0 sd 298 1342 m -53 X s[ 4
 8] 0 sd 2154 1342 m -1909 X s[  ] 0 sd 271 1380 m -26 X s 271 1418 m -26 X s 271 1456 m -26 X s
 gsave  2268 1659 0 0 C 181.977 174.978 t 0 r /Helvetica-Bold findfont 62.9921 sf 0 0 m (0) show NC gr 
 gsave  2268 1659 0 0 C 111.986 367.454 t 0 r /Helvetica-Bold findfont 62.9921 sf 0 0 m (100) show NC gr 
 gsave  2268 1659 0 0 C 111.986 556.43 t 0 r /Helvetica-Bold findfont 62.9921 sf 0 0 m (200) show NC gr 
 gsave  2268 1659 0 0 C 111.986 748.906 t 0 r /Helvetica-Bold findfont 62.9921 sf 0 0 m (300) show NC gr 
 gsave  2268 1659 0 0 C 111.986 937.883 t 0 r /Helvetica-Bold findfont 62.9921 sf 0 0 m (400) show NC gr 
 gsave  2268 1659 0 0 C 111.986 1130.36 t 0 r /Helvetica-Bold findfont 62.9921 sf 0 0 m (500) show NC gr 
 gsave  2268 1659 0 0 C 111.986 1319.34 t 0 r /Helvetica-Bold findfont 62.9921 sf 0 0 m (600) show NC gr 
 gsave  2268 1659 0 0 C 62.9921 853.893 t 90 r /Helvetica-Bold findfont 69.9912 sf 0 0 m (1/\(Background eff.\)) show NC gr  2154 199 m 1294 Y s 2101 199 m 53 X s 2128 237 m 26 X s 2128 275 m 26 X s 2128 313 m 26 X s 2128 351 m 26 X s 2101 390 m 53 X
 s 2128 428 m 26 X s 2128 466 m 26 X s 2128 504 m 26 X s 2128 542 m 26 X s 2101 580 m 53 X s 2128 618 m 26 X s 2128 656 m 26 X s 2128 694 m 26 X s 2128 733 m 26 X s 2101 771 m 53 X s 2128 809 m 26 X s 2128 847 m 26 X s 2128 885 m 26 X s 2128 923 m 26
 X s 2101 961 m 53 X s 2128 999 m 26 X s 2128 1037 m 26 X s 2128 1075 m 26 X s 2128 1114 m 26 X s 2101 1152 m 53 X s 2128 1190 m 26 X s 2128 1228 m 26 X s 2128 1266 m 26 X s 2128 1304 m 26 X s 2101 1342 m 53 X s 2101 1342 m 53 X s 2128 1380 m 26 X s
 2128 1418 m 26 X s 2128 1456 m 26 X s 9 lw 1 1 1 c black 254 1375 m 573 X 6 2 d 6 1 d 4 X 3 -2 d -1 Y 4 -4 d 3 -6 d 4 -10 d 8 -24 d 20 -57 d 11 -31 d 8 -21 d 12 -30 d 7 -17 d 13 -29 d 6 -13 d 14 -29 d 5 -11 d 15 -28 d 4 -8 d 16 -27 d 3 -6 d 19 -31 d
 19 -28 d 19 -27 d 20 -25 d 19 -23 d 19 -22 d 19 -20 d 19 -19 d 15 -14 d 4 -4 d 7 -10 d 8 -12 d 4 -7 d s 1190 782 m 17 -23 d 2 -4 d 19 -24 d 19 -23 d 19 -20 d 20 -19 d 19 -18 d 9 -7 d 7 -6 d 3 -3 d 6 -8 d 13 -21 d 16 -24 d 3 -4 d 14 -18 d 5 -6 d 16
 -17 d 3 -4 d 19 -19 d 19 -19 d 19 -19 d 19 -17 d 20 -14 d 19 -14 d 19 -12 d 19 -10 d 19 -10 d 19 -12 d 19 -11 d 19 -11 d 19 -9 d 19 -7 d 20 -6 d 19 -6 d 19 -8 d 19 -6 d 19 -6 d 19 -6 d 19 -5 d 19 -5 d 19 -5 d 19 -6 d 19 -5 d 20 -4 d 19 -5 d 19 -4 d
 19 -4 d 19 -6 d 19 -5 d 19 -6 d 19 -6 d 19 -7 d 19 -9 d 20 -7 d 19 -8 d 19 -7 d s 2126 207 m 19 -5 d s 3 lw 245 199 m 1909 X s 245 241 m -42 Y s[ 4 8] 0 sd 245 1493 m -1294 Y s[  ] 0 sd 283 220 m -21 Y s 321 220 m -21 Y s 359 220 m -21 Y s 398 220 m
 -21 Y s 436 241 m -42 Y s[ 4 8] 0 sd 436 1493 m -1294 Y s[  ] 0 sd 474 220 m -21 Y s 512 220 m -21 Y s 550 220 m -21 Y s 589 220 m -21 Y s 627 241 m -42 Y s[ 4 8] 0 sd 627 1493 m -1294 Y s[  ] 0 sd 665 220 m -21 Y s 703 220 m -21 Y s 741 220 m -21 Y
 s 780 220 m -21 Y s 818 241 m -42 Y s[ 4 8] 0 sd 818 1493 m -1294 Y s[  ] 0 sd 856 220 m -21 Y s 894 220 m -21 Y s 932 220 m -21 Y s 970 220 m -21 Y s 1009 241 m -42 Y s[ 4 8] 0 sd 1009 1493 m -1294 Y s[  ] 0 sd 1047 220 m -21 Y s 1085 220 m -21 Y s
 1123 220 m -21 Y s 1161 220 m -21 Y s 1200 241 m -42 Y s[ 4 8] 0 sd 1200 1493 m -1294 Y s[  ] 0 sd 1238 220 m -21 Y s 1276 220 m -21 Y s 1314 220 m -21 Y s 1352 220 m -21 Y s 1391 241 m -42 Y s[ 4 8] 0 sd 1391 1493 m -1294 Y s[  ] 0 sd 1429 220 m
 -21 Y s 1467 220 m -21 Y s 1505 220 m -21 Y s 1543 220 m -21 Y s 1582 241 m -42 Y s[ 4 8] 0 sd 1582 1493 m -1294 Y s[  ] 0 sd 1620 220 m -21 Y s 1658 220 m -21 Y s 1696 220 m -21 Y s 1734 220 m -21 Y s 1772 241 m -42 Y s[ 4 8] 0 sd 1772 1493 m -1294
 Y s[  ] 0 sd 1811 220 m -21 Y s 1849 220 m -21 Y s 1887 220 m -21 Y s 1925 220 m -21 Y s 1963 241 m -42 Y s[ 4 8] 0 sd 1963 1493 m -1294 Y s[  ] 0 sd 2002 220 m -21 Y s 2040 220 m -21 Y s 2078 220 m -21 Y s 2116 220 m -21 Y s 2154 241 m -42 Y s[ 4
 8] 0 sd 2154 1493 m -1294 Y s[  ] 0 sd 245 1493 m 1909 X s 245 1451 m 42 Y s 283 1472 m 21 Y s 321 1472 m 21 Y s 359 1472 m 21 Y s 398 1472 m 21 Y s 436 1451 m 42 Y s 474 1472 m 21 Y s 512 1472 m 21 Y s 550 1472 m 21 Y s 589 1472 m 21 Y s 627 1451 m
 42 Y s 665 1472 m 21 Y s 703 1472 m 21 Y s 741 1472 m 21 Y s 780 1472 m 21 Y s 818 1451 m 42 Y s 856 1472 m 21 Y s 894 1472 m 21 Y s 932 1472 m 21 Y s 970 1472 m 21 Y s 1009 1451 m 42 Y s 1047 1472 m 21 Y s 1085 1472 m 21 Y s 1123 1472 m 21 Y s 1161
 1472 m 21 Y s 1200 1451 m 42 Y s 1238 1472 m 21 Y s 1276 1472 m 21 Y s 1314 1472 m 21 Y s 1352 1472 m 21 Y s 1391 1451 m 42 Y s 1429 1472 m 21 Y s 1467 1472 m 21 Y s 1505 1472 m 21 Y s 1543 1472 m 21 Y s 1582 1451 m 42 Y s 1620 1472 m 21 Y s 1658
 1472 m 21 Y s 1696 1472 m 21 Y s 1734 1472 m 21 Y s 1772 1451 m 42 Y s 1811 1472 m 21 Y s 1849 1472 m 21 Y s 1887 1472 m 21 Y s 1925 1472 m 21 Y s 1963 1451 m 42 Y s 2002 1472 m 21 Y s 2040 1472 m 21 Y s 2078 1472 m 21 Y s 2116 1472 m 21 Y s 2154
 1451 m 42 Y s 245 199 m 1294 Y s 298 199 m -53 X s[ 4 8] 0 sd 2154 199 m -1909 X s[  ] 0 sd 271 237 m -26 X s 271 275 m -26 X s 271 313 m -26 X s 271 351 m -26 X s 298 390 m -53 X s[ 4 8] 0 sd 2154 390 m -1909 X s[  ] 0 sd 271 428 m -26 X s 271 466
 m -26 X s 271 504 m -26 X s 271 542 m -26 X s 298 580 m -53 X s[ 4 8] 0 sd 2154 580 m -1909 X s[  ] 0 sd 271 618 m -26 X s 271 656 m -26 X s 271 694 m -26 X s 271 733 m -26 X s 298 771 m -53 X s[ 4 8] 0 sd 2154 771 m -1909 X s[  ] 0 sd 271 809 m -26
 X s 271 847 m -26 X s 271 885 m -26 X s 271 923 m -26 X s 298 961 m -53 X s[ 4 8] 0 sd 2154 961 m -1909 X s[  ] 0 sd 271 999 m -26 X s 271 1037 m -26 X s 271 1075 m -26 X s 271 1114 m -26 X s 298 1152 m -53 X s[ 4 8] 0 sd 2154 1152 m -1909 X s[  ] 0
 sd 271 1190 m -26 X s 271 1228 m -26 X s 271 1266 m -26 X s 271 1304 m -26 X s 298 1342 m -53 X s[ 4 8] 0 sd 2154 1342 m -1909 X s[  ] 0 sd 298 1342 m -53 X s[ 4 8] 0 sd 2154 1342 m -1909 X s[  ] 0 sd 271 1380 m -26 X s 271 1418 m -26 X s 271 1456 m
 -26 X s 2154 199 m 1294 Y s 2101 199 m 53 X s 2128 237 m 26 X s 2128 275 m 26 X s 2128 313 m 26 X s 2128 351 m 26 X s 2101 390 m 53 X s 2128 428 m 26 X s 2128 466 m 26 X s 2128 504 m 26 X s 2128 542 m 26 X s 2101 580 m 53 X s 2128 618 m 26 X s 2128
 656 m 26 X s 2128 694 m 26 X s 2128 733 m 26 X s 2101 771 m 53 X s 2128 809 m 26 X s 2128 847 m 26 X s 2128 885 m 26 X s 2128 923 m 26 X s 2101 961 m 53 X s 2128 999 m 26 X s 2128 1037 m 26 X s 2128 1075 m 26 X s 2128 1114 m 26 X s 2101 1152 m 53 X
 s 2128 1190 m 26 X s 2128 1228 m 26 X s 2128 1266 m 26 X s 2128 1304 m 26 X s 2101 1342 m 53 X s 2101 1342 m 53 X s 2128 1380 m 26 X s 2128 1418 m 26 X s 2128 1456 m 26 X s
 gsave  2268 1659 0 0 C 272.966 1245.84 t 0 r /Helvetica-Bold findfont 55.993 sf 0 0 m (MVA Method:) show NC gr 
 gsave  2268 1659 0 0 C 559.93 1154.86 t 0 r /Helvetica-Bold findfont 55.993 sf 0 0 m (KNN) show NC gr  9 lw 290 1172 m 223 X s 0.490196 0.545098 0.615686 c 3 lw 0.364706 0.419608 0.490196 c 1587 100 23 1550 bf 0.490196 0.545098 0.615686 c 23 1550 m
 1587 X s 1610 1550 m 100 Y s 1610 1650 m -1587 X s 23 1650 m -100 Y s 1 1 1 c black 1 1 1 c
 gsave  2268 1659 0 0 C 80.4899 1581.8 t 0 r /Helvetica-Bold findfont 69.9912 sf 0 0 m (1/\(Background eff.\) versus Signal efficiency) show NC gr 
 gr  gr showpage
end
%%EOF
