%!PS-Adobe-2.0 EPSF-2.0
%%BoundingBox:  0 0 567 419
%%Title: dataset/plots/mvaeffs_KNN.eps: Cut efficiencies for KNN classifier
%%Creator: ROOT Version 6.18/00
%%CreationDate: Mon Sep  9 20:42:42 2019
%%DocumentNeededResources: ProcSet (FontSetInit)
%%EndComments
%%BeginProlog
80 dict begin
/s {stroke} def /l {lineto} def /m {moveto} def /t {translate} def
/r {rotate} def /rl {roll}  def /R {repeat} def
/d {rlineto} def /rm {rmoveto} def /gr {grestore} def /f {eofill} def
/c {setrgbcolor} def /black {0 setgray} def /sd {setdash} def
/cl {closepath} def /sf {scalefont setfont} def /lw {setlinewidth} def
/box {m dup 0 exch d exch 0 d 0 exch neg d cl} def
/NC{systemdict begin initclip end}def/C{NC box clip newpath}def
/bl {box s} def /bf {gsave box gsave f grestore 1 lw [] 0 sd s grestore} def /Y { 0 exch d} def /X { 0 d} def 
/K {{pop pop 0 moveto} exch kshow} bind def
/ita {/ang 15 def gsave [1 0 ang dup sin exch cos div 1 0 0] concat} def 
/mp {newpath /y exch def /x exch def} def
/side {[w .77 mul w .23 mul] .385 w mul sd w 0 l currentpoint t -144 r} def
/mr {mp x y w2 0 360 arc} def /m24 {mr s} def /m20 {mr f} def
/mb {mp x y w2 add m w2 neg 0 d 0 w neg d w 0 d 0 w d cl} def
/mt {mp x y w2 add m w2 neg w neg d w 0 d cl} def
/w4 {w 4 div} def
/w6 {w 6 div} def
/w8 {w 8 div} def
/m21 {mb f} def /m25 {mb s} def /m22 {mt f} def /m26{mt s} def
/m23 {mp x y w2 sub m w2 w d w neg 0 d cl f} def
/m27 {mp x y w2 add m w3 neg w2 neg d w3 w2 neg d w3 w2 d cl s} def
/m28 {mp x w2 sub y w2 sub w3 add m w3 0 d  0 w3 neg d w3 0 d 0 w3 d w3 0 d  0 w3 d w3 neg 0 d 0 w3 d w3 neg 0 d 0 w3 neg d w3 neg 0 d cl s } def
/m29 {mp gsave x w2 sub y w2 add w3 sub m currentpoint t 4 {side} repeat cl fill gr} def
/m30 {mp gsave x w2 sub y w2 add w3 sub m currentpoint t 4 {side} repeat cl s gr} def
/m31 {mp x y w2 sub m 0 w d x w2 sub y m w 0 d x w2 sub y w2 add m w w neg d x w2 sub y w2 sub m w w d s} def
/m32 {mp x y w2 sub m w2 w d w neg 0 d cl s} def
/m33 {mp x y w2 add m w3 neg w2 neg d w3 w2 neg d w3 w2 d cl f} def
/m34 {mp x w2 sub y w2 sub w3 add m w3 0 d  0 w3 neg d w3 0 d 0 w3 d w3 0 d  0 w3 d w3 neg 0 d 0 w3 d w3 neg 0 d 0 w3 neg d w3 neg 0 d cl f } def
/m35 {mp x y w2 add m w2 neg w2 neg d w2 w2 neg d w2 w2 d w2 neg w2 d x y w2 sub m 0 w d x w2 sub y m w 0 d s} def
/m36 {mb x w2 sub y w2 add m w w neg d x w2 sub y w2 sub m w w d s} def
/m37 {mp x y m w4 neg w2 d w4 neg w2 neg d w2 0 d  w4 neg w2 neg d w2 0 d w4 neg w2 d w2 0 d w4 neg w2 d w4 neg w2 neg d cl s} def
/m38 {mp x w4 sub y w2 add m w4 neg w4 neg d 0 w2 neg d w4 w4 neg d w2 0 d w4 w4 d 0 w2 d w4 neg w4 d w2 neg 0 d x y w2 sub m 0 w d x w2 sub y m w 0 d cl s} def
/m39 {mp x y m w4 neg w2 d w4 neg w2 neg d w2 0 d  w4 neg w2 neg d w2 0 d w4 neg w2 d w2 0 d w4 neg w2 d w4 neg w2 neg d cl f} def
/m40 {mp x y m w4 w2 d w4 w4 neg d w2 neg w4 neg d w2 w4 neg d w4 neg w4 neg d w4 neg w2 d w4 neg w2 neg d w4 neg w4 d w2 w4 d w2 neg w4 d w4 w4 d w4 w2 neg d cl s} def
/m41 {mp x y m w4 w2 d w4 w4 neg d w2 neg w4 neg d w2 w4 neg d w4 neg w4 neg d w4 neg w2 d w4 neg w2 neg d w4 neg w4 d w2 w4 d w2 neg w4 d w4 w4 d w4 w2 neg d cl f} def
/m42 {mp x y w2 add m w8 neg w2 -3 4 div mul d w2 -3 4 div mul w8 neg d w2 3 4 div mul w8 neg d w8 w2 -3 4 div mul d w8 w2 3 4 div mul d w2 3 4 div mul w8 d w2 -3 4 div mul w8 d w8 neg w2 3 4 div mul d cl s} def
/m43 {mp x y w2 add m w8 neg w2 -3 4 div mul d w2 -3 4 div mul w8 neg d w2 3 4 div mul w8 neg d w8 w2 -3 4 div mul d w8 w2 3 4 div mul d w2 3 4 div mul w8 d w2 -3 4 div mul w8 d w8 neg w2 3 4 div mul d cl f} def
/m44 {mp x y m w6 neg w2 d w2 2 3 div mul 0 d w6 neg w2 neg d w2 w6 d 0 w2 -2 3 div mul d w2 neg w6 d w6 w2 neg d w2 -2 3 div mul 0 d w6 w2 d w2 neg w6 neg d 0 w2 2 3 div mul d w2 w6 neg d cl s} def
/m45 {mp x y m w6 neg w2 d w2 2 3 div mul 0 d w6 neg w2 neg d w2 w6 d 0 w2 -2 3 div mul d w2 neg w6 d w6 w2 neg d w2 -2 3 div mul 0 d w6 w2 d w2 neg w6 neg d 0 w2 2 3 div mul d w2 w6 neg d cl f} def
/m46 {mp x y w4 add m w4 neg w4 d w4 neg w4 neg d  w4 w4 neg d w4 neg w4 neg d w4 w4 neg d w4 w4 d w4 w4 neg d w4 w4 d w4 neg w4 d w4 w4 d w4 neg w4 d w4 neg w4 neg d cl s} def
/m47 {mp x y w4 add m w4 neg w4 d w4 neg w4 neg d w4 w4 neg d w4 neg w4 neg d  w4 w4 neg d w4 w4 d w4 w4 neg d w4 w4 d w4 neg w4 d w4 w4 d w4 neg w4 d w4 neg w4 neg d cl f} def
/m48 {mp x y w4 add m w4 neg w4 d w4 neg w4 neg d w4 w4 neg d  w4 neg w4 neg d w4 w4 neg d w4 w4 d w4 w4 neg d w4 w4 d w4 neg w4 d w4 w4 d w4 neg w4 d w4 neg w4 neg d  w4 w4 neg d w4 neg w4 neg d w4 neg w4 d w4 w4 d cl f} def
/m49 {mp x w2 sub w3 add y w2 sub w3 add m  0 w3 neg d w3 0 d 0 w3 d w3 0 d 0 w3 d w3 neg 0 d 0 w3 d w3 neg 0 d 0 w3 neg d w3 neg 0 d 0 w3 neg d w3 0 d 0 w3 d w3 0 d 0 w3 neg d w3 neg 0 d cl f } def
/m2 {mp x y w2 sub m 0 w d x w2 sub y m w 0 d s} def
/m5 {mp x w2 sub y w2 sub m w w d x w2 sub y w2 add m w w neg d s} def
%%IncludeResource: ProcSet (FontSetInit)
%%IncludeResource: font Times-Roman
%%IncludeResource: font Times-Italic
%%IncludeResource: font Times-Bold
%%IncludeResource: font Times-BoldItalic
%%IncludeResource: font Helvetica
%%IncludeResource: font Helvetica-Oblique
%%IncludeResource: font Helvetica-Bold
%%IncludeResource: font Helvetica-BoldOblique
%%IncludeResource: font Courier
%%IncludeResource: font Courier-Oblique
%%IncludeResource: font Courier-Bold
%%IncludeResource: font Courier-BoldOblique
%%IncludeResource: font Symbol
%%IncludeResource: font ZapfDingbats
/reEncode {exch findfont dup length dict begin {1 index /FID eq  {pop pop} {def} ifelse } forall /Encoding exch def currentdict end dup /FontName get exch definefont pop } def [/Times-Bold /Times-Italic /Times-BoldItalic /Helvetica /Helvetica-Oblique
 /Helvetica-Bold /Helvetica-BoldOblique /Courier /Courier-Oblique /Courier-Bold /Courier-BoldOblique /Times-Roman /AvantGarde-Book /AvantGarde-BookOblique /AvantGarde-Demi /AvantGarde-DemiOblique /Bookman-Demi /Bookman-DemiItalic /Bookman-Light
 /Bookman-LightItalic /Helvetica-Narrow /Helvetica-Narrow-Bold /Helvetica-Narrow-BoldOblique /Helvetica-Narrow-Oblique /NewCenturySchlbk-Roman /NewCenturySchlbk-Bold /NewCenturySchlbk-BoldItalic /NewCenturySchlbk-Italic /Palatino-Bold
 /Palatino-BoldItalic /Palatino-Italic /Palatino-Roman ] {ISOLatin1Encoding reEncode } forall
%%EndProlog
%%BeginSetup
%%EndSetup
newpath  gsave  .25 .25 scale  gsave  0 0 t 0.490196 0.545098 0.615686 c[  ] 0 sd 3 lw 0.941176 0.941176 0.941176 c 2268 1676 0 0 bf black 1 1 0.992157 c 1796 1140 245 201 bf black 1796 1140 245 201 bl 1 1 0.992157 c 1796 1140 245 201 bf black 1796
 1140 245 201 bl 245 201 m 1796 X s[ 4 8] 0 sd 245 1341 m -1140 Y s 604 1341 m -1140 Y s 963 1341 m -1140 Y s 1323 1341 m -1140 Y s 1682 1341 m -1140 Y s 2041 1341 m -1140 Y s 2041 1341 m -1140 Y s[  ] 0 sd 245 201 m 1140 Y s[ 4 8] 0 sd 2041 233 m
 -1796 X s 2041 371 m -1796 X s 2041 510 m -1796 X s 2041 648 m -1796 X s 2041 787 m -1796 X s 2041 925 m -1796 X s 2041 1064 m -1796 X s 2041 1202 m -1796 X s 2041 1341 m -1796 X s 2041 233 m -1796 X s 0 0 0.933333 c[  22 12 ] 0 sd 6 lw 0.49 0.6
 0.82 c black 0 0 0.933333 c 245 510 m 60 Y 9 X s 254 570 m 9 X s 263 570 m 85 Y 8 X s 271 655 m 9 X s 280 655 m 1 X 87 Y 8 X s 289 742 m 9 X s 298 742 m 1 X 72 Y 8 X s 307 814 m 8 X s 315 814 m 2 X 52 Y 7 X s 324 866 m 9 X s 333 866 m 2 X 38 Y 7 X s
 342 904 m 9 X s 351 904 m 2 X 27 Y 6 X s 359 931 m 9 X s 368 931 m 3 X 20 Y 6 X s 377 951 m 9 X s 386 951 m 3 X 17 Y 6 X s 395 968 m 8 X s 403 968 m 3 X 1 13 d 5 X s 412 981 m 9 X s 421 981 m 3 X 1 11 d 5 X s 430 992 m 9 X s 439 992 m 3 X 1 9 d 4 X
 s 447 1001 m 9 X s 456 1001 m 4 X 1 7 d 4 X s 465 1008 m 9 X s 474 1008 m 4 X 6 Y 5 X s 483 1014 m 8 X s 491 1014 m 5 X 5 Y 4 X s 500 1019 m 9 X s 509 1019 m 5 X 5 Y 4 X s 518 1024 m 9 X s 527 1024 m 5 X 5 Y 3 X s 535 1029 m 9 X s 544 1029 m 6 X 3 Y
 3 X s 553 1032 m 9 X s 562 1032 m 6 X 4 Y 3 X s 571 1036 m 8 X s 579 1036 m 7 X 2 Y 2 X s 588 1038 m 9 X s 597 1038 m 7 X 3 Y 2 X s 606 1041 m 9 X s 615 1041 m 7 X 2 Y 1 X s 623 1043 m 9 X s 632 1043 m 8 X 3 Y 1 X s 641 1046 m 9 X s 650 1046 m 8 X 1
 Y 1 X s 659 1047 m 8 X s 667 1047 m 9 X 2 Y s 676 1049 m 9 X s 685 1049 m 9 X s 694 1049 m 2 Y 9 X s 703 1051 m 8 X s 711 1051 m 1 X 1 Y 8 X s 720 1052 m 9 X s 729 1052 m 1 X 2 Y 8 X s 738 1054 m 9 X s 747 1054 m 1 X 1 Y 7 X s 755 1055 m 9 X s 764
 1055 m 2 X 1 Y 7 X s 773 1056 m 9 X s 782 1056 m 2 X 1 Y 7 X s 791 1057 m 8 X s 799 1057 m 3 X 1 Y 6 X s 808 1058 m 9 X s 817 1058 m 9 X s 826 1058 m 9 X s 835 1058 m 3 X 1 Y 5 X s 843 1059 m 9 X s 852 1059 m 9 X s 861 1059 m 9 X s 870 1059 m 9 X s
 879 1059 m 8 X s 887 1059 m 4 X 1 1 d 4 X s 896 1060 m 9 X s 905 1060 m 9 X s 914 1060 m 9 X s 923 1060 m 4 X 1 Y 4 X s 931 1061 m 9 X s 940 1061 m 9 X s 949 1061 m 9 X s 958 1061 m 9 X s 967 1061 m 8 X s 975 1061 m 9 X s 984 1061 m 9 X s 993 1061 m
 9 X s 1002 1061 m 9 X s 1011 1061 m 8 X s 1019 1061 m 9 X s 1028 1061 m 9 X s 1037 1061 m 9 X s 1046 1061 m 9 X s 1055 1061 m 8 X s 1063 1061 m 9 X s 1072 1061 m 9 X s 1081 1061 m 9 X s 1090 1061 m 9 X s 1099 1061 m 8 X -1 Y s 1107 1060 m 9 X s 1116
 1060 m 9 X s 1125 1060 m 9 X s 1134 1060 m 9 X s 1143 1060 m -1 Y 8 X s 1151 1059 m 9 X s 1160 1059 m 9 X s 1169 1059 m 9 X s 1178 1059 m 1 X -1 Y 8 X s 1187 1058 m 8 X s 1195 1058 m 9 X s 1204 1058 m 9 X s 1213 1058 m 9 X s 1222 1058 m 9 X s 1231
 1058 m 2 X -1 Y 6 X s 1239 1057 m 9 X s 1248 1057 m 9 X s 1257 1057 m 9 X s 1266 1057 m 3 X -1 Y 6 X s 1275 1056 m 8 X s 1283 1056 m 4 X -1 Y 5 X s 1292 1055 m 9 X s 1301 1055 m 9 X s 1310 1055 m 9 X s 1319 1055 m 3 X 1 -1 d 4 X s 1327 1054 m 9 X s
 1336 1054 m 4 X 1 -1 d 4 X s 1345 1053 m 9 X s 1354 1053 m 4 X 1 -1 d 4 X s 1363 1052 m 8 X s 1371 1052 m 5 X 1 -1 d 3 X s 1380 1051 m 9 X s 1389 1051 m 5 X -1 Y 4 X s 1398 1050 m 9 X s 1407 1050 m 5 X -1 Y 3 X s 1415 1049 m 9 X s 1424 1049 m 6 X -1
 Y 3 X s 1433 1048 m 9 X s 1442 1048 m 9 X s 1451 1048 m 8 X s 1459 1048 m 7 X -2 Y 2 X s 1468 1046 m 9 X s 1477 1046 m 7 X -1 Y 2 X s 1486 1045 m 9 X s 1495 1045 m 7 X -1 Y 1 X s 1503 1044 m 9 X s 1512 1044 m 8 X -1 Y 1 X s 1521 1043 m 9 X s 1530
 1043 m 8 X -2 Y 1 X s 1539 1041 m 8 X s 1547 1041 m 9 X -2 Y s 1556 1039 m 9 X s 1565 1039 m 9 X s 1574 1039 m -1 Y 9 X s 1583 1038 m 8 X s 1591 1038 m 1 X -2 Y 8 X s 1600 1036 m 9 X s 1609 1036 m 1 X -2 Y 8 X s 1618 1034 m 9 X s 1627 1034 m 1 X -2
 Y 7 X s 1635 1032 m 9 X s 1644 1032 m 2 X -3 Y 7 X s 1653 1029 m 9 X s 1662 1029 m 2 X -2 Y 7 X s 1671 1027 m 8 X s 1679 1027 m 3 X -4 Y 6 X s 1688 1023 m 9 X s 1697 1023 m 3 X -4 Y 6 X s 1706 1019 m 9 X s 1715 1019 m 3 X -5 Y 5 X s 1723 1014 m 9 X
 s 1732 1014 m 4 X -5 Y 5 X s 1741 1009 m 9 X s 1750 1009 m 3 X 1 -6 d 5 X s 1759 1003 m 8 X s 1767 1003 m 4 X 1 -8 d 4 X s 1776 995 m 9 X s 1785 995 m 4 X 1 -8 d 4 X s 1794 987 m 9 X s 1803 987 m 4 X 1 -11 d 4 X s 1812 976 m 8 X s 1820 976 m 5 X 1
 -13 d 3 X s 1829 963 m 9 X s 1838 963 m 5 X -18 Y 4 X s 1847 945 m 9 X s 1856 945 m 5 X -24 Y 3 X s 1864 921 m 9 X s 1873 921 m 6 X -28 Y 3 X s 1882 893 m 9 X s 1891 893 m 6 X -34 Y 3 X s 1900 859 m 8 X s 1908 859 m 7 X -41 Y 2 X s 1917 818 m 9 X s
 1926 818 m 7 X -45 Y 2 X s 1935 773 m 9 X s 1944 773 m 7 X -52 Y 1 X s 1952 721 m 9 X s 1961 721 m 8 X -56 Y 1 X s 1970 665 m 9 X s 1979 665 m 8 X -69 Y 1 X s 1988 596 m 8 X s 1996 596 m 9 X -111 Y s 2005 485 m 9 X s 2014 485 m 9 X s 2023 485 m -230
 Y 9 X s 2032 255 m 8 X s 2040 255 m 1 X s black[  ] 0 sd 3 lw 245 201 m 1796 X s 245 241 m -40 Y s 335 221 m -20 Y s 425 221 m -20 Y s 514 221 m -20 Y s 604 241 m -40 Y s 694 221 m -20 Y s 784 221 m -20 Y s 874 221 m -20 Y s 963 241 m -40 Y s 1053
 221 m -20 Y s 1143 221 m -20 Y s 1233 221 m -20 Y s 1323 241 m -40 Y s 1412 221 m -20 Y s 1502 221 m -20 Y s 1592 221 m -20 Y s 1682 241 m -40 Y s 1772 221 m -20 Y s 1861 221 m -20 Y s 1951 221 m -20 Y s 2041 241 m -40 Y s 2041 241 m -40 Y s
 gsave  2268 1676 0 0 C 223.738 128.934 t 0 r /Helvetica-Bold findfont 64.4669 sf 0 0 m (0) show NC gr 
 gsave  2268 1676 0 0 C 557.449 128.934 t 0 r /Helvetica-Bold findfont 64.4669 sf 0 0 m (0.2) show NC gr 
 gsave  2268 1676 0 0 C 917.705 128.934 t 0 r /Helvetica-Bold findfont 64.4669 sf 0 0 m (0.4) show NC gr 
 gsave  2268 1676 0 0 C 1274.17 128.934 t 0 r /Helvetica-Bold findfont 64.4669 sf 0 0 m (0.6) show NC gr 
 gsave  2268 1676 0 0 C 1634.42 128.934 t 0 r /Helvetica-Bold findfont 64.4669 sf 0 0 m (0.8) show NC gr 
 gsave  2268 1676 0 0 C 2025.02 128.934 t 0 r /Helvetica-Bold findfont 64.4669 sf 0 0 m (1) show NC gr 
 gsave  2268 1676 0 0 C 902.536 30.3373 t 0 r /Helvetica-Bold findfont 72.0512 sf 0 0 m (Cut value applied on KNN output) show NC gr  245 201 m 1140 Y s 291 233 m -46 X s 268 260 m -23 X s 268 288 m -23 X s 268 316 m -23 X s 268 344 m -23 X s 291 371
 m -46 X s 268 399 m -23 X s 268 427 m -23 X s 268 454 m -23 X s 268 482 m -23 X s 291 510 m -46 X s 268 538 m -23 X s 268 565 m -23 X s 268 593 m -23 X s 268 621 m -23 X s 291 648 m -46 X s 268 676 m -23 X s 268 704 m -23 X s 268 731 m -23 X s 268
 759 m -23 X s 291 787 m -46 X s 268 815 m -23 X s 268 842 m -23 X s 268 870 m -23 X s 268 898 m -23 X s 291 925 m -46 X s 268 953 m -23 X s 268 981 m -23 X s 268 1008 m -23 X s 268 1036 m -23 X s 291 1064 m -46 X s 268 1092 m -23 X s 268 1119 m -23
 X s 268 1147 m -23 X s 268 1175 m -23 X s 291 1202 m -46 X s 268 1230 m -23 X s 268 1258 m -23 X s 268 1286 m -23 X s 268 1313 m -23 X s 291 1341 m -46 X s 291 233 m -46 X s 268 205 m -23 X s
 gsave  2268 1676 0 0 C 128.934 208.569 t 0 r /Helvetica-Bold findfont 64.4669 sf 0 0 m (0.3) show NC gr 
 gsave  2268 1676 0 0 C 128.934 345.087 t 0 r /Helvetica-Bold findfont 64.4669 sf 0 0 m (0.4) show NC gr 
 gsave  2268 1676 0 0 C 128.934 485.398 t 0 r /Helvetica-Bold findfont 64.4669 sf 0 0 m (0.5) show NC gr 
 gsave  2268 1676 0 0 C 128.934 621.916 t 0 r /Helvetica-Bold findfont 64.4669 sf 0 0 m (0.6) show NC gr 
 gsave  2268 1676 0 0 C 128.934 762.226 t 0 r /Helvetica-Bold findfont 64.4669 sf 0 0 m (0.7) show NC gr 
 gsave  2268 1676 0 0 C 128.934 902.536 t 0 r /Helvetica-Bold findfont 64.4669 sf 0 0 m (0.8) show NC gr 
 gsave  2268 1676 0 0 C 128.934 1039.05 t 0 r /Helvetica-Bold findfont 64.4669 sf 0 0 m (0.9) show NC gr 
 gsave  2268 1676 0 0 C 189.608 1179.36 t 0 r /Helvetica-Bold findfont 64.4669 sf 0 0 m (1) show NC gr 
 gsave  2268 1676 0 0 C 136.518 1315.88 t 0 r /Helvetica-Bold findfont 64.4669 sf 0 0 m (1.1) show NC gr 
 gsave  2268 1676 0 0 C 64.4669 728.096 t 90 r /Helvetica-Bold findfont 72.0512 sf 0 0 m (Efficiency \(Purity\)) show NC gr  0 0 0.933333 c[  52 12 ] 0 sd 6 lw 0.49 0.6 0.82 c black 0 0 0.933333 c 245 510 m 61 Y 9 X s 254 571 m 9 X s 263 571 m 87 Y 8
 X s 271 658 m 9 X s 280 658 m 1 X 90 Y 8 X s 289 748 m 9 X s 298 748 m 1 X 77 Y 8 X s 307 825 m 8 X s 315 825 m 2 X 54 Y 7 X s 324 879 m 9 X s 333 879 m 2 X 41 Y 7 X s 342 920 m 9 X s 351 920 m 2 X 30 Y 6 X s 359 950 m 9 X s 368 950 m 3 X 22 Y 6 X s
 377 972 m 9 X s 386 972 m 3 X 20 Y 6 X s 395 992 m 8 X s 403 992 m 3 X 1 14 d 5 X s 412 1006 m 9 X s 421 1006 m 3 X 1 13 d 5 X s 430 1019 m 9 X s 439 1019 m 3 X 1 10 d 4 X s 447 1029 m 9 X s 456 1029 m 4 X 1 9 d 4 X s 465 1038 m 9 X s 474 1038 m 4 X
 8 Y 5 X s 483 1046 m 8 X s 491 1046 m 5 X 7 Y 4 X s 500 1053 m 9 X s 509 1053 m 5 X 6 Y 4 X s 518 1059 m 9 X s 527 1059 m 5 X 6 Y 3 X s 535 1065 m 9 X s 544 1065 m 6 X 5 Y 3 X s 553 1070 m 9 X s 562 1070 m 6 X 5 Y 3 X s 571 1075 m 8 X s 579 1075 m 7
 X 4 Y 2 X s 588 1079 m 9 X s 597 1079 m 7 X 4 Y 2 X s 606 1083 m 9 X s 615 1083 m 7 X 4 Y 1 X s 623 1087 m 9 X s 632 1087 m 8 X 3 Y 1 X s 641 1090 m 9 X s 650 1090 m 8 X 3 Y 1 X s 659 1093 m 8 X s 667 1093 m 9 X 3 Y s 676 1096 m 9 X s 685 1096 m 9 X
 s 694 1096 m 3 Y 9 X s 703 1099 m 8 X s 711 1099 m 1 X 3 Y 8 X s 720 1102 m 9 X s 729 1102 m 1 X 3 Y 8 X s 738 1105 m 9 X s 747 1105 m 1 X 2 Y 7 X s 755 1107 m 9 X s 764 1107 m 2 X 3 Y 7 X s 773 1110 m 9 X s 782 1110 m 2 X 2 Y 7 X s 791 1112 m 8 X s
 799 1112 m 3 X 2 Y 6 X s 808 1114 m 9 X s 817 1114 m 3 X 2 Y 6 X s 826 1116 m 9 X s 835 1116 m 3 X 1 Y 5 X s 843 1117 m 9 X s 852 1117 m 3 X 1 2 d 5 X s 861 1119 m 9 X s 870 1119 m 3 X 1 2 d 5 X s 879 1121 m 8 X s 887 1121 m 4 X 1 2 d 4 X s 896 1123
 m 9 X s 905 1123 m 4 X 1 1 d 4 X s 914 1124 m 9 X s 923 1124 m 4 X 2 Y 4 X s 931 1126 m 9 X s 940 1126 m 5 X 2 Y 4 X s 949 1128 m 9 X s 958 1128 m 5 X 1 Y 4 X s 967 1129 m 8 X s 975 1129 m 6 X 1 Y 3 X s 984 1130 m 9 X s 993 1130 m 6 X 1 Y 3 X s 1002
 1131 m 9 X s 1011 1131 m 6 X 2 Y 2 X s 1019 1133 m 9 X s 1028 1133 m 7 X 1 Y 2 X s 1037 1134 m 9 X s 1046 1134 m 7 X 1 Y 2 X s 1055 1135 m 8 X s 1063 1135 m 8 X 1 Y 1 X s 1072 1136 m 9 X s 1081 1136 m 8 X 1 Y 1 X s 1090 1137 m 9 X s 1099 1137 m 8 X
 1 Y s 1107 1138 m 9 X s 1116 1138 m 9 X 1 Y s 1125 1139 m 9 X s 1134 1139 m 9 X s 1143 1139 m 8 X s 1151 1139 m 9 X s 1160 1139 m 1 X 2 Y 8 X s 1169 1141 m 9 X s 1178 1141 m 9 X s 1187 1141 m 8 X s 1195 1141 m 2 X 1 Y 7 X s 1204 1142 m 9 X s 1213
 1142 m 2 X 1 Y 7 X s 1222 1143 m 9 X s 1231 1143 m 2 X 1 Y 6 X s 1239 1144 m 9 X s 1248 1144 m 9 X s 1257 1144 m 9 X s 1266 1144 m 3 X 1 Y 6 X s 1275 1145 m 8 X s 1283 1145 m 4 X 1 Y 5 X s 1292 1146 m 9 X s 1301 1146 m 3 X 1 1 d 5 X s 1310 1147 m 9
 X s 1319 1147 m 8 X s 1327 1147 m 9 X s 1336 1147 m 4 X 1 1 d 4 X s 1345 1148 m 9 X s 1354 1148 m 4 X 1 1 d 4 X s 1363 1149 m 8 X s 1371 1149 m 9 X s 1380 1149 m 9 X s 1389 1149 m 5 X 1 Y 4 X s 1398 1150 m 9 X s 1407 1150 m 8 X s 1415 1150 m 9 X s
 1424 1150 m 6 X 1 Y 3 X s 1433 1151 m 9 X s 1442 1151 m 6 X 1 Y 3 X s 1451 1152 m 8 X s 1459 1152 m 9 X s 1468 1152 m 9 X s 1477 1152 m 9 X s 1486 1152 m 9 X s 1495 1152 m 7 X 1 Y 1 X s 1503 1153 m 9 X s 1512 1153 m 8 X 1 Y 1 X s 1521 1154 m 9 X s
 1530 1154 m 9 X s 1539 1154 m 8 X s 1547 1154 m 9 X 1 Y s 1556 1155 m 9 X s 1565 1155 m 9 X s 1574 1155 m 9 X s 1583 1155 m 8 X s 1591 1155 m 1 X 1 Y 8 X s 1600 1156 m 9 X s 1609 1156 m 1 X 1 Y 8 X s 1618 1157 m 9 X s 1627 1157 m 8 X s 1635 1157 m 9
 X s 1644 1157 m 2 X 1 Y 7 X s 1653 1158 m 9 X s 1662 1158 m 2 X 1 Y 7 X s 1671 1159 m 8 X s 1679 1159 m 3 X 1 Y 6 X s 1688 1160 m 9 X s 1697 1160 m 3 X 1 Y 6 X s 1706 1161 m 9 X s 1715 1161 m 3 X 1 Y 5 X s 1723 1162 m 9 X s 1732 1162 m 9 X s 1741
 1162 m 9 X s 1750 1162 m 3 X 1 1 d 5 X s 1759 1163 m 8 X s 1767 1163 m 4 X 1 1 d 4 X s 1776 1164 m 9 X s 1785 1164 m 4 X 1 2 d 4 X s 1794 1166 m 9 X s 1803 1166 m 4 X 1 1 d 4 X s 1812 1167 m 8 X s 1820 1167 m 5 X 1 2 d 3 X s 1829 1169 m 9 X s 1838
 1169 m 5 X 2 Y 4 X s 1847 1171 m 9 X s 1856 1171 m 5 X 2 Y 3 X s 1864 1173 m 9 X s 1873 1173 m 6 X 2 Y 3 X s 1882 1175 m 9 X s 1891 1175 m 6 X 3 Y 3 X s 1900 1178 m 8 X s 1908 1178 m 7 X 2 Y 2 X s 1917 1180 m 9 X s 1926 1180 m 7 X 3 Y 2 X s 1935
 1183 m 9 X s 1944 1183 m 7 X 3 Y 1 X s 1952 1186 m 9 X s 1961 1186 m 8 X 3 Y 1 X s 1970 1189 m 9 X s 1979 1189 m 8 X 3 Y 1 X s 1988 1192 m 8 X s 1996 1192 m 9 X 2 Y s 2005 1194 m 9 X s 2014 1194 m 9 X s 2023 1194 m 1 Y 9 X s 2032 1195 m 8 X s 2040
 1195 m 1 X s[  ] 0 sd 9 lw 0.49 0.6 0.82 c black 0 0 0.933333 c 245 1202 m -2 Y 9 X s 254 1200 m 9 X s 263 1200 m -4 Y 8 X s 271 1196 m 9 X s 280 1196 m 1 X -4 Y 8 X s 289 1192 m 9 X s 298 1192 m 1 X -4 Y 8 X s 307 1188 m 8 X s 315 1188 m 2 X -3 Y 7
 X s 324 1185 m 9 X s 333 1185 m 2 X -3 Y 7 X s 342 1182 m 9 X s 351 1182 m 2 X -2 Y 6 X s 359 1180 m 9 X s 368 1180 m 3 X -2 Y 6 X s 377 1178 m 9 X s 386 1178 m 3 X -3 Y 6 X s 395 1175 m 8 X s 403 1175 m 3 X 1 -2 d 5 X s 412 1173 m 9 X s 421 1173 m
 3 X 1 -1 d 5 X s 430 1172 m 9 X s 439 1172 m 3 X 1 -2 d 4 X s 447 1170 m 9 X s 456 1170 m 4 X 1 -2 d 4 X s 465 1168 m 9 X s 474 1168 m 4 X -2 Y 5 X s 483 1166 m 8 X s 491 1166 m 5 X -1 Y 4 X s 500 1165 m 9 X s 509 1165 m 5 X -2 Y 4 X s 518 1163 m 9
 X s 527 1163 m 5 X -1 Y 3 X s 535 1162 m 9 X s 544 1162 m 6 X -1 Y 3 X s 553 1161 m 9 X s 562 1161 m 6 X -2 Y 3 X s 571 1159 m 8 X s 579 1159 m 7 X -1 Y 2 X s 588 1158 m 9 X s 597 1158 m 7 X -1 Y 2 X s 606 1157 m 9 X s 615 1157 m 7 X -2 Y 1 X s 623
 1155 m 9 X s 632 1155 m 8 X -1 Y 1 X s 641 1154 m 9 X s 650 1154 m 8 X -1 Y 1 X s 659 1153 m 8 X s 667 1153 m 9 X -2 Y s 676 1151 m 9 X s 685 1151 m 9 X s 694 1151 m -1 Y 9 X s 703 1150 m 8 X s 711 1150 m 1 X -1 Y 8 X s 720 1149 m 9 X s 729 1149 m 1
 X -2 Y 8 X s 738 1147 m 9 X s 747 1147 m 1 X -1 Y 7 X s 755 1146 m 9 X s 764 1146 m 2 X -1 Y 7 X s 773 1145 m 9 X s 782 1145 m 2 X -1 Y 7 X s 791 1144 m 8 X s 799 1144 m 3 X -2 Y 6 X s 808 1142 m 9 X s 817 1142 m 3 X -1 Y 6 X s 826 1141 m 9 X s 835
 1141 m 3 X -1 Y 5 X s 843 1140 m 9 X s 852 1140 m 3 X 1 -1 d 5 X s 861 1139 m 9 X s 870 1139 m 3 X 1 -2 d 5 X s 879 1137 m 8 X s 887 1137 m 4 X 1 -1 d 4 X s 896 1136 m 9 X s 905 1136 m 4 X 1 -1 d 4 X s 914 1135 m 9 X s 923 1135 m 4 X -1 Y 4 X s 931
 1134 m 9 X s 940 1134 m 5 X -2 Y 4 X s 949 1132 m 9 X s 958 1132 m 5 X -1 Y 4 X s 967 1131 m 8 X s 975 1131 m 6 X -1 Y 3 X s 984 1130 m 9 X s 993 1130 m 6 X -1 Y 3 X s 1002 1129 m 9 X s 1011 1129 m 6 X -2 Y 2 X s 1019 1127 m 9 X s 1028 1127 m 7 X -1
 Y 2 X s 1037 1126 m 9 X s 1046 1126 m 7 X -1 Y 2 X s 1055 1125 m 8 X s 1063 1125 m 8 X -1 Y 1 X s 1072 1124 m 9 X s 1081 1124 m 8 X -1 Y 1 X s 1090 1123 m 9 X s 1099 1123 m 8 X -2 Y s 1107 1121 m 9 X s 1116 1121 m 9 X -1 Y s 1125 1120 m 9 X s 1134
 1120 m 9 X s 1143 1120 m -2 Y 8 X s 1151 1118 m 9 X s 1160 1118 m 1 X -1 Y 8 X s 1169 1117 m 9 X s 1178 1117 m 1 X -1 Y 8 X s 1187 1116 m 8 X s 1195 1116 m 2 X -2 Y 7 X s 1204 1114 m 9 X s 1213 1114 m 2 X -1 Y 7 X s 1222 1113 m 9 X s 1231 1113 m 2 X
 -1 Y 6 X s 1239 1112 m 9 X s 1248 1112 m 3 X -1 Y 6 X s 1257 1111 m 9 X s 1266 1111 m 3 X -1 Y 6 X s 1275 1110 m 8 X s 1283 1110 m 4 X -2 Y 5 X s 1292 1108 m 9 X s 1301 1108 m 3 X 1 -1 d 5 X s 1310 1107 m 9 X s 1319 1107 m 3 X 1 -1 d 4 X s 1327 1106
 m 9 X s 1336 1106 m 4 X 1 -2 d 4 X s 1345 1104 m 9 X s 1354 1104 m 4 X 1 -2 d 4 X s 1363 1102 m 8 X s 1371 1102 m 5 X 1 -1 d 3 X s 1380 1101 m 9 X s 1389 1101 m 5 X -2 Y 4 X s 1398 1099 m 9 X s 1407 1099 m 5 X -2 Y 3 X s 1415 1097 m 9 X s 1424 1097
 m 6 X -1 Y 3 X s 1433 1096 m 9 X s 1442 1096 m 6 X -2 Y 3 X s 1451 1094 m 8 X s 1459 1094 m 7 X -1 Y 2 X s 1468 1093 m 9 X s 1477 1093 m 7 X -2 Y 2 X s 1486 1091 m 9 X s 1495 1091 m 7 X -2 Y 1 X s 1503 1089 m 9 X s 1512 1089 m 8 X -2 Y 1 X s 1521
 1087 m 9 X s 1530 1087 m 8 X -2 Y 1 X s 1539 1085 m 8 X s 1547 1085 m 9 X -2 Y s 1556 1083 m 9 X s 1565 1083 m 9 X s 1574 1083 m -2 Y 9 X s 1583 1081 m 8 X s 1591 1081 m 1 X -3 Y 8 X s 1600 1078 m 9 X s 1609 1078 m 1 X -2 Y 8 X s 1618 1076 m 9 X s
 1627 1076 m 1 X -4 Y 7 X s 1635 1072 m 9 X s 1644 1072 m 2 X -3 Y 7 X s 1653 1069 m 9 X s 1662 1069 m 2 X -3 Y 7 X s 1671 1066 m 8 X s 1679 1066 m 3 X -5 Y 6 X s 1688 1061 m 9 X s 1697 1061 m 3 X -5 Y 6 X s 1706 1056 m 9 X s 1715 1056 m 3 X -5 Y 5 X
 s 1723 1051 m 9 X s 1732 1051 m 4 X -7 Y 5 X s 1741 1044 m 9 X s 1750 1044 m 3 X 1 -7 d 5 X s 1759 1037 m 8 X s 1767 1037 m 4 X 1 -8 d 4 X s 1776 1029 m 9 X s 1785 1029 m 4 X 1 -10 d 4 X s 1794 1019 m 9 X s 1803 1019 m 4 X 1 -12 d 4 X s 1812 1007 m
 8 X s 1820 1007 m 5 X 1 -15 d 3 X s 1829 992 m 9 X s 1838 992 m 5 X -20 Y 4 X s 1847 972 m 9 X s 1856 972 m 5 X -27 Y 3 X s 1864 945 m 9 X s 1873 945 m 6 X -31 Y 3 X s 1882 914 m 9 X s 1891 914 m 6 X -36 Y 3 X s 1900 878 m 8 X s 1908 878 m 7 X -43 Y
 2 X s 1917 835 m 9 X s 1926 835 m 7 X -49 Y 2 X s 1935 786 m 9 X s 1944 786 m 7 X -55 Y 1 X s 1952 731 m 9 X s 1961 731 m 8 X -57 Y 1 X s 1970 674 m 9 X s 1979 674 m 8 X -72 Y 1 X s 1988 602 m 8 X s 1996 602 m 9 X -113 Y s 2005 489 m 9 X s 2014 489
 m 9 X s 2023 489 m -231 Y 9 X s 2032 258 m 8 X s 2040 258 m 1 X s 1 0 0 c black 1 0 0 c 245 1202 m -227 Y 9 X s 254 975 m 9 X s 263 975 m -266 Y 8 X s 271 709 m 9 X s 280 709 m 1 X -221 Y 8 X s 289 488 m 9 X s 298 488 m 1 X -157 Y 8 X s 307 331 m 8
 X s 315 331 m 2 X -97 Y 7 X s 324 234 m 9 X s 333 234 m 2 X -33 Y s 0 0.666667 0 c 1 1 1 c black 0 0.666667 0 c 245 851 m 44 Y 9 X s 254 895 m 9 X s 263 895 m 59 Y 8 X s 271 954 m 9 X s 280 954 m 1 X 57 Y 8 X s 289 1011 m 9 X s 298 1011 m 1 X 46 Y 8
 X s 307 1057 m 8 X s 315 1057 m 2 X 32 Y 7 X s 324 1089 m 9 X s 333 1089 m 2 X 23 Y 7 X s 342 1112 m 9 X s 351 1112 m 2 X 16 Y 6 X s 359 1128 m 9 X s 368 1128 m 3 X 12 Y 6 X s 377 1140 m 9 X s 386 1140 m 3 X 10 Y 6 X s 395 1150 m 8 X s 403 1150 m 3
 X 1 7 d 5 X s 412 1157 m 9 X s 421 1157 m 3 X 1 6 d 5 X s 430 1163 m 9 X s 439 1163 m 3 X 1 5 d 4 X s 447 1168 m 9 X s 456 1168 m 4 X 1 4 d 4 X s 465 1172 m 9 X s 474 1172 m 4 X 4 Y 5 X s 483 1176 m 8 X s 491 1176 m 5 X 3 Y 4 X s 500 1179 m 9 X s
 509 1179 m 5 X 2 Y 4 X s 518 1181 m 9 X s 527 1181 m 5 X 3 Y 3 X s 535 1184 m 9 X s 544 1184 m 6 X 2 Y 3 X s 553 1186 m 9 X s 562 1186 m 6 X 2 Y 3 X s 571 1188 m 8 X s 579 1188 m 7 X 1 Y 2 X s 588 1189 m 9 X s 597 1189 m 7 X 2 Y 2 X s 606 1191 m 9 X
 s 615 1191 m 7 X 1 Y 1 X s 623 1192 m 9 X s 632 1192 m 8 X 2 Y 1 X s 641 1194 m 9 X s 650 1194 m 8 X 1 Y 1 X s 659 1195 m 8 X s 667 1195 m 9 X s 676 1195 m 9 X s 685 1195 m 9 X s 694 1195 m 1 Y 9 X s 703 1196 m 8 X s 711 1196 m 1 X 1 Y 8 X s 720
 1197 m 9 X s 729 1197 m 1 X 1 Y 8 X s 738 1198 m 9 X s 747 1198 m 1 X 1 Y 7 X s 755 1199 m 9 X s 764 1199 m 9 X s 773 1199 m 9 X s 782 1199 m 2 X 1 Y 7 X s 791 1200 m 8 X s 799 1200 m 3 X 1 Y 6 X s 808 1201 m 9 X s 817 1201 m 9 X s 826 1201 m 9 X s
 835 1201 m 8 X s 843 1201 m 9 X s 852 1201 m 9 X s 861 1201 m 9 X s 870 1201 m 9 X s 879 1201 m 8 X s 887 1201 m 9 X s 896 1201 m 9 X s 905 1201 m 4 X 1 1 d 4 X s 914 1202 m 9 X s 923 1202 m 8 X s 931 1202 m 9 X s 940 1202 m 9 X s 949 1202 m 9 X s
 958 1202 m 9 X s 967 1202 m 8 X s 975 1202 m 9 X s 984 1202 m 9 X s 993 1202 m 9 X s 1002 1202 m 9 X s 1011 1202 m 8 X s 1019 1202 m 9 X s 1028 1202 m 9 X s 1037 1202 m 9 X s 1046 1202 m 9 X s 1055 1202 m 8 X s 1063 1202 m 9 X s 1072 1202 m 9 X s
 1081 1202 m 9 X s 1090 1202 m 9 X s 1099 1202 m 8 X s 1107 1202 m 9 X s 1116 1202 m 9 X -1 Y s 1125 1201 m 9 X s 1134 1201 m 9 X s 1143 1201 m 8 X s 1151 1201 m 9 X s 1160 1201 m 9 X s 1169 1201 m 9 X s 1178 1201 m 9 X s 1187 1201 m 8 X s 1195 1201
 m 9 X s 1204 1201 m 9 X s 1213 1201 m 2 X -1 Y 7 X s 1222 1200 m 9 X s 1231 1200 m 8 X s 1239 1200 m 9 X s 1248 1200 m 9 X s 1257 1200 m 9 X s 1266 1200 m 3 X -1 Y 6 X s 1275 1199 m 8 X s 1283 1199 m 9 X s 1292 1199 m 9 X s 1301 1199 m 9 X s 1310
 1199 m 9 X s 1319 1199 m 3 X 1 -1 d 4 X s 1327 1198 m 9 X s 1336 1198 m 9 X s 1345 1198 m 9 X s 1354 1198 m 4 X 1 -1 d 4 X s 1363 1197 m 8 X s 1371 1197 m 9 X s 1380 1197 m 9 X s 1389 1197 m 5 X -1 Y 4 X s 1398 1196 m 9 X s 1407 1196 m 8 X s 1415
 1196 m 9 X s 1424 1196 m 6 X -1 Y 3 X s 1433 1195 m 9 X s 1442 1195 m 9 X s 1451 1195 m 8 X s 1459 1195 m 7 X -1 Y 2 X s 1468 1194 m 9 X s 1477 1194 m 7 X -1 Y 2 X s 1486 1193 m 9 X s 1495 1193 m 8 X s 1503 1193 m 9 X s 1512 1193 m 8 X -1 Y 1 X s
 1521 1192 m 9 X s 1530 1192 m 8 X -1 Y 1 X s 1539 1191 m 8 X s 1547 1191 m 9 X -1 Y s 1556 1190 m 9 X s 1565 1190 m 9 X s 1574 1190 m -1 Y 9 X s 1583 1189 m 8 X s 1591 1189 m 1 X -1 Y 8 X s 1600 1188 m 9 X s 1609 1188 m 1 X -1 Y 8 X s 1618 1187 m 9
 X s 1627 1187 m 1 X -1 Y 7 X s 1635 1186 m 9 X s 1644 1186 m 2 X -2 Y 7 X s 1653 1184 m 9 X s 1662 1184 m 2 X -1 Y 7 X s 1671 1183 m 8 X s 1679 1183 m 3 X -2 Y 6 X s 1688 1181 m 9 X s 1697 1181 m 3 X -3 Y 6 X s 1706 1178 m 9 X s 1715 1178 m 3 X -2 Y
 5 X s 1723 1176 m 9 X s 1732 1176 m 4 X -3 Y 5 X s 1741 1173 m 9 X s 1750 1173 m 3 X 1 -4 d 5 X s 1759 1169 m 8 X s 1767 1169 m 4 X 1 -4 d 4 X s 1776 1165 m 9 X s 1785 1165 m 4 X 1 -5 d 4 X s 1794 1160 m 9 X s 1803 1160 m 4 X 1 -6 d 4 X s 1812 1154
 m 8 X s 1820 1154 m 5 X 1 -8 d 3 X s 1829 1146 m 9 X s 1838 1146 m 5 X -10 Y 4 X s 1847 1136 m 9 X s 1856 1136 m 5 X -14 Y 3 X s 1864 1122 m 9 X s 1873 1122 m 6 X -17 Y 3 X s 1882 1105 m 9 X s 1891 1105 m 6 X -20 Y 3 X s 1900 1085 m 8 X s 1908 1085
 m 7 X -25 Y 2 X s 1917 1060 m 9 X s 1926 1060 m 7 X -29 Y 2 X s 1935 1031 m 9 X s 1944 1031 m 7 X -34 Y 1 X s 1952 997 m 9 X s 1961 997 m 8 X -36 Y 1 X s 1970 961 m 9 X s 1979 961 m 8 X -48 Y 1 X s 1988 913 m 8 X s 1996 913 m 9 X -81 Y s 2005 832 m
 9 X s 2014 832 m 9 X s 2023 832 m -193 Y 9 X s 2032 639 m 8 X s 2040 639 m 1 X s black 3 lw 245 201 m 1796 X s 245 241 m -40 Y s 335 221 m -20 Y s 425 221 m -20 Y s 514 221 m -20 Y s 604 241 m -40 Y s 694 221 m -20 Y s 784 221 m -20 Y s 874 221 m
 -20 Y s 963 241 m -40 Y s 1053 221 m -20 Y s 1143 221 m -20 Y s 1233 221 m -20 Y s 1323 241 m -40 Y s 1412 221 m -20 Y s 1502 221 m -20 Y s 1592 221 m -20 Y s 1682 241 m -40 Y s 1772 221 m -20 Y s 1861 221 m -20 Y s 1951 221 m -20 Y s 2041 241 m -40
 Y s 2041 241 m -40 Y s 245 201 m 1140 Y s 291 233 m -46 X s 268 260 m -23 X s 268 288 m -23 X s 268 316 m -23 X s 268 344 m -23 X s 291 371 m -46 X s 268 399 m -23 X s 268 427 m -23 X s 268 454 m -23 X s 268 482 m -23 X s 291 510 m -46 X s 268 538 m
 -23 X s 268 565 m -23 X s 268 593 m -23 X s 268 621 m -23 X s 291 648 m -46 X s 268 676 m -23 X s 268 704 m -23 X s 268 731 m -23 X s 268 759 m -23 X s 291 787 m -46 X s 268 815 m -23 X s 268 842 m -23 X s 268 870 m -23 X s 268 898 m -23 X s 291 925
 m -46 X s 268 953 m -23 X s 268 981 m -23 X s 268 1008 m -23 X s 268 1036 m -23 X s 291 1064 m -46 X s 268 1092 m -23 X s 268 1119 m -23 X s 268 1147 m -23 X s 268 1175 m -23 X s 291 1202 m -46 X s 268 1230 m -23 X s 268 1258 m -23 X s 268 1286 m
 -23 X s 268 1313 m -23 X s 291 1341 m -46 X s 291 233 m -46 X s 268 205 m -23 X s 0.490196 0.545098 0.615686 c 1 1 1 c 0.490196 0.545098 0.615686 c 907 201 245 1341 bl 245 1341 m 907 X s 1152 1341 m 201 Y s 1152 1542 m -907 X s 245 1542 m -201 Y s
 black
 gsave  2268 1676 0 0 C 515.735 1471.36 t 0 r /Helvetica-Bold findfont 53.0904 sf 0 0 m (Signal efficiency) show NC gr  0 0 0.933333 c 9 lw 286 1492 m 190 X s black
 gsave  2268 1676 0 0 C 515.735 1368.97 t 0 r /Helvetica-Bold findfont 53.0904 sf 0 0 m (Background efficiency) show NC gr  1 0 0 c 286 1391 m 190 X s 0.490196 0.545098 0.615686 c 3 lw 1 1 1 c 0.490196 0.545098 0.615686 c 889 201 1152 1341 bl 1152
 1341 m 889 X s 2041 1341 m 201 Y s 2041 1542 m -889 X s 1152 1542 m -201 Y s black
 gsave  2268 1676 0 0 C 1418.27 1494.11 t 0 r /Helvetica-Bold findfont 56.8825 sf 0 0 m (Signal purity) show NC gr  0 0 0.933333 c[  52 12 ] 0 sd 6 lw 1192 1509 m 187 X s black
 gsave  2268 1676 0 0 C 1418.27 1429.65 t 0 r /Helvetica-Bold findfont 56.8825 sf 0 0 m (Signal efficiency*purity) show NC gr  0 0 0.933333 c[  22 12 ] 0 sd 1192 1441 m 187 X s black
 gsave  2268 1676 0 0 C 1501.7 1361.39 t 0 r /Helvetica-Bold findfont 56.8825 sf 0 0 m (S+B) show NC gr [  ] 0 sd 1479 1407 m 11 -49 d s 3 lw 1490 1358 m 8 64 d s 1498 1422 m 114 X s
 gsave  2268 1676 0 0 C 1418.27 1361.39 t 0 r /Helvetica-Bold findfont 56.8825 sf 0 0 m (S/) show NC gr  0 0.666667 0 c 9 lw 1192 1374 m 187 X s black 3 lw 245 1202 m 1796 X s
 gsave  2268 1676 0 0 C 337.503 386.801 t 0 r /Helvetica-Bold findfont 53.0904 sf 0 0 m (For 1000 signal and 1000 background) show NC gr 
 gsave  2268 1676 0 0 C 1065.6 318.542 t 0 r /Helvetica-Bold findfont 53.0904 sf 0 0 m ( is) show NC gr 
 gsave  2268 1676 0 0 C 963.211 318.542 t 0 r /Helvetica-Bold findfont 53.0904 sf 0 0 m (S+B) show NC gr  6 lw 940 360 m 8 -45 d s 3 lw 948 315 m 8 60 d s 956 375 m 110 X s
 gsave  2268 1676 0 0 C 337.503 318.542 t 0 r /Helvetica-Bold findfont 53.0904 sf 0 0 m (events the maximum S/) show NC gr 
 gsave  2268 1676 0 0 C 337.503 254.075 t 0 r /Helvetica-Bold findfont 53.0904 sf 0 0 m (29.97 when cutting at  0.41) show NC gr  0.490196 0.545098 0.615686 c 0.364706 0.419608 0.490196 c 1486 96 23 1572 bf 0.490196 0.545098 0.615686 c 23 1572 m 1486
 X s 1509 1572 m 96 Y s 1509 1668 m -1486 X s 23 1668 m -96 Y s 1 1 1 c black 1 1 1 c
 gsave  2268 1676 0 0 C 75.8434 1600.29 t 0 r /Helvetica-Bold findfont 75.8434 sf 0 0 m (Cut efficiencies and optimal cut value) show NC gr  0 0.666667 0 c 2041 201 m 1140 Y s 1995 201 m 46 X s 2018 236 m 23 X s 2018 270 m 23 X s 2018 305 m 23 X s
 2018 339 m 23 X s 1995 374 m 46 X s 2018 409 m 23 X s 2018 443 m 23 X s 2018 478 m 23 X s 2018 512 m 23 X s 1995 547 m 46 X s 2018 581 m 23 X s 2018 616 m 23 X s 2018 651 m 23 X s 2018 685 m 23 X s 1995 720 m 46 X s 2018 754 m 23 X s 2018 789 m 23 X
 s 2018 823 m 23 X s 2018 858 m 23 X s 1995 893 m 46 X s 2018 927 m 23 X s 2018 962 m 23 X s 2018 996 m 23 X s 2018 1031 m 23 X s 1995 1065 m 46 X s 2018 1100 m 23 X s 2018 1135 m 23 X s 2018 1169 m 23 X s 2018 1204 m 23 X s 1995 1238 m 46 X s 1995
 1238 m 46 X s 2018 1273 m 23 X s 2018 1307 m 23 X s black 0 0.666667 0 c
 gsave  2268 1676 0 0 C 2051.56 178.232 t 0 r /Helvetica-Bold findfont 64.4669 sf 0 0 m (0) show NC gr  black 0 0.666667 0 c
 gsave  2268 1676 0 0 C 2051.56 348.879 t 0 r /Helvetica-Bold findfont 64.4669 sf 0 0 m (5) show NC gr  black 0 0.666667 0 c
 gsave  2268 1676 0 0 C 2051.56 523.319 t 0 r /Helvetica-Bold findfont 64.4669 sf 0 0 m (10) show NC gr  black 0 0.666667 0 c
 gsave  2268 1676 0 0 C 2051.56 693.967 t 0 r /Helvetica-Bold findfont 64.4669 sf 0 0 m (15) show NC gr  black 0 0.666667 0 c
 gsave  2268 1676 0 0 C 2051.56 868.406 t 0 r /Helvetica-Bold findfont 64.4669 sf 0 0 m (20) show NC gr  black 0 0.666667 0 c
 gsave  2268 1676 0 0 C 2051.56 1039.05 t 0 r /Helvetica-Bold findfont 64.4669 sf 0 0 m (25) show NC gr  black 0 0.666667 0 c
 gsave  2268 1676 0 0 C 2051.56 1213.49 t 0 r /Helvetica-Bold findfont 64.4669 sf 0 0 m (30) show NC gr  black 0 0.666667 0 c
 gsave  2268 1676 0 0 C 2203.25 959.419 t 90 r /Helvetica-Bold findfont 64.4669 sf 0 0 m (Significance) show NC gr 
 gr  gr showpage
end
%%EOF
