%!PS-Adobe-2.0 EPSF-2.0
%%BoundingBox:  0 0 567 415
%%Title: dataset/plots/rejBvsS.eps: the canvas
%%Creator: ROOT Version 6.18/00
%%CreationDate: Mon Sep  9 20:42:39 2019
%%DocumentNeededResources: ProcSet (FontSetInit)
%%EndComments
%%BeginProlog
80 dict begin
/s {stroke} def /l {lineto} def /m {moveto} def /t {translate} def
/r {rotate} def /rl {roll}  def /R {repeat} def
/d {rlineto} def /rm {rmoveto} def /gr {grestore} def /f {eofill} def
/c {setrgbcolor} def /black {0 setgray} def /sd {setdash} def
/cl {closepath} def /sf {scalefont setfont} def /lw {setlinewidth} def
/box {m dup 0 exch d exch 0 d 0 exch neg d cl} def
/NC{systemdict begin initclip end}def/C{NC box clip newpath}def
/bl {box s} def /bf {gsave box gsave f grestore 1 lw [] 0 sd s grestore} def /Y { 0 exch d} def /X { 0 d} def 
/K {{pop pop 0 moveto} exch kshow} bind def
/ita {/ang 15 def gsave [1 0 ang dup sin exch cos div 1 0 0] concat} def 
/mp {newpath /y exch def /x exch def} def
/side {[w .77 mul w .23 mul] .385 w mul sd w 0 l currentpoint t -144 r} def
/mr {mp x y w2 0 360 arc} def /m24 {mr s} def /m20 {mr f} def
/mb {mp x y w2 add m w2 neg 0 d 0 w neg d w 0 d 0 w d cl} def
/mt {mp x y w2 add m w2 neg w neg d w 0 d cl} def
/w4 {w 4 div} def
/w6 {w 6 div} def
/w8 {w 8 div} def
/m21 {mb f} def /m25 {mb s} def /m22 {mt f} def /m26{mt s} def
/m23 {mp x y w2 sub m w2 w d w neg 0 d cl f} def
/m27 {mp x y w2 add m w3 neg w2 neg d w3 w2 neg d w3 w2 d cl s} def
/m28 {mp x w2 sub y w2 sub w3 add m w3 0 d  0 w3 neg d w3 0 d 0 w3 d w3 0 d  0 w3 d w3 neg 0 d 0 w3 d w3 neg 0 d 0 w3 neg d w3 neg 0 d cl s } def
/m29 {mp gsave x w2 sub y w2 add w3 sub m currentpoint t 4 {side} repeat cl fill gr} def
/m30 {mp gsave x w2 sub y w2 add w3 sub m currentpoint t 4 {side} repeat cl s gr} def
/m31 {mp x y w2 sub m 0 w d x w2 sub y m w 0 d x w2 sub y w2 add m w w neg d x w2 sub y w2 sub m w w d s} def
/m32 {mp x y w2 sub m w2 w d w neg 0 d cl s} def
/m33 {mp x y w2 add m w3 neg w2 neg d w3 w2 neg d w3 w2 d cl f} def
/m34 {mp x w2 sub y w2 sub w3 add m w3 0 d  0 w3 neg d w3 0 d 0 w3 d w3 0 d  0 w3 d w3 neg 0 d 0 w3 d w3 neg 0 d 0 w3 neg d w3 neg 0 d cl f } def
/m35 {mp x y w2 add m w2 neg w2 neg d w2 w2 neg d w2 w2 d w2 neg w2 d x y w2 sub m 0 w d x w2 sub y m w 0 d s} def
/m36 {mb x w2 sub y w2 add m w w neg d x w2 sub y w2 sub m w w d s} def
/m37 {mp x y m w4 neg w2 d w4 neg w2 neg d w2 0 d  w4 neg w2 neg d w2 0 d w4 neg w2 d w2 0 d w4 neg w2 d w4 neg w2 neg d cl s} def
/m38 {mp x w4 sub y w2 add m w4 neg w4 neg d 0 w2 neg d w4 w4 neg d w2 0 d w4 w4 d 0 w2 d w4 neg w4 d w2 neg 0 d x y w2 sub m 0 w d x w2 sub y m w 0 d cl s} def
/m39 {mp x y m w4 neg w2 d w4 neg w2 neg d w2 0 d  w4 neg w2 neg d w2 0 d w4 neg w2 d w2 0 d w4 neg w2 d w4 neg w2 neg d cl f} def
/m40 {mp x y m w4 w2 d w4 w4 neg d w2 neg w4 neg d w2 w4 neg d w4 neg w4 neg d w4 neg w2 d w4 neg w2 neg d w4 neg w4 d w2 w4 d w2 neg w4 d w4 w4 d w4 w2 neg d cl s} def
/m41 {mp x y m w4 w2 d w4 w4 neg d w2 neg w4 neg d w2 w4 neg d w4 neg w4 neg d w4 neg w2 d w4 neg w2 neg d w4 neg w4 d w2 w4 d w2 neg w4 d w4 w4 d w4 w2 neg d cl f} def
/m42 {mp x y w2 add m w8 neg w2 -3 4 div mul d w2 -3 4 div mul w8 neg d w2 3 4 div mul w8 neg d w8 w2 -3 4 div mul d w8 w2 3 4 div mul d w2 3 4 div mul w8 d w2 -3 4 div mul w8 d w8 neg w2 3 4 div mul d cl s} def
/m43 {mp x y w2 add m w8 neg w2 -3 4 div mul d w2 -3 4 div mul w8 neg d w2 3 4 div mul w8 neg d w8 w2 -3 4 div mul d w8 w2 3 4 div mul d w2 3 4 div mul w8 d w2 -3 4 div mul w8 d w8 neg w2 3 4 div mul d cl f} def
/m44 {mp x y m w6 neg w2 d w2 2 3 div mul 0 d w6 neg w2 neg d w2 w6 d 0 w2 -2 3 div mul d w2 neg w6 d w6 w2 neg d w2 -2 3 div mul 0 d w6 w2 d w2 neg w6 neg d 0 w2 2 3 div mul d w2 w6 neg d cl s} def
/m45 {mp x y m w6 neg w2 d w2 2 3 div mul 0 d w6 neg w2 neg d w2 w6 d 0 w2 -2 3 div mul d w2 neg w6 d w6 w2 neg d w2 -2 3 div mul 0 d w6 w2 d w2 neg w6 neg d 0 w2 2 3 div mul d w2 w6 neg d cl f} def
/m46 {mp x y w4 add m w4 neg w4 d w4 neg w4 neg d  w4 w4 neg d w4 neg w4 neg d w4 w4 neg d w4 w4 d w4 w4 neg d w4 w4 d w4 neg w4 d w4 w4 d w4 neg w4 d w4 neg w4 neg d cl s} def
/m47 {mp x y w4 add m w4 neg w4 d w4 neg w4 neg d w4 w4 neg d w4 neg w4 neg d  w4 w4 neg d w4 w4 d w4 w4 neg d w4 w4 d w4 neg w4 d w4 w4 d w4 neg w4 d w4 neg w4 neg d cl f} def
/m48 {mp x y w4 add m w4 neg w4 d w4 neg w4 neg d w4 w4 neg d  w4 neg w4 neg d w4 w4 neg d w4 w4 d w4 w4 neg d w4 w4 d w4 neg w4 d w4 w4 d w4 neg w4 d w4 neg w4 neg d  w4 w4 neg d w4 neg w4 neg d w4 neg w4 d w4 w4 d cl f} def
/m49 {mp x w2 sub w3 add y w2 sub w3 add m  0 w3 neg d w3 0 d 0 w3 d w3 0 d 0 w3 d w3 neg 0 d 0 w3 d w3 neg 0 d 0 w3 neg d w3 neg 0 d 0 w3 neg d w3 0 d 0 w3 d w3 0 d 0 w3 neg d w3 neg 0 d cl f } def
/m2 {mp x y w2 sub m 0 w d x w2 sub y m w 0 d s} def
/m5 {mp x w2 sub y w2 sub m w w d x w2 sub y w2 add m w w neg d s} def
%%IncludeResource: ProcSet (FontSetInit)
%%IncludeResource: font Times-Roman
%%IncludeResource: font Times-Italic
%%IncludeResource: font Times-Bold
%%IncludeResource: font Times-BoldItalic
%%IncludeResource: font Helvetica
%%IncludeResource: font Helvetica-Oblique
%%IncludeResource: font Helvetica-Bold
%%IncludeResource: font Helvetica-BoldOblique
%%IncludeResource: font Courier
%%IncludeResource: font Courier-Oblique
%%IncludeResource: font Courier-Bold
%%IncludeResource: font Courier-BoldOblique
%%IncludeResource: font Symbol
%%IncludeResource: font ZapfDingbats
/reEncode {exch findfont dup length dict begin {1 index /FID eq  {pop pop} {def} ifelse } forall /Encoding exch def currentdict end dup /FontName get exch definefont pop } def [/Times-Bold /Times-Italic /Times-BoldItalic /Helvetica /Helvetica-Oblique
 /Helvetica-Bold /Helvetica-BoldOblique /Courier /Courier-Oblique /Courier-Bold /Courier-BoldOblique /Times-Roman /AvantGarde-Book /AvantGarde-BookOblique /AvantGarde-Demi /AvantGarde-DemiOblique /Bookman-Demi /Bookman-DemiItalic /Bookman-Light
 /Bookman-LightItalic /Helvetica-Narrow /Helvetica-Narrow-Bold /Helvetica-Narrow-BoldOblique /Helvetica-Narrow-Oblique /NewCenturySchlbk-Roman /NewCenturySchlbk-Bold /NewCenturySchlbk-BoldItalic /NewCenturySchlbk-Italic /Palatino-Bold
 /Palatino-BoldItalic /Palatino-Italic /Palatino-Roman ] {ISOLatin1Encoding reEncode } forall
%%EndProlog
%%BeginSetup
%%EndSetup
newpath  gsave  .25 .25 scale  gsave  0 0 t 0.490196 0.545098 0.615686 c[  ] 0 sd 3 lw 0.941176 0.941176 0.941176 c 2268 1659 0 0 bf black 1 1 0.992157 c 1909 1294 245 199 bf black 1909 1294 245 199 bl 1 1 0.992157 c 1909 1294 245 199 bf black 1909
 1294 245 199 bl 245 199 m 1909 X s 245 241 m -42 Y s[ 4 8] 0 sd 245 1493 m -1294 Y s[  ] 0 sd 283 220 m -21 Y s 321 220 m -21 Y s 359 220 m -21 Y s 398 220 m -21 Y s 436 241 m -42 Y s[ 4 8] 0 sd 436 1493 m -1294 Y s[  ] 0 sd 474 220 m -21 Y s 512
 220 m -21 Y s 550 220 m -21 Y s 589 220 m -21 Y s 627 241 m -42 Y s[ 4 8] 0 sd 627 1493 m -1294 Y s[  ] 0 sd 665 220 m -21 Y s 703 220 m -21 Y s 741 220 m -21 Y s 780 220 m -21 Y s 818 241 m -42 Y s[ 4 8] 0 sd 818 1493 m -1294 Y s[  ] 0 sd 856 220 m
 -21 Y s 894 220 m -21 Y s 932 220 m -21 Y s 970 220 m -21 Y s 1009 241 m -42 Y s[ 4 8] 0 sd 1009 1493 m -1294 Y s[  ] 0 sd 1047 220 m -21 Y s 1085 220 m -21 Y s 1123 220 m -21 Y s 1161 220 m -21 Y s 1200 241 m -42 Y s[ 4 8] 0 sd 1200 1493 m -1294 Y
 s[  ] 0 sd 1238 220 m -21 Y s 1276 220 m -21 Y s 1314 220 m -21 Y s 1352 220 m -21 Y s 1391 241 m -42 Y s[ 4 8] 0 sd 1391 1493 m -1294 Y s[  ] 0 sd 1429 220 m -21 Y s 1467 220 m -21 Y s 1505 220 m -21 Y s 1543 220 m -21 Y s 1582 241 m -42 Y s[ 4 8]
 0 sd 1582 1493 m -1294 Y s[  ] 0 sd 1620 220 m -21 Y s 1658 220 m -21 Y s 1696 220 m -21 Y s 1734 220 m -21 Y s 1772 241 m -42 Y s[ 4 8] 0 sd 1772 1493 m -1294 Y s[  ] 0 sd 1811 220 m -21 Y s 1849 220 m -21 Y s 1887 220 m -21 Y s 1925 220 m -21 Y s
 1963 241 m -42 Y s[ 4 8] 0 sd 1963 1493 m -1294 Y s[  ] 0 sd 2002 220 m -21 Y s 2040 220 m -21 Y s 2078 220 m -21 Y s 2116 220 m -21 Y s 2154 241 m -42 Y s[ 4 8] 0 sd 2154 1493 m -1294 Y s
 gsave  2268 1659 0 0 C 223.972 129.484 t 0 r /Helvetica-Bold findfont 62.9921 sf 0 0 m (0) show NC gr 
 gsave  2268 1659 0 0 C 395.451 129.484 t 0 r /Helvetica-Bold findfont 62.9921 sf 0 0 m (0.1) show NC gr 
 gsave  2268 1659 0 0 C 584.427 129.484 t 0 r /Helvetica-Bold findfont 62.9921 sf 0 0 m (0.2) show NC gr 
 gsave  2268 1659 0 0 C 773.403 129.484 t 0 r /Helvetica-Bold findfont 62.9921 sf 0 0 m (0.3) show NC gr 
 gsave  2268 1659 0 0 C 965.879 129.484 t 0 r /Helvetica-Bold findfont 62.9921 sf 0 0 m (0.4) show NC gr 
 gsave  2268 1659 0 0 C 1154.86 129.484 t 0 r /Helvetica-Bold findfont 62.9921 sf 0 0 m (0.5) show NC gr 
 gsave  2268 1659 0 0 C 1347.33 129.484 t 0 r /Helvetica-Bold findfont 62.9921 sf 0 0 m (0.6) show NC gr 
 gsave  2268 1659 0 0 C 1532.81 129.484 t 0 r /Helvetica-Bold findfont 62.9921 sf 0 0 m (0.7) show NC gr 
 gsave  2268 1659 0 0 C 1728.78 129.484 t 0 r /Helvetica-Bold findfont 62.9921 sf 0 0 m (0.8) show NC gr 
 gsave  2268 1659 0 0 C 1921.26 129.484 t 0 r /Helvetica-Bold findfont 62.9921 sf 0 0 m (0.9) show NC gr 
 gsave  2268 1659 0 0 C 2138.23 129.484 t 0 r /Helvetica-Bold findfont 62.9921 sf 0 0 m (1) show NC gr 
 gsave  2268 1659 0 0 C 1592.3 31.4961 t 0 r /Helvetica-Bold findfont 69.9912 sf 0 0 m (Signal efficiency) show NC gr [  ] 0 sd 245 1493 m 1909 X s 245 1451 m 42 Y s 283 1472 m 21 Y s 321 1472 m 21 Y s 359 1472 m 21 Y s 398 1472 m 21 Y s 436 1451 m
 42 Y s 474 1472 m 21 Y s 512 1472 m 21 Y s 550 1472 m 21 Y s 589 1472 m 21 Y s 627 1451 m 42 Y s 665 1472 m 21 Y s 703 1472 m 21 Y s 741 1472 m 21 Y s 780 1472 m 21 Y s 818 1451 m 42 Y s 856 1472 m 21 Y s 894 1472 m 21 Y s 932 1472 m 21 Y s 970 1472
 m 21 Y s 1009 1451 m 42 Y s 1047 1472 m 21 Y s 1085 1472 m 21 Y s 1123 1472 m 21 Y s 1161 1472 m 21 Y s 1200 1451 m 42 Y s 1238 1472 m 21 Y s 1276 1472 m 21 Y s 1314 1472 m 21 Y s 1352 1472 m 21 Y s 1391 1451 m 42 Y s 1429 1472 m 21 Y s 1467 1472 m
 21 Y s 1505 1472 m 21 Y s 1543 1472 m 21 Y s 1582 1451 m 42 Y s 1620 1472 m 21 Y s 1658 1472 m 21 Y s 1696 1472 m 21 Y s 1734 1472 m 21 Y s 1772 1451 m 42 Y s 1811 1472 m 21 Y s 1849 1472 m 21 Y s 1887 1472 m 21 Y s 1925 1472 m 21 Y s 1963 1451 m 42
 Y s 2002 1472 m 21 Y s 2040 1472 m 21 Y s 2078 1472 m 21 Y s 2116 1472 m 21 Y s 2154 1451 m 42 Y s 245 199 m 1294 Y s 298 199 m -53 X s[ 4 8] 0 sd 2154 199 m -1909 X s[  ] 0 sd 271 231 m -26 X s 271 264 m -26 X s 271 296 m -26 X s 271 328 m -26 X s
 298 361 m -53 X s[ 4 8] 0 sd 2154 361 m -1909 X s[  ] 0 sd 271 393 m -26 X s 271 425 m -26 X s 271 458 m -26 X s 271 490 m -26 X s 298 523 m -53 X s[ 4 8] 0 sd 2154 523 m -1909 X s[  ] 0 sd 271 555 m -26 X s 271 587 m -26 X s 271 620 m -26 X s 271
 652 m -26 X s 298 684 m -53 X s[ 4 8] 0 sd 2154 684 m -1909 X s[  ] 0 sd 271 717 m -26 X s 271 749 m -26 X s 271 781 m -26 X s 271 814 m -26 X s 298 846 m -53 X s[ 4 8] 0 sd 2154 846 m -1909 X s[  ] 0 sd 271 878 m -26 X s 271 911 m -26 X s 271 943 m
 -26 X s 271 975 m -26 X s 298 1008 m -53 X s[ 4 8] 0 sd 2154 1008 m -1909 X s[  ] 0 sd 271 1040 m -26 X s 271 1072 m -26 X s 271 1105 m -26 X s 271 1137 m -26 X s 298 1169 m -53 X s[ 4 8] 0 sd 2154 1169 m -1909 X s[  ] 0 sd 271 1202 m -26 X s 271
 1234 m -26 X s 271 1266 m -26 X s 271 1299 m -26 X s 298 1331 m -53 X s[ 4 8] 0 sd 2154 1331 m -1909 X s[  ] 0 sd 271 1364 m -26 X s 271 1396 m -26 X s 271 1428 m -26 X s 271 1461 m -26 X s 298 1493 m -53 X s[ 4 8] 0 sd 2154 1493 m -1909 X s[  ] 0
 sd 298 199 m -53 X s[ 4 8] 0 sd 2154 199 m -1909 X s
 gsave  2268 1659 0 0 C 132.983 174.978 t 0 r /Helvetica-Bold findfont 62.9921 sf 0 0 m (0.2) show NC gr 
 gsave  2268 1659 0 0 C 132.983 339.458 t 0 r /Helvetica-Bold findfont 62.9921 sf 0 0 m (0.3) show NC gr 
 gsave  2268 1659 0 0 C 132.983 500.437 t 0 r /Helvetica-Bold findfont 62.9921 sf 0 0 m (0.4) show NC gr 
 gsave  2268 1659 0 0 C 132.983 661.417 t 0 r /Helvetica-Bold findfont 62.9921 sf 0 0 m (0.5) show NC gr 
 gsave  2268 1659 0 0 C 132.983 822.397 t 0 r /Helvetica-Bold findfont 62.9921 sf 0 0 m (0.6) show NC gr 
 gsave  2268 1659 0 0 C 129.484 983.377 t 0 r /Helvetica-Bold findfont 62.9921 sf 0 0 m (0.7) show NC gr 
 gsave  2268 1659 0 0 C 132.983 1147.86 t 0 r /Helvetica-Bold findfont 62.9921 sf 0 0 m (0.8) show NC gr 
 gsave  2268 1659 0 0 C 132.983 1308.84 t 0 r /Helvetica-Bold findfont 62.9921 sf 0 0 m (0.9) show NC gr 
 gsave  2268 1659 0 0 C 192.476 1469.82 t 0 r /Helvetica-Bold findfont 62.9921 sf 0 0 m (1) show NC gr 
 gsave  2268 1659 0 0 C 62.9921 769.904 t 90 r /Helvetica-Bold findfont 69.9912 sf 0 0 m (Background rejection) show NC gr [  ] 0 sd 2154 199 m 1294 Y s 2101 199 m 53 X s 2128 231 m 26 X s 2128 264 m 26 X s 2128 296 m 26 X s 2128 328 m 26 X s 2101
 361 m 53 X s 2128 393 m 26 X s 2128 425 m 26 X s 2128 458 m 26 X s 2128 490 m 26 X s 2101 523 m 53 X s 2128 555 m 26 X s 2128 587 m 26 X s 2128 620 m 26 X s 2128 652 m 26 X s 2101 684 m 53 X s 2128 717 m 26 X s 2128 749 m 26 X s 2128 781 m 26 X s
 2128 814 m 26 X s 2101 846 m 53 X s 2128 878 m 26 X s 2128 911 m 26 X s 2128 943 m 26 X s 2128 975 m 26 X s 2101 1008 m 53 X s 2128 1040 m 26 X s 2128 1072 m 26 X s 2128 1105 m 26 X s 2128 1137 m 26 X s 2101 1169 m 53 X s 2128 1202 m 26 X s 2128
 1234 m 26 X s 2128 1266 m 26 X s 2128 1299 m 26 X s 2101 1331 m 53 X s 2128 1364 m 26 X s 2128 1396 m 26 X s 2128 1428 m 26 X s 2128 1461 m 26 X s 2101 1493 m 53 X s 2101 199 m 53 X s 9 lw 1 1 1 c black 254 1490 m 688 X 19 -1 d 115 X 19 -1 d 95 X s
 1190 1488 m 19 -1 d 57 X 20 -1 d 38 X 19 -1 d 19 X 19 -1 d 19 X 19 -1 d 19 -1 d 19 X 19 -1 d 20 -1 d 19 X 19 -1 d 19 -1 d 19 -1 d 19 X 19 -2 d 19 -1 d 19 -1 d 19 -1 d 20 -1 d 19 X 19 -2 d 19 -1 d 19 -1 d 19 -2 d 19 -1 d 19 -1 d 19 -2 d 19 -2 d 19 -2
 d 20 -2 d 19 -2 d 19 -2 d 19 -3 d 19 -4 d 19 -4 d 15 -5 d 4 -1 d 13 -5 d 6 -3 d 11 -6 d 6 -5 d 2 -2 d 9 -8 d 5 -6 d 5 -8 d 8 -11 d 4 -7 d 3 -6 d 3 -8 d 2 -3 d 4 -13 d 4 -11 d 3 -11 d 2 -11 d 2 -9 d 3 -11 d 1 -6 d 2 -14 d 2 -15 d 2 -16 d 2 -17 d 2
 -17 d 2 -19 d 2 -19 d 1 -20 d 2 -20 d 1 -20 d 1 -12 d s 2126 1095 m 19 -589 d s 3 lw 245 199 m 1909 X s 245 241 m -42 Y s[ 4 8] 0 sd 245 1493 m -1294 Y s[  ] 0 sd 283 220 m -21 Y s 321 220 m -21 Y s 359 220 m -21 Y s 398 220 m -21 Y s 436 241 m -42
 Y s[ 4 8] 0 sd 436 1493 m -1294 Y s[  ] 0 sd 474 220 m -21 Y s 512 220 m -21 Y s 550 220 m -21 Y s 589 220 m -21 Y s 627 241 m -42 Y s[ 4 8] 0 sd 627 1493 m -1294 Y s[  ] 0 sd 665 220 m -21 Y s 703 220 m -21 Y s 741 220 m -21 Y s 780 220 m -21 Y s
 818 241 m -42 Y s[ 4 8] 0 sd 818 1493 m -1294 Y s[  ] 0 sd 856 220 m -21 Y s 894 220 m -21 Y s 932 220 m -21 Y s 970 220 m -21 Y s 1009 241 m -42 Y s[ 4 8] 0 sd 1009 1493 m -1294 Y s[  ] 0 sd 1047 220 m -21 Y s 1085 220 m -21 Y s 1123 220 m -21 Y s
 1161 220 m -21 Y s 1200 241 m -42 Y s[ 4 8] 0 sd 1200 1493 m -1294 Y s[  ] 0 sd 1238 220 m -21 Y s 1276 220 m -21 Y s 1314 220 m -21 Y s 1352 220 m -21 Y s 1391 241 m -42 Y s[ 4 8] 0 sd 1391 1493 m -1294 Y s[  ] 0 sd 1429 220 m -21 Y s 1467 220 m
 -21 Y s 1505 220 m -21 Y s 1543 220 m -21 Y s 1582 241 m -42 Y s[ 4 8] 0 sd 1582 1493 m -1294 Y s[  ] 0 sd 1620 220 m -21 Y s 1658 220 m -21 Y s 1696 220 m -21 Y s 1734 220 m -21 Y s 1772 241 m -42 Y s[ 4 8] 0 sd 1772 1493 m -1294 Y s[  ] 0 sd 1811
 220 m -21 Y s 1849 220 m -21 Y s 1887 220 m -21 Y s 1925 220 m -21 Y s 1963 241 m -42 Y s[ 4 8] 0 sd 1963 1493 m -1294 Y s[  ] 0 sd 2002 220 m -21 Y s 2040 220 m -21 Y s 2078 220 m -21 Y s 2116 220 m -21 Y s 2154 241 m -42 Y s[ 4 8] 0 sd 2154 1493 m
 -1294 Y s[  ] 0 sd 245 1493 m 1909 X s 245 1451 m 42 Y s 283 1472 m 21 Y s 321 1472 m 21 Y s 359 1472 m 21 Y s 398 1472 m 21 Y s 436 1451 m 42 Y s 474 1472 m 21 Y s 512 1472 m 21 Y s 550 1472 m 21 Y s 589 1472 m 21 Y s 627 1451 m 42 Y s 665 1472 m
 21 Y s 703 1472 m 21 Y s 741 1472 m 21 Y s 780 1472 m 21 Y s 818 1451 m 42 Y s 856 1472 m 21 Y s 894 1472 m 21 Y s 932 1472 m 21 Y s 970 1472 m 21 Y s 1009 1451 m 42 Y s 1047 1472 m 21 Y s 1085 1472 m 21 Y s 1123 1472 m 21 Y s 1161 1472 m 21 Y s
 1200 1451 m 42 Y s 1238 1472 m 21 Y s 1276 1472 m 21 Y s 1314 1472 m 21 Y s 1352 1472 m 21 Y s 1391 1451 m 42 Y s 1429 1472 m 21 Y s 1467 1472 m 21 Y s 1505 1472 m 21 Y s 1543 1472 m 21 Y s 1582 1451 m 42 Y s 1620 1472 m 21 Y s 1658 1472 m 21 Y s
 1696 1472 m 21 Y s 1734 1472 m 21 Y s 1772 1451 m 42 Y s 1811 1472 m 21 Y s 1849 1472 m 21 Y s 1887 1472 m 21 Y s 1925 1472 m 21 Y s 1963 1451 m 42 Y s 2002 1472 m 21 Y s 2040 1472 m 21 Y s 2078 1472 m 21 Y s 2116 1472 m 21 Y s 2154 1451 m 42 Y s
 245 199 m 1294 Y s 298 199 m -53 X s[ 4 8] 0 sd 2154 199 m -1909 X s[  ] 0 sd 271 231 m -26 X s 271 264 m -26 X s 271 296 m -26 X s 271 328 m -26 X s 298 361 m -53 X s[ 4 8] 0 sd 2154 361 m -1909 X s[  ] 0 sd 271 393 m -26 X s 271 425 m -26 X s 271
 458 m -26 X s 271 490 m -26 X s 298 523 m -53 X s[ 4 8] 0 sd 2154 523 m -1909 X s[  ] 0 sd 271 555 m -26 X s 271 587 m -26 X s 271 620 m -26 X s 271 652 m -26 X s 298 684 m -53 X s[ 4 8] 0 sd 2154 684 m -1909 X s[  ] 0 sd 271 717 m -26 X s 271 749 m
 -26 X s 271 781 m -26 X s 271 814 m -26 X s 298 846 m -53 X s[ 4 8] 0 sd 2154 846 m -1909 X s[  ] 0 sd 271 878 m -26 X s 271 911 m -26 X s 271 943 m -26 X s 271 975 m -26 X s 298 1008 m -53 X s[ 4 8] 0 sd 2154 1008 m -1909 X s[  ] 0 sd 271 1040 m
 -26 X s 271 1072 m -26 X s 271 1105 m -26 X s 271 1137 m -26 X s 298 1169 m -53 X s[ 4 8] 0 sd 2154 1169 m -1909 X s[  ] 0 sd 271 1202 m -26 X s 271 1234 m -26 X s 271 1266 m -26 X s 271 1299 m -26 X s 298 1331 m -53 X s[ 4 8] 0 sd 2154 1331 m -1909
 X s[  ] 0 sd 271 1364 m -26 X s 271 1396 m -26 X s 271 1428 m -26 X s 271 1461 m -26 X s 298 1493 m -53 X s[ 4 8] 0 sd 2154 1493 m -1909 X s[  ] 0 sd 298 199 m -53 X s[ 4 8] 0 sd 2154 199 m -1909 X s[  ] 0 sd 2154 199 m 1294 Y s 2101 199 m 53 X s
 2128 231 m 26 X s 2128 264 m 26 X s 2128 296 m 26 X s 2128 328 m 26 X s 2101 361 m 53 X s 2128 393 m 26 X s 2128 425 m 26 X s 2128 458 m 26 X s 2128 490 m 26 X s 2101 523 m 53 X s 2128 555 m 26 X s 2128 587 m 26 X s 2128 620 m 26 X s 2128 652 m 26 X
 s 2101 684 m 53 X s 2128 717 m 26 X s 2128 749 m 26 X s 2128 781 m 26 X s 2128 814 m 26 X s 2101 846 m 53 X s 2128 878 m 26 X s 2128 911 m 26 X s 2128 943 m 26 X s 2128 975 m 26 X s 2101 1008 m 53 X s 2128 1040 m 26 X s 2128 1072 m 26 X s 2128 1105
 m 26 X s 2128 1137 m 26 X s 2101 1169 m 53 X s 2128 1202 m 26 X s 2128 1234 m 26 X s 2128 1266 m 26 X s 2128 1299 m 26 X s 2101 1331 m 53 X s 2128 1364 m 26 X s 2128 1396 m 26 X s 2128 1428 m 26 X s 2128 1461 m 26 X s 2101 1493 m 53 X s 2101 199 m
 53 X s
 gsave  2268 1659 0 0 C 370.954 402.45 t 0 r /Helvetica-Bold findfont 55.993 sf 0 0 m (MVA Method:) show NC gr 
 gsave  2268 1659 0 0 C 654.418 311.461 t 0 r /Helvetica-Bold findfont 55.993 sf 0 0 m (KNN) show NC gr  9 lw 388 329 m 222 X s 0.490196 0.545098 0.615686 c 3 lw 0.364706 0.419608 0.490196 c 1587 100 23 1550 bf 0.490196 0.545098 0.615686 c 23 1550 m
 1587 X s 1610 1550 m 100 Y s 1610 1650 m -1587 X s 23 1650 m -100 Y s 1 1 1 c black 1 1 1 c
 gsave  2268 1659 0 0 C 76.9904 1581.8 t 0 r /Helvetica-Bold findfont 66.4917 sf 0 0 m (Background rejection versus Signal efficiency) show NC gr 
 gr  gr showpage
end
%%EOF
