%!PS-Adobe-2.0 EPSF-2.0
%%BoundingBox:  0 0 567 419
%%Title: dataset/plots/mvaeffs_KNN.eps: Cut efficiencies for KNN classifier
%%Creator: ROOT Version 6.18/00
%%CreationDate: Mon Sep  9 20:40:21 2019
%%DocumentNeededResources: ProcSet (FontSetInit)
%%EndComments
%%BeginProlog
80 dict begin
/s {stroke} def /l {lineto} def /m {moveto} def /t {translate} def
/r {rotate} def /rl {roll}  def /R {repeat} def
/d {rlineto} def /rm {rmoveto} def /gr {grestore} def /f {eofill} def
/c {setrgbcolor} def /black {0 setgray} def /sd {setdash} def
/cl {closepath} def /sf {scalefont setfont} def /lw {setlinewidth} def
/box {m dup 0 exch d exch 0 d 0 exch neg d cl} def
/NC{systemdict begin initclip end}def/C{NC box clip newpath}def
/bl {box s} def /bf {gsave box gsave f grestore 1 lw [] 0 sd s grestore} def /Y { 0 exch d} def /X { 0 d} def 
/K {{pop pop 0 moveto} exch kshow} bind def
/ita {/ang 15 def gsave [1 0 ang dup sin exch cos div 1 0 0] concat} def 
/mp {newpath /y exch def /x exch def} def
/side {[w .77 mul w .23 mul] .385 w mul sd w 0 l currentpoint t -144 r} def
/mr {mp x y w2 0 360 arc} def /m24 {mr s} def /m20 {mr f} def
/mb {mp x y w2 add m w2 neg 0 d 0 w neg d w 0 d 0 w d cl} def
/mt {mp x y w2 add m w2 neg w neg d w 0 d cl} def
/w4 {w 4 div} def
/w6 {w 6 div} def
/w8 {w 8 div} def
/m21 {mb f} def /m25 {mb s} def /m22 {mt f} def /m26{mt s} def
/m23 {mp x y w2 sub m w2 w d w neg 0 d cl f} def
/m27 {mp x y w2 add m w3 neg w2 neg d w3 w2 neg d w3 w2 d cl s} def
/m28 {mp x w2 sub y w2 sub w3 add m w3 0 d  0 w3 neg d w3 0 d 0 w3 d w3 0 d  0 w3 d w3 neg 0 d 0 w3 d w3 neg 0 d 0 w3 neg d w3 neg 0 d cl s } def
/m29 {mp gsave x w2 sub y w2 add w3 sub m currentpoint t 4 {side} repeat cl fill gr} def
/m30 {mp gsave x w2 sub y w2 add w3 sub m currentpoint t 4 {side} repeat cl s gr} def
/m31 {mp x y w2 sub m 0 w d x w2 sub y m w 0 d x w2 sub y w2 add m w w neg d x w2 sub y w2 sub m w w d s} def
/m32 {mp x y w2 sub m w2 w d w neg 0 d cl s} def
/m33 {mp x y w2 add m w3 neg w2 neg d w3 w2 neg d w3 w2 d cl f} def
/m34 {mp x w2 sub y w2 sub w3 add m w3 0 d  0 w3 neg d w3 0 d 0 w3 d w3 0 d  0 w3 d w3 neg 0 d 0 w3 d w3 neg 0 d 0 w3 neg d w3 neg 0 d cl f } def
/m35 {mp x y w2 add m w2 neg w2 neg d w2 w2 neg d w2 w2 d w2 neg w2 d x y w2 sub m 0 w d x w2 sub y m w 0 d s} def
/m36 {mb x w2 sub y w2 add m w w neg d x w2 sub y w2 sub m w w d s} def
/m37 {mp x y m w4 neg w2 d w4 neg w2 neg d w2 0 d  w4 neg w2 neg d w2 0 d w4 neg w2 d w2 0 d w4 neg w2 d w4 neg w2 neg d cl s} def
/m38 {mp x w4 sub y w2 add m w4 neg w4 neg d 0 w2 neg d w4 w4 neg d w2 0 d w4 w4 d 0 w2 d w4 neg w4 d w2 neg 0 d x y w2 sub m 0 w d x w2 sub y m w 0 d cl s} def
/m39 {mp x y m w4 neg w2 d w4 neg w2 neg d w2 0 d  w4 neg w2 neg d w2 0 d w4 neg w2 d w2 0 d w4 neg w2 d w4 neg w2 neg d cl f} def
/m40 {mp x y m w4 w2 d w4 w4 neg d w2 neg w4 neg d w2 w4 neg d w4 neg w4 neg d w4 neg w2 d w4 neg w2 neg d w4 neg w4 d w2 w4 d w2 neg w4 d w4 w4 d w4 w2 neg d cl s} def
/m41 {mp x y m w4 w2 d w4 w4 neg d w2 neg w4 neg d w2 w4 neg d w4 neg w4 neg d w4 neg w2 d w4 neg w2 neg d w4 neg w4 d w2 w4 d w2 neg w4 d w4 w4 d w4 w2 neg d cl f} def
/m42 {mp x y w2 add m w8 neg w2 -3 4 div mul d w2 -3 4 div mul w8 neg d w2 3 4 div mul w8 neg d w8 w2 -3 4 div mul d w8 w2 3 4 div mul d w2 3 4 div mul w8 d w2 -3 4 div mul w8 d w8 neg w2 3 4 div mul d cl s} def
/m43 {mp x y w2 add m w8 neg w2 -3 4 div mul d w2 -3 4 div mul w8 neg d w2 3 4 div mul w8 neg d w8 w2 -3 4 div mul d w8 w2 3 4 div mul d w2 3 4 div mul w8 d w2 -3 4 div mul w8 d w8 neg w2 3 4 div mul d cl f} def
/m44 {mp x y m w6 neg w2 d w2 2 3 div mul 0 d w6 neg w2 neg d w2 w6 d 0 w2 -2 3 div mul d w2 neg w6 d w6 w2 neg d w2 -2 3 div mul 0 d w6 w2 d w2 neg w6 neg d 0 w2 2 3 div mul d w2 w6 neg d cl s} def
/m45 {mp x y m w6 neg w2 d w2 2 3 div mul 0 d w6 neg w2 neg d w2 w6 d 0 w2 -2 3 div mul d w2 neg w6 d w6 w2 neg d w2 -2 3 div mul 0 d w6 w2 d w2 neg w6 neg d 0 w2 2 3 div mul d w2 w6 neg d cl f} def
/m46 {mp x y w4 add m w4 neg w4 d w4 neg w4 neg d  w4 w4 neg d w4 neg w4 neg d w4 w4 neg d w4 w4 d w4 w4 neg d w4 w4 d w4 neg w4 d w4 w4 d w4 neg w4 d w4 neg w4 neg d cl s} def
/m47 {mp x y w4 add m w4 neg w4 d w4 neg w4 neg d w4 w4 neg d w4 neg w4 neg d  w4 w4 neg d w4 w4 d w4 w4 neg d w4 w4 d w4 neg w4 d w4 w4 d w4 neg w4 d w4 neg w4 neg d cl f} def
/m48 {mp x y w4 add m w4 neg w4 d w4 neg w4 neg d w4 w4 neg d  w4 neg w4 neg d w4 w4 neg d w4 w4 d w4 w4 neg d w4 w4 d w4 neg w4 d w4 w4 d w4 neg w4 d w4 neg w4 neg d  w4 w4 neg d w4 neg w4 neg d w4 neg w4 d w4 w4 d cl f} def
/m49 {mp x w2 sub w3 add y w2 sub w3 add m  0 w3 neg d w3 0 d 0 w3 d w3 0 d 0 w3 d w3 neg 0 d 0 w3 d w3 neg 0 d 0 w3 neg d w3 neg 0 d 0 w3 neg d w3 0 d 0 w3 d w3 0 d 0 w3 neg d w3 neg 0 d cl f } def
/m2 {mp x y w2 sub m 0 w d x w2 sub y m w 0 d s} def
/m5 {mp x w2 sub y w2 sub m w w d x w2 sub y w2 add m w w neg d s} def
%%IncludeResource: ProcSet (FontSetInit)
%%IncludeResource: font Times-Roman
%%IncludeResource: font Times-Italic
%%IncludeResource: font Times-Bold
%%IncludeResource: font Times-BoldItalic
%%IncludeResource: font Helvetica
%%IncludeResource: font Helvetica-Oblique
%%IncludeResource: font Helvetica-Bold
%%IncludeResource: font Helvetica-BoldOblique
%%IncludeResource: font Courier
%%IncludeResource: font Courier-Oblique
%%IncludeResource: font Courier-Bold
%%IncludeResource: font Courier-BoldOblique
%%IncludeResource: font Symbol
%%IncludeResource: font ZapfDingbats
/reEncode {exch findfont dup length dict begin {1 index /FID eq  {pop pop} {def} ifelse } forall /Encoding exch def currentdict end dup /FontName get exch definefont pop } def [/Times-Bold /Times-Italic /Times-BoldItalic /Helvetica /Helvetica-Oblique
 /Helvetica-Bold /Helvetica-BoldOblique /Courier /Courier-Oblique /Courier-Bold /Courier-BoldOblique /Times-Roman /AvantGarde-Book /AvantGarde-BookOblique /AvantGarde-Demi /AvantGarde-DemiOblique /Bookman-Demi /Bookman-DemiItalic /Bookman-Light
 /Bookman-LightItalic /Helvetica-Narrow /Helvetica-Narrow-Bold /Helvetica-Narrow-BoldOblique /Helvetica-Narrow-Oblique /NewCenturySchlbk-Roman /NewCenturySchlbk-Bold /NewCenturySchlbk-BoldItalic /NewCenturySchlbk-Italic /Palatino-Bold
 /Palatino-BoldItalic /Palatino-Italic /Palatino-Roman ] {ISOLatin1Encoding reEncode } forall
%%EndProlog
%%BeginSetup
%%EndSetup
newpath  gsave  .25 .25 scale  gsave  0 0 t 0.490196 0.545098 0.615686 c[  ] 0 sd 3 lw 0.941176 0.941176 0.941176 c 2268 1676 0 0 bf black 1 1 0.992157 c 1796 1140 245 201 bf black 1796 1140 245 201 bl 1 1 0.992157 c 1796 1140 245 201 bf black 1796
 1140 245 201 bl 245 201 m 1796 X s[ 4 8] 0 sd 245 1341 m -1140 Y s 604 1341 m -1140 Y s 963 1341 m -1140 Y s 1323 1341 m -1140 Y s 1682 1341 m -1140 Y s 2041 1341 m -1140 Y s 2041 1341 m -1140 Y s[  ] 0 sd 245 201 m 1140 Y s[ 4 8] 0 sd 2041 325 m
 -1796 X s 2041 551 m -1796 X s 2041 777 m -1796 X s 2041 1002 m -1796 X s 2041 1228 m -1796 X s 2041 325 m -1796 X s 2041 1228 m -1796 X s 0 0 0.933333 c[  22 12 ] 0 sd 6 lw 0.49 0.6 0.82 c black 0 0 0.933333 c 245 664 m 2 Y 9 X s 254 666 m 9 X s
 263 666 m 7 Y 8 X s 271 673 m 9 X s 280 673 m 1 X 11 Y 8 X s 289 684 m 9 X s 298 684 m 1 X 182 Y 8 X s 307 866 m 8 X s 315 866 m 2 X 32 Y 7 X s 324 898 m 9 X s 333 898 m 2 X 34 Y 7 X s 342 932 m 9 X s 351 932 m 2 X 32 Y 6 X s 359 964 m 9 X s 368 964
 m 3 X 23 Y 6 X s 377 987 m 9 X s 386 987 m 3 X 18 Y 6 X s 395 1005 m 8 X s 403 1005 m 3 X 1 13 d 5 X s 412 1018 m 9 X s 421 1018 m 3 X 1 12 d 5 X s 430 1030 m 9 X s 439 1030 m 3 X 1 9 d 4 X s 447 1039 m 9 X s 456 1039 m 4 X 1 8 d 4 X s 465 1047 m 9
 X s 474 1047 m 4 X 7 Y 5 X s 483 1054 m 8 X s 491 1054 m 5 X 6 Y 4 X s 500 1060 m 9 X s 509 1060 m 5 X 4 Y 4 X s 518 1064 m 9 X s 527 1064 m 5 X 4 Y 3 X s 535 1068 m 9 X s 544 1068 m 6 X 3 Y 3 X s 553 1071 m 9 X s 562 1071 m 6 X 3 Y 3 X s 571 1074 m
 8 X s 579 1074 m 7 X 2 Y 2 X s 588 1076 m 9 X s 597 1076 m 7 X 2 Y 2 X s 606 1078 m 9 X s 615 1078 m 7 X 2 Y 1 X s 623 1080 m 9 X s 632 1080 m 8 X 2 Y 1 X s 641 1082 m 9 X s 650 1082 m 8 X 2 Y 1 X s 659 1084 m 8 X s 667 1084 m 9 X 1 Y s 676 1085 m 9
 X s 685 1085 m 9 X s 694 1085 m 2 Y 9 X s 703 1087 m 8 X s 711 1087 m 1 X 1 Y 8 X s 720 1088 m 9 X s 729 1088 m 1 X 1 Y 8 X s 738 1089 m 9 X s 747 1089 m 1 X 1 Y 7 X s 755 1090 m 9 X s 764 1090 m 2 X 1 Y 7 X s 773 1091 m 9 X s 782 1091 m 9 X s 791
 1091 m 8 X s 799 1091 m 3 X 1 Y 6 X s 808 1092 m 9 X s 817 1092 m 9 X s 826 1092 m 9 X s 835 1092 m 3 X 1 Y 5 X s 843 1093 m 9 X s 852 1093 m 9 X s 861 1093 m 9 X s 870 1093 m 9 X s 879 1093 m 8 X s 887 1093 m 4 X 1 1 d 4 X s 896 1094 m 9 X s 905
 1094 m 9 X s 914 1094 m 9 X s 923 1094 m 8 X s 931 1094 m 9 X s 940 1094 m 9 X s 949 1094 m 9 X s 958 1094 m 5 X 1 Y 4 X s 967 1095 m 8 X s 975 1095 m 9 X s 984 1095 m 9 X s 993 1095 m 9 X s 1002 1095 m 9 X s 1011 1095 m 8 X s 1019 1095 m 9 X s 1028
 1095 m 9 X s 1037 1095 m 9 X s 1046 1095 m 9 X s 1055 1095 m 8 X s 1063 1095 m 9 X s 1072 1095 m 9 X s 1081 1095 m 9 X s 1090 1095 m 9 X s 1099 1095 m 8 X s 1107 1095 m 9 X s 1116 1095 m 9 X s 1125 1095 m 9 X s 1134 1095 m 9 X s 1143 1095 m 8 X s
 1151 1095 m 9 X s 1160 1095 m 9 X s 1169 1095 m 9 X s 1178 1095 m 9 X s 1187 1095 m 8 X s 1195 1095 m 2 X -1 Y 7 X s 1204 1094 m 9 X s 1213 1094 m 9 X s 1222 1094 m 9 X s 1231 1094 m 8 X s 1239 1094 m 9 X s 1248 1094 m 9 X s 1257 1094 m 9 X s 1266
 1094 m 3 X -1 Y 6 X s 1275 1093 m 8 X s 1283 1093 m 4 X -1 Y 5 X s 1292 1092 m 9 X s 1301 1092 m 9 X s 1310 1092 m 9 X s 1319 1092 m 3 X 1 -1 d 4 X s 1327 1091 m 9 X s 1336 1091 m 9 X s 1345 1091 m 9 X s 1354 1091 m 4 X 1 -1 d 4 X s 1363 1090 m 8 X
 s 1371 1090 m 9 X s 1380 1090 m 9 X s 1389 1090 m 5 X -1 Y 4 X s 1398 1089 m 9 X s 1407 1089 m 8 X s 1415 1089 m 9 X s 1424 1089 m 6 X -1 Y 3 X s 1433 1088 m 9 X s 1442 1088 m 9 X s 1451 1088 m 8 X s 1459 1088 m 7 X -1 Y 2 X s 1468 1087 m 9 X s 1477
 1087 m 9 X s 1486 1087 m 9 X s 1495 1087 m 7 X -1 Y 1 X s 1503 1086 m 9 X s 1512 1086 m 9 X s 1521 1086 m 9 X s 1530 1086 m 8 X -1 Y 1 X s 1539 1085 m 8 X s 1547 1085 m 9 X -1 Y s 1556 1084 m 9 X s 1565 1084 m 9 X s 1574 1084 m -2 Y 9 X s 1583 1082
 m 8 X s 1591 1082 m 1 X -1 Y 8 X s 1600 1081 m 9 X s 1609 1081 m 1 X -2 Y 8 X s 1618 1079 m 9 X s 1627 1079 m 1 X -2 Y 7 X s 1635 1077 m 9 X s 1644 1077 m 2 X -2 Y 7 X s 1653 1075 m 9 X s 1662 1075 m 2 X -1 Y 7 X s 1671 1074 m 8 X s 1679 1074 m 3 X
 -3 Y 6 X s 1688 1071 m 9 X s 1697 1071 m 3 X -2 Y 6 X s 1706 1069 m 9 X s 1715 1069 m 3 X -3 Y 5 X s 1723 1066 m 9 X s 1732 1066 m 4 X -4 Y 5 X s 1741 1062 m 9 X s 1750 1062 m 3 X 1 -5 d 5 X s 1759 1057 m 8 X s 1767 1057 m 4 X 1 -6 d 4 X s 1776 1051
 m 9 X s 1785 1051 m 4 X 1 -7 d 4 X s 1794 1044 m 9 X s 1803 1044 m 4 X 1 -7 d 4 X s 1812 1037 m 8 X s 1820 1037 m 5 X 1 -9 d 3 X s 1829 1028 m 9 X s 1838 1028 m 5 X -10 Y 4 X s 1847 1018 m 9 X s 1856 1018 m 5 X -15 Y 3 X s 1864 1003 m 9 X s 1873
 1003 m 6 X -18 Y 3 X s 1882 985 m 9 X s 1891 985 m 6 X -27 Y 3 X s 1900 958 m 8 X s 1908 958 m 7 X -34 Y 2 X s 1917 924 m 9 X s 1926 924 m 7 X -46 Y 2 X s 1935 878 m 9 X s 1944 878 m 7 X -60 Y 1 X s 1952 818 m 9 X s 1961 818 m 8 X -85 Y 1 X s 1970
 733 m 9 X s 1979 733 m 8 X -128 Y 1 X s 1988 605 m 8 X s 1996 605 m 9 X -164 Y s 2005 441 m 9 X s 2014 441 m 9 X s 2023 441 m -186 Y 9 X s 2032 255 m 8 X s 2040 255 m 1 X s black[  ] 0 sd 3 lw 245 201 m 1796 X s 245 241 m -40 Y s 335 221 m -20 Y s
 425 221 m -20 Y s 514 221 m -20 Y s 604 241 m -40 Y s 694 221 m -20 Y s 784 221 m -20 Y s 874 221 m -20 Y s 963 241 m -40 Y s 1053 221 m -20 Y s 1143 221 m -20 Y s 1233 221 m -20 Y s 1323 241 m -40 Y s 1412 221 m -20 Y s 1502 221 m -20 Y s 1592 221
 m -20 Y s 1682 241 m -40 Y s 1772 221 m -20 Y s 1861 221 m -20 Y s 1951 221 m -20 Y s 2041 241 m -40 Y s 2041 241 m -40 Y s
 gsave  2268 1676 0 0 C 223.738 128.934 t 0 r /Helvetica-Bold findfont 64.4669 sf 0 0 m (0) show NC gr 
 gsave  2268 1676 0 0 C 557.449 128.934 t 0 r /Helvetica-Bold findfont 64.4669 sf 0 0 m (0.2) show NC gr 
 gsave  2268 1676 0 0 C 917.705 128.934 t 0 r /Helvetica-Bold findfont 64.4669 sf 0 0 m (0.4) show NC gr 
 gsave  2268 1676 0 0 C 1274.17 128.934 t 0 r /Helvetica-Bold findfont 64.4669 sf 0 0 m (0.6) show NC gr 
 gsave  2268 1676 0 0 C 1634.42 128.934 t 0 r /Helvetica-Bold findfont 64.4669 sf 0 0 m (0.8) show NC gr 
 gsave  2268 1676 0 0 C 2025.02 128.934 t 0 r /Helvetica-Bold findfont 64.4669 sf 0 0 m (1) show NC gr 
 gsave  2268 1676 0 0 C 902.536 30.3373 t 0 r /Helvetica-Bold findfont 72.0512 sf 0 0 m (Cut value applied on KNN output) show NC gr  245 201 m 1140 Y s 291 325 m -46 X s 268 381 m -23 X s 268 438 m -23 X s 268 494 m -23 X s 291 551 m -46 X s 268 607
 m -23 X s 268 664 m -23 X s 268 720 m -23 X s 291 777 m -46 X s 268 833 m -23 X s 268 889 m -23 X s 268 946 m -23 X s 291 1002 m -46 X s 268 1059 m -23 X s 268 1115 m -23 X s 268 1172 m -23 X s 291 1228 m -46 X s 291 325 m -46 X s 268 269 m -23 X s
 268 212 m -23 X s 291 1228 m -46 X s 268 1284 m -23 X s
 gsave  2268 1676 0 0 C 128.934 299.581 t 0 r /Helvetica-Bold findfont 64.4669 sf 0 0 m (0.2) show NC gr 
 gsave  2268 1676 0 0 C 128.934 527.111 t 0 r /Helvetica-Bold findfont 64.4669 sf 0 0 m (0.4) show NC gr 
 gsave  2268 1676 0 0 C 128.934 750.849 t 0 r /Helvetica-Bold findfont 64.4669 sf 0 0 m (0.6) show NC gr 
 gsave  2268 1676 0 0 C 128.934 978.379 t 0 r /Helvetica-Bold findfont 64.4669 sf 0 0 m (0.8) show NC gr 
 gsave  2268 1676 0 0 C 189.608 1202.12 t 0 r /Helvetica-Bold findfont 64.4669 sf 0 0 m (1) show NC gr 
 gsave  2268 1676 0 0 C 64.4669 728.096 t 90 r /Helvetica-Bold findfont 72.0512 sf 0 0 m (Efficiency \(Purity\)) show NC gr  0 0 0.933333 c[  52 12 ] 0 sd 6 lw 0.49 0.6 0.82 c black 0 0 0.933333 c 245 664 m 2 Y 9 X s 254 666 m 9 X s 263 666 m 7 Y 8 X
 s 271 673 m 9 X s 280 673 m 1 X 13 Y 8 X s 289 686 m 9 X s 298 686 m 1 X 193 Y 8 X s 307 879 m 8 X s 315 879 m 2 X 34 Y 7 X s 324 913 m 9 X s 333 913 m 2 X 38 Y 7 X s 342 951 m 9 X s 351 951 m 2 X 35 Y 6 X s 359 986 m 9 X s 368 986 m 3 X 25 Y 6 X s
 377 1011 m 9 X s 386 1011 m 3 X 21 Y 6 X s 395 1032 m 8 X s 403 1032 m 3 X 1 16 d 5 X s 412 1048 m 9 X s 421 1048 m 3 X 1 13 d 5 X s 430 1061 m 9 X s 439 1061 m 3 X 1 11 d 4 X s 447 1072 m 9 X s 456 1072 m 4 X 1 10 d 4 X s 465 1082 m 9 X s 474 1082
 m 4 X 9 Y 5 X s 483 1091 m 8 X s 491 1091 m 5 X 7 Y 4 X s 500 1098 m 9 X s 509 1098 m 5 X 5 Y 4 X s 518 1103 m 9 X s 527 1103 m 5 X 6 Y 3 X s 535 1109 m 9 X s 544 1109 m 6 X 4 Y 3 X s 553 1113 m 9 X s 562 1113 m 6 X 4 Y 3 X s 571 1117 m 8 X s 579
 1117 m 7 X 3 Y 2 X s 588 1120 m 9 X s 597 1120 m 7 X 3 Y 2 X s 606 1123 m 9 X s 615 1123 m 7 X 3 Y 1 X s 623 1126 m 9 X s 632 1126 m 8 X 3 Y 1 X s 641 1129 m 9 X s 650 1129 m 8 X 3 Y 1 X s 659 1132 m 8 X s 667 1132 m 9 X 2 Y s 676 1134 m 9 X s 685
 1134 m 9 X s 694 1134 m 2 Y 9 X s 703 1136 m 8 X s 711 1136 m 1 X 2 Y 8 X s 720 1138 m 9 X s 729 1138 m 1 X 2 Y 8 X s 738 1140 m 9 X s 747 1140 m 1 X 2 Y 7 X s 755 1142 m 9 X s 764 1142 m 2 X 2 Y 7 X s 773 1144 m 9 X s 782 1144 m 2 X 1 Y 7 X s 791
 1145 m 8 X s 799 1145 m 3 X 2 Y 6 X s 808 1147 m 9 X s 817 1147 m 3 X 1 Y 6 X s 826 1148 m 9 X s 835 1148 m 3 X 2 Y 5 X s 843 1150 m 9 X s 852 1150 m 3 X 1 1 d 5 X s 861 1151 m 9 X s 870 1151 m 3 X 1 1 d 5 X s 879 1152 m 8 X s 887 1152 m 4 X 1 2 d 4
 X s 896 1154 m 9 X s 905 1154 m 9 X s 914 1154 m 9 X s 923 1154 m 4 X 1 Y 4 X s 931 1155 m 9 X s 940 1155 m 5 X 1 Y 4 X s 949 1156 m 9 X s 958 1156 m 5 X 1 Y 4 X s 967 1157 m 8 X s 975 1157 m 6 X 1 Y 3 X s 984 1158 m 9 X s 993 1158 m 6 X 1 Y 3 X s
 1002 1159 m 9 X s 1011 1159 m 6 X 1 Y 2 X s 1019 1160 m 9 X s 1028 1160 m 7 X 1 Y 2 X s 1037 1161 m 9 X s 1046 1161 m 7 X 1 Y 2 X s 1055 1162 m 8 X s 1063 1162 m 8 X 1 Y 1 X s 1072 1163 m 9 X s 1081 1163 m 9 X s 1090 1163 m 9 X s 1099 1163 m 8 X 1 Y
 s 1107 1164 m 9 X s 1116 1164 m 9 X 1 Y s 1125 1165 m 9 X s 1134 1165 m 9 X s 1143 1165 m 1 Y 8 X s 1151 1166 m 9 X s 1160 1166 m 1 X 1 Y 8 X s 1169 1167 m 9 X s 1178 1167 m 1 X 1 Y 8 X s 1187 1168 m 8 X s 1195 1168 m 2 X 1 Y 7 X s 1204 1169 m 9 X s
 1213 1169 m 2 X 1 Y 7 X s 1222 1170 m 9 X s 1231 1170 m 2 X 1 Y 6 X s 1239 1171 m 9 X s 1248 1171 m 3 X 1 Y 6 X s 1257 1172 m 9 X s 1266 1172 m 9 X s 1275 1172 m 8 X s 1283 1172 m 4 X 1 Y 5 X s 1292 1173 m 9 X s 1301 1173 m 9 X s 1310 1173 m 9 X s
 1319 1173 m 3 X 1 1 d 4 X s 1327 1174 m 9 X s 1336 1174 m 9 X s 1345 1174 m 9 X s 1354 1174 m 9 X s 1363 1174 m 8 X s 1371 1174 m 5 X 1 1 d 3 X s 1380 1175 m 9 X s 1389 1175 m 9 X s 1398 1175 m 9 X s 1407 1175 m 5 X 1 Y 3 X s 1415 1176 m 9 X s 1424
 1176 m 9 X s 1433 1176 m 9 X s 1442 1176 m 9 X s 1451 1176 m 8 X s 1459 1176 m 7 X 1 Y 2 X s 1468 1177 m 9 X s 1477 1177 m 9 X s 1486 1177 m 9 X s 1495 1177 m 7 X 1 Y 1 X s 1503 1178 m 9 X s 1512 1178 m 8 X 1 Y 1 X s 1521 1179 m 9 X s 1530 1179 m 8
 X 1 Y 1 X s 1539 1180 m 8 X s 1547 1180 m 9 X 1 Y s 1556 1181 m 9 X s 1565 1181 m 9 X s 1574 1181 m 1 Y 9 X s 1583 1182 m 8 X s 1591 1182 m 9 X s 1600 1182 m 9 X s 1609 1182 m 1 X 1 Y 8 X s 1618 1183 m 9 X s 1627 1183 m 1 X 1 Y 7 X s 1635 1184 m 9 X
 s 1644 1184 m 2 X 1 Y 7 X s 1653 1185 m 9 X s 1662 1185 m 9 X s 1671 1185 m 8 X s 1679 1185 m 3 X 1 Y 6 X s 1688 1186 m 9 X s 1697 1186 m 3 X 1 Y 6 X s 1706 1187 m 9 X s 1715 1187 m 8 X s 1723 1187 m 9 X s 1732 1187 m 4 X 1 Y 5 X s 1741 1188 m 9 X s
 1750 1188 m 3 X 1 1 d 5 X s 1759 1189 m 8 X s 1767 1189 m 4 X 1 1 d 4 X s 1776 1190 m 9 X s 1785 1190 m 4 X 1 1 d 4 X s 1794 1191 m 9 X s 1803 1191 m 4 X 1 1 d 4 X s 1812 1192 m 8 X s 1820 1192 m 5 X 1 1 d 3 X s 1829 1193 m 9 X s 1838 1193 m 9 X s
 1847 1193 m 9 X s 1856 1193 m 5 X 1 Y 3 X s 1864 1194 m 9 X s 1873 1194 m 6 X 2 Y 3 X s 1882 1196 m 9 X s 1891 1196 m 6 X 2 Y 3 X s 1900 1198 m 8 X s 1908 1198 m 7 X 1 Y 2 X s 1917 1199 m 9 X s 1926 1199 m 7 X 3 Y 2 X s 1935 1202 m 9 X s 1944 1202 m
 7 X 2 Y 1 X s 1952 1204 m 9 X s 1961 1204 m 8 X 3 Y 1 X s 1970 1207 m 9 X s 1979 1207 m 8 X 2 Y 1 X s 1988 1209 m 8 X s 1996 1209 m 9 X 2 Y s 2005 1211 m 9 X s 2014 1211 m 9 X s 2023 1211 m 2 Y 9 X s 2032 1213 m 8 X s 2040 1213 m 1 X s[  ] 0 sd 9 lw
 0.49 0.6 0.82 c black 0 0 0.933333 c 245 1228 m 9 X s 254 1228 m 9 X s 263 1228 m -1 Y 8 X s 271 1227 m 9 X s 280 1227 m 1 X -2 Y 8 X s 289 1225 m 9 X s 298 1225 m 1 X -15 Y 8 X s 307 1210 m 8 X s 315 1210 m 2 X -3 Y 7 X s 324 1207 m 9 X s 333 1207
 m 2 X -4 Y 7 X s 342 1203 m 9 X s 351 1203 m 2 X -3 Y 6 X s 359 1200 m 9 X s 368 1200 m 3 X -2 Y 6 X s 377 1198 m 9 X s 386 1198 m 3 X -3 Y 6 X s 395 1195 m 8 X s 403 1195 m 3 X 1 -2 d 5 X s 412 1193 m 9 X s 421 1193 m 3 X 1 -2 d 5 X s 430 1191 m 9
 X s 439 1191 m 3 X 1 -1 d 4 X s 447 1190 m 9 X s 456 1190 m 4 X 1 -2 d 4 X s 465 1188 m 9 X s 474 1188 m 4 X -2 Y 5 X s 483 1186 m 8 X s 491 1186 m 5 X -1 Y 4 X s 500 1185 m 9 X s 509 1185 m 5 X -1 Y 4 X s 518 1184 m 9 X s 527 1184 m 5 X -2 Y 3 X s
 535 1182 m 9 X s 544 1182 m 6 X -1 Y 3 X s 553 1181 m 9 X s 562 1181 m 6 X -1 Y 3 X s 571 1180 m 8 X s 579 1180 m 7 X -1 Y 2 X s 588 1179 m 9 X s 597 1179 m 9 X s 606 1179 m 9 X s 615 1179 m 7 X -1 Y 1 X s 623 1178 m 9 X s 632 1178 m 8 X -1 Y 1 X s
 641 1177 m 9 X s 650 1177 m 8 X -1 Y 1 X s 659 1176 m 8 X s 667 1176 m 9 X -1 Y s 676 1175 m 9 X s 685 1175 m 9 X s 694 1175 m -1 Y 9 X s 703 1174 m 8 X s 711 1174 m 1 X -1 Y 8 X s 720 1173 m 9 X s 729 1173 m 1 X -1 Y 8 X s 738 1172 m 9 X s 747 1172
 m 1 X -1 Y 7 X s 755 1171 m 9 X s 764 1171 m 2 X -1 Y 7 X s 773 1170 m 9 X s 782 1170 m 9 X s 791 1170 m 8 X s 799 1170 m 3 X -1 Y 6 X s 808 1169 m 9 X s 817 1169 m 3 X -2 Y 6 X s 826 1167 m 9 X s 835 1167 m 8 X s 843 1167 m 9 X s 852 1167 m 3 X 1
 -1 d 5 X s 861 1166 m 9 X s 870 1166 m 3 X 1 -1 d 5 X s 879 1165 m 8 X s 887 1165 m 4 X 1 -1 d 4 X s 896 1164 m 9 X s 905 1164 m 4 X 1 -1 d 4 X s 914 1163 m 9 X s 923 1163 m 8 X s 931 1163 m 9 X s 940 1163 m 5 X -1 Y 4 X s 949 1162 m 9 X s 958 1162
 m 5 X -1 Y 4 X s 967 1161 m 8 X s 975 1161 m 6 X -1 Y 3 X s 984 1160 m 9 X s 993 1160 m 9 X s 1002 1160 m 9 X s 1011 1160 m 6 X -1 Y 2 X s 1019 1159 m 9 X s 1028 1159 m 7 X -1 Y 2 X s 1037 1158 m 9 X s 1046 1158 m 9 X s 1055 1158 m 8 X s 1063 1158 m
 8 X -1 Y 1 X s 1072 1157 m 9 X s 1081 1157 m 8 X -1 Y 1 X s 1090 1156 m 9 X s 1099 1156 m 8 X -1 Y s 1107 1155 m 9 X s 1116 1155 m 9 X -1 Y s 1125 1154 m 9 X s 1134 1154 m 9 X s 1143 1154 m -1 Y 8 X s 1151 1153 m 9 X s 1160 1153 m 1 X -1 Y 8 X s
 1169 1152 m 9 X s 1178 1152 m 1 X -2 Y 8 X s 1187 1150 m 8 X s 1195 1150 m 2 X -1 Y 7 X s 1204 1149 m 9 X s 1213 1149 m 2 X -1 Y 7 X s 1222 1148 m 9 X s 1231 1148 m 2 X -1 Y 6 X s 1239 1147 m 9 X s 1248 1147 m 3 X -1 Y 6 X s 1257 1146 m 9 X s 1266
 1146 m 3 X -2 Y 6 X s 1275 1144 m 8 X s 1283 1144 m 9 X s 1292 1144 m 9 X s 1301 1144 m 3 X 1 -1 d 5 X s 1310 1143 m 9 X s 1319 1143 m 3 X 1 -2 d 4 X s 1327 1141 m 9 X s 1336 1141 m 9 X s 1345 1141 m 9 X s 1354 1141 m 4 X 1 -1 d 4 X s 1363 1140 m 8
 X s 1371 1140 m 5 X 1 -1 d 3 X s 1380 1139 m 9 X s 1389 1139 m 5 X -1 Y 4 X s 1398 1138 m 9 X s 1407 1138 m 5 X -1 Y 3 X s 1415 1137 m 9 X s 1424 1137 m 6 X -1 Y 3 X s 1433 1136 m 9 X s 1442 1136 m 6 X -1 Y 3 X s 1451 1135 m 8 X s 1459 1135 m 7 X -1
 Y 2 X s 1468 1134 m 9 X s 1477 1134 m 7 X -1 Y 2 X s 1486 1133 m 9 X s 1495 1133 m 7 X -2 Y 1 X s 1503 1131 m 9 X s 1512 1131 m 8 X -1 Y 1 X s 1521 1130 m 9 X s 1530 1130 m 8 X -2 Y 1 X s 1539 1128 m 8 X s 1547 1128 m 9 X -1 Y s 1556 1127 m 9 X s
 1565 1127 m 9 X s 1574 1127 m -3 Y 9 X s 1583 1124 m 8 X s 1591 1124 m 1 X -2 Y 8 X s 1600 1122 m 9 X s 1609 1122 m 1 X -3 Y 8 X s 1618 1119 m 9 X s 1627 1119 m 1 X -2 Y 7 X s 1635 1117 m 9 X s 1644 1117 m 2 X -3 Y 7 X s 1653 1114 m 9 X s 1662 1114
 m 2 X -2 Y 7 X s 1671 1112 m 8 X s 1679 1112 m 3 X -3 Y 6 X s 1688 1109 m 9 X s 1697 1109 m 3 X -3 Y 6 X s 1706 1106 m 9 X s 1715 1106 m 3 X -4 Y 5 X s 1723 1102 m 9 X s 1732 1102 m 4 X -5 Y 5 X s 1741 1097 m 9 X s 1750 1097 m 3 X 1 -6 d 5 X s 1759
 1091 m 8 X s 1767 1091 m 4 X 1 -6 d 4 X s 1776 1085 m 9 X s 1785 1085 m 4 X 1 -8 d 4 X s 1794 1077 m 9 X s 1803 1077 m 4 X 1 -9 d 4 X s 1812 1068 m 8 X s 1820 1068 m 5 X 1 -10 d 3 X s 1829 1058 m 9 X s 1838 1058 m 5 X -11 Y 4 X s 1847 1047 m 9 X s
 1856 1047 m 5 X -16 Y 3 X s 1864 1031 m 9 X s 1873 1031 m 6 X -20 Y 3 X s 1882 1011 m 9 X s 1891 1011 m 6 X -30 Y 3 X s 1900 981 m 8 X s 1908 981 m 7 X -35 Y 2 X s 1917 946 m 9 X s 1926 946 m 7 X -49 Y 2 X s 1935 897 m 9 X s 1944 897 m 7 X -64 Y 1 X
 s 1952 833 m 9 X s 1961 833 m 8 X -88 Y 1 X s 1970 745 m 9 X s 1979 745 m 8 X -131 Y 1 X s 1988 614 m 8 X s 1996 614 m 9 X -167 Y s 2005 447 m 9 X s 2014 447 m 9 X s 2023 447 m -190 Y 9 X s 2032 257 m 8 X s 2040 257 m 1 X s 1 0 0 c black 1 0 0 c 245
 1228 m -10 Y 9 X s 254 1218 m 9 X s 263 1218 m -29 Y 8 X s 271 1189 m 9 X s 280 1189 m 1 X -48 Y 8 X s 289 1141 m 9 X s 298 1141 m 1 X -544 Y 8 X s 307 597 m 8 X s 315 597 m 2 X -69 Y 7 X s 324 528 m 9 X s 333 528 m 2 X -69 Y 7 X s 342 459 m 9 X s
 351 459 m 2 X -59 Y 6 X s 359 400 m 9 X s 368 400 m 3 X -40 Y 6 X s 377 360 m 9 X s 386 360 m 3 X -31 Y 6 X s 395 329 m 8 X s 403 329 m 3 X 1 -21 d 5 X s 412 308 m 9 X s 421 308 m 3 X 1 -20 d 5 X s 430 288 m 9 X s 439 288 m 3 X 1 -14 d 4 X s 447 274
 m 9 X s 456 274 m 4 X 1 -13 d 4 X s 465 261 m 9 X s 474 261 m 4 X -11 Y 5 X s 483 250 m 8 X s 491 250 m 5 X -9 Y 4 X s 500 241 m 9 X s 509 241 m 5 X -7 Y 4 X s 518 234 m 9 X s 527 234 m 5 X -7 Y 3 X s 535 227 m 9 X s 544 227 m 6 X -5 Y 3 X s 553 222
 m 9 X s 562 222 m 6 X -4 Y 3 X s 571 218 m 8 X s 579 218 m 7 X -4 Y 2 X s 588 214 m 9 X s 597 214 m 7 X -4 Y 2 X s 606 210 m 9 X s 615 210 m 7 X -3 Y 1 X s 623 207 m 9 X s 632 207 m 8 X -4 Y 1 X s 641 203 m 9 X s 650 203 m 8 X -2 Y s 0 0.666667 0 c
 1 1 1 c black 0 0.666667 0 c 245 949 m 2 Y 9 X s 254 951 m 9 X s 263 951 m 5 Y 8 X s 271 956 m 9 X s 280 956 m 1 X 8 Y 8 X s 289 964 m 9 X s 298 964 m 1 X 126 Y 8 X s 307 1090 m 8 X s 315 1090 m 2 X 20 Y 7 X s 324 1110 m 9 X s 333 1110 m 2 X 21 Y 7
 X s 342 1131 m 9 X s 351 1131 m 2 X 20 Y 6 X s 359 1151 m 9 X s 368 1151 m 3 X 14 Y 6 X s 377 1165 m 9 X s 386 1165 m 3 X 11 Y 6 X s 395 1176 m 8 X s 403 1176 m 3 X 1 8 d 5 X s 412 1184 m 9 X s 421 1184 m 3 X 1 6 d 5 X s 430 1190 m 9 X s 439 1190 m
 3 X 1 6 d 4 X s 447 1196 m 9 X s 456 1196 m 4 X 1 4 d 4 X s 465 1200 m 9 X s 474 1200 m 4 X 5 Y 5 X s 483 1205 m 8 X s 491 1205 m 5 X 3 Y 4 X s 500 1208 m 9 X s 509 1208 m 5 X 2 Y 4 X s 518 1210 m 9 X s 527 1210 m 5 X 2 Y 3 X s 535 1212 m 9 X s 544
 1212 m 6 X 2 Y 3 X s 553 1214 m 9 X s 562 1214 m 6 X 2 Y 3 X s 571 1216 m 8 X s 579 1216 m 7 X 1 Y 2 X s 588 1217 m 9 X s 597 1217 m 7 X 1 Y 2 X s 606 1218 m 9 X s 615 1218 m 7 X 1 Y 1 X s 623 1219 m 9 X s 632 1219 m 8 X 2 Y 1 X s 641 1221 m 9 X s
 650 1221 m 9 X s 659 1221 m 8 X s 667 1221 m 9 X 1 Y s 676 1222 m 9 X s 685 1222 m 9 X s 694 1222 m 1 Y 9 X s 703 1223 m 8 X s 711 1223 m 1 X 1 Y 8 X s 720 1224 m 9 X s 729 1224 m 9 X s 738 1224 m 9 X s 747 1224 m 1 X 1 Y 7 X s 755 1225 m 9 X s 764
 1225 m 9 X s 773 1225 m 9 X s 782 1225 m 2 X 1 Y 7 X s 791 1226 m 8 X s 799 1226 m 9 X s 808 1226 m 9 X s 817 1226 m 9 X s 826 1226 m 9 X s 835 1226 m 3 X 1 Y 5 X s 843 1227 m 9 X s 852 1227 m 9 X s 861 1227 m 9 X s 870 1227 m 9 X s 879 1227 m 8 X s
 887 1227 m 9 X s 896 1227 m 9 X s 905 1227 m 9 X s 914 1227 m 9 X s 923 1227 m 4 X 1 Y 4 X s 931 1228 m 9 X s 940 1228 m 9 X s 949 1228 m 9 X s 958 1228 m 9 X s 967 1228 m 8 X s 975 1228 m 9 X s 984 1228 m 9 X s 993 1228 m 9 X s 1002 1228 m 9 X s
 1011 1228 m 8 X s 1019 1228 m 9 X s 1028 1228 m 9 X s 1037 1228 m 9 X s 1046 1228 m 9 X s 1055 1228 m 8 X s 1063 1228 m 9 X s 1072 1228 m 9 X s 1081 1228 m 9 X s 1090 1228 m 9 X s 1099 1228 m 8 X s 1107 1228 m 9 X s 1116 1228 m 9 X s 1125 1228 m 9 X
 s 1134 1228 m 9 X s 1143 1228 m 8 X s 1151 1228 m 9 X s 1160 1228 m 9 X s 1169 1228 m 9 X s 1178 1228 m 9 X s 1187 1228 m 8 X s 1195 1228 m 9 X s 1204 1228 m 9 X s 1213 1228 m 2 X -1 Y 7 X s 1222 1227 m 9 X s 1231 1227 m 8 X s 1239 1227 m 9 X s 1248
 1227 m 9 X s 1257 1227 m 9 X s 1266 1227 m 9 X s 1275 1227 m 8 X s 1283 1227 m 4 X -1 Y 5 X s 1292 1226 m 9 X s 1301 1226 m 9 X s 1310 1226 m 9 X s 1319 1226 m 8 X s 1327 1226 m 9 X s 1336 1226 m 4 X 1 -1 d 4 X s 1345 1225 m 9 X s 1354 1225 m 9 X s
 1363 1225 m 8 X s 1371 1225 m 9 X s 1380 1225 m 9 X s 1389 1225 m 9 X s 1398 1225 m 9 X s 1407 1225 m 5 X -1 Y 3 X s 1415 1224 m 9 X s 1424 1224 m 9 X s 1433 1224 m 9 X s 1442 1224 m 9 X s 1451 1224 m 8 X s 1459 1224 m 7 X -1 Y 2 X s 1468 1223 m 9 X
 s 1477 1223 m 9 X s 1486 1223 m 9 X s 1495 1223 m 8 X s 1503 1223 m 9 X s 1512 1223 m 9 X s 1521 1223 m 9 X s 1530 1223 m 8 X -1 Y 1 X s 1539 1222 m 8 X s 1547 1222 m 9 X -1 Y s 1556 1221 m 9 X s 1565 1221 m 9 X s 1574 1221 m 9 X s 1583 1221 m 8 X s
 1591 1221 m 1 X -1 Y 8 X s 1600 1220 m 9 X s 1609 1220 m 1 X -1 Y 8 X s 1618 1219 m 9 X s 1627 1219 m 1 X -1 Y 7 X s 1635 1218 m 9 X s 1644 1218 m 2 X -1 Y 7 X s 1653 1217 m 9 X s 1662 1217 m 2 X -1 Y 7 X s 1671 1216 m 8 X s 1679 1216 m 3 X -2 Y 6 X
 s 1688 1214 m 9 X s 1697 1214 m 3 X -1 Y 6 X s 1706 1213 m 9 X s 1715 1213 m 3 X -2 Y 5 X s 1723 1211 m 9 X s 1732 1211 m 4 X -2 Y 5 X s 1741 1209 m 9 X s 1750 1209 m 3 X 1 -3 d 5 X s 1759 1206 m 8 X s 1767 1206 m 4 X 1 -3 d 4 X s 1776 1203 m 9 X s
 1785 1203 m 4 X 1 -4 d 4 X s 1794 1199 m 9 X s 1803 1199 m 4 X 1 -5 d 4 X s 1812 1194 m 8 X s 1820 1194 m 5 X 1 -5 d 3 X s 1829 1189 m 9 X s 1838 1189 m 5 X -6 Y 4 X s 1847 1183 m 9 X s 1856 1183 m 5 X -8 Y 3 X s 1864 1175 m 9 X s 1873 1175 m 6 X
 -11 Y 3 X s 1882 1164 m 9 X s 1891 1164 m 6 X -17 Y 3 X s 1900 1147 m 8 X s 1908 1147 m 7 X -20 Y 2 X s 1917 1127 m 9 X s 1926 1127 m 7 X -30 Y 2 X s 1935 1097 m 9 X s 1944 1097 m 7 X -39 Y 1 X s 1952 1058 m 9 X s 1961 1058 m 8 X -58 Y 1 X s 1970
 1000 m 9 X s 1979 1000 m 8 X -96 Y 1 X s 1988 904 m 8 X s 1996 904 m 9 X -143 Y s 2005 761 m 9 X s 2014 761 m 9 X s 2023 761 m -215 Y 9 X s 2032 546 m 8 X s 2040 546 m 1 X s black 3 lw 245 201 m 1796 X s 245 241 m -40 Y s 335 221 m -20 Y s 425 221 m
 -20 Y s 514 221 m -20 Y s 604 241 m -40 Y s 694 221 m -20 Y s 784 221 m -20 Y s 874 221 m -20 Y s 963 241 m -40 Y s 1053 221 m -20 Y s 1143 221 m -20 Y s 1233 221 m -20 Y s 1323 241 m -40 Y s 1412 221 m -20 Y s 1502 221 m -20 Y s 1592 221 m -20 Y s
 1682 241 m -40 Y s 1772 221 m -20 Y s 1861 221 m -20 Y s 1951 221 m -20 Y s 2041 241 m -40 Y s 2041 241 m -40 Y s 245 201 m 1140 Y s 291 325 m -46 X s 268 381 m -23 X s 268 438 m -23 X s 268 494 m -23 X s 291 551 m -46 X s 268 607 m -23 X s 268 664
 m -23 X s 268 720 m -23 X s 291 777 m -46 X s 268 833 m -23 X s 268 889 m -23 X s 268 946 m -23 X s 291 1002 m -46 X s 268 1059 m -23 X s 268 1115 m -23 X s 268 1172 m -23 X s 291 1228 m -46 X s 291 325 m -46 X s 268 269 m -23 X s 268 212 m -23 X s
 291 1228 m -46 X s 268 1284 m -23 X s 0.490196 0.545098 0.615686 c 1 1 1 c 0.490196 0.545098 0.615686 c 907 201 245 1341 bl 245 1341 m 907 X s 1152 1341 m 201 Y s 1152 1542 m -907 X s 245 1542 m -201 Y s black
 gsave  2268 1676 0 0 C 515.735 1471.36 t 0 r /Helvetica-Bold findfont 53.0904 sf 0 0 m (Signal efficiency) show NC gr  0 0 0.933333 c 9 lw 286 1492 m 190 X s black
 gsave  2268 1676 0 0 C 515.735 1368.97 t 0 r /Helvetica-Bold findfont 53.0904 sf 0 0 m (Background efficiency) show NC gr  1 0 0 c 286 1391 m 190 X s 0.490196 0.545098 0.615686 c 3 lw 1 1 1 c 0.490196 0.545098 0.615686 c 889 201 1152 1341 bl 1152
 1341 m 889 X s 2041 1341 m 201 Y s 2041 1542 m -889 X s 1152 1542 m -201 Y s black
 gsave  2268 1676 0 0 C 1418.27 1494.11 t 0 r /Helvetica-Bold findfont 56.8825 sf 0 0 m (Signal purity) show NC gr  0 0 0.933333 c[  52 12 ] 0 sd 6 lw 1192 1509 m 187 X s black
 gsave  2268 1676 0 0 C 1418.27 1429.65 t 0 r /Helvetica-Bold findfont 56.8825 sf 0 0 m (Signal efficiency*purity) show NC gr  0 0 0.933333 c[  22 12 ] 0 sd 1192 1441 m 187 X s black
 gsave  2268 1676 0 0 C 1501.7 1361.39 t 0 r /Helvetica-Bold findfont 56.8825 sf 0 0 m (S+B) show NC gr [  ] 0 sd 1479 1407 m 11 -49 d s 3 lw 1490 1358 m 8 64 d s 1498 1422 m 114 X s
 gsave  2268 1676 0 0 C 1418.27 1361.39 t 0 r /Helvetica-Bold findfont 56.8825 sf 0 0 m (S/) show NC gr  0 0.666667 0 c 9 lw 1192 1374 m 187 X s black 3 lw 245 1228 m 1796 X s
 gsave  2268 1676 0 0 C 337.503 386.801 t 0 r /Helvetica-Bold findfont 53.0904 sf 0 0 m (For 1000 signal and 1000 background) show NC gr 
 gsave  2268 1676 0 0 C 1065.6 318.542 t 0 r /Helvetica-Bold findfont 53.0904 sf 0 0 m ( is) show NC gr 
 gsave  2268 1676 0 0 C 963.211 318.542 t 0 r /Helvetica-Bold findfont 53.0904 sf 0 0 m (S+B) show NC gr  6 lw 940 360 m 8 -45 d s 3 lw 948 315 m 8 60 d s 956 375 m 110 X s
 gsave  2268 1676 0 0 C 337.503 318.542 t 0 r /Helvetica-Bold findfont 53.0904 sf 0 0 m (events the maximum S/) show NC gr 
 gsave  2268 1676 0 0 C 337.503 254.075 t 0 r /Helvetica-Bold findfont 53.0904 sf 0 0 m (29.71 when cutting at  0.47) show NC gr  0.490196 0.545098 0.615686 c 0.364706 0.419608 0.490196 c 1486 96 23 1572 bf 0.490196 0.545098 0.615686 c 23 1572 m 1486
 X s 1509 1572 m 96 Y s 1509 1668 m -1486 X s 23 1668 m -96 Y s 1 1 1 c black 1 1 1 c
 gsave  2268 1676 0 0 C 75.8434 1600.29 t 0 r /Helvetica-Bold findfont 75.8434 sf 0 0 m (Cut efficiencies and optimal cut value) show NC gr  0 0.666667 0 c 2041 201 m 1140 Y s 1995 201 m 46 X s 2018 236 m 23 X s 2018 271 m 23 X s 2018 306 m 23 X s
 2018 341 m 23 X s 1995 376 m 46 X s 2018 410 m 23 X s 2018 445 m 23 X s 2018 480 m 23 X s 2018 515 m 23 X s 1995 550 m 46 X s 2018 585 m 23 X s 2018 620 m 23 X s 2018 655 m 23 X s 2018 689 m 23 X s 1995 724 m 46 X s 2018 759 m 23 X s 2018 794 m 23 X
 s 2018 829 m 23 X s 2018 864 m 23 X s 1995 899 m 46 X s 2018 934 m 23 X s 2018 969 m 23 X s 2018 1003 m 23 X s 2018 1038 m 23 X s 1995 1073 m 46 X s 2018 1108 m 23 X s 2018 1143 m 23 X s 2018 1178 m 23 X s 2018 1213 m 23 X s 1995 1248 m 46 X s 1995
 1248 m 46 X s 2018 1282 m 23 X s 2018 1317 m 23 X s black 0 0.666667 0 c
 gsave  2268 1676 0 0 C 2051.56 178.232 t 0 r /Helvetica-Bold findfont 64.4669 sf 0 0 m (0) show NC gr  black 0 0.666667 0 c
 gsave  2268 1676 0 0 C 2051.56 352.672 t 0 r /Helvetica-Bold findfont 64.4669 sf 0 0 m (5) show NC gr  black 0 0.666667 0 c
 gsave  2268 1676 0 0 C 2051.56 527.111 t 0 r /Helvetica-Bold findfont 64.4669 sf 0 0 m (10) show NC gr  black 0 0.666667 0 c
 gsave  2268 1676 0 0 C 2051.56 701.551 t 0 r /Helvetica-Bold findfont 64.4669 sf 0 0 m (15) show NC gr  black 0 0.666667 0 c
 gsave  2268 1676 0 0 C 2051.56 875.991 t 0 r /Helvetica-Bold findfont 64.4669 sf 0 0 m (20) show NC gr  black 0 0.666667 0 c
 gsave  2268 1676 0 0 C 2051.56 1046.64 t 0 r /Helvetica-Bold findfont 64.4669 sf 0 0 m (25) show NC gr  black 0 0.666667 0 c
 gsave  2268 1676 0 0 C 2051.56 1221.08 t 0 r /Helvetica-Bold findfont 64.4669 sf 0 0 m (30) show NC gr  black 0 0.666667 0 c
 gsave  2268 1676 0 0 C 2203.25 959.419 t 90 r /Helvetica-Bold findfont 64.4669 sf 0 0 m (Significance) show NC gr 
 gr  gr showpage
end
%%EOF
